EESchema Schematic File Version 4
LIBS:pcb-cache
EELAYER 30 0
EELAYER END
$Descr A4 11693 8268
encoding utf-8
Sheet 1 1
Title ""
Date ""
Rev ""
Comp ""
Comment1 ""
Comment2 ""
Comment3 ""
Comment4 ""
$EndDescr
$Comp
L pcb-rescue:OB25133-OB2513 U101
U 1 1 5D81F016
P 4450 3425
F 0 "U101" H 4450 3800 50  0000 C CNN
F 1 "OB25133" H 4450 3709 50  0000 C CNN
F 2 "modaux:SOP-7_3.76x4.96mm_P1.27mm" H 4500 3425 50  0001 C CNN
F 3 "" H 4500 3425 50  0001 C CNN
	1    4450 3425
	1    0    0    -1  
$EndComp
$Comp
L pcb-rescue:R-device R111
U 1 1 5D81F0DB
P 4025 3800
F 0 "R111" H 4095 3846 50  0000 L CNN
F 1 "6R8" H 4095 3755 50  0000 L CNN
F 2 "Resistor_SMD:R_1206_3216Metric" V 3955 3800 50  0001 C CNN
F 3 "" H 4025 3800 50  0001 C CNN
	1    4025 3800
	1    0    0    -1  
$EndComp
$Comp
L pcb-rescue:R-device R110
U 1 1 5D81F117
P 3650 3800
F 0 "R110" H 3720 3846 50  0000 L CNN
F 1 "4k7" H 3720 3755 50  0000 L CNN
F 2 "Resistor_SMD:R_0603_1608Metric" V 3580 3800 50  0001 C CNN
F 3 "" H 3650 3800 50  0001 C CNN
	1    3650 3800
	1    0    0    -1  
$EndComp
$Comp
L pcb-rescue:R-device R108
U 1 1 5D81F1E5
P 3650 3100
F 0 "R108" H 3720 3146 50  0000 L CNN
F 1 "7k5" H 3720 3055 50  0000 L CNN
F 2 "Resistor_SMD:R_0603_1608Metric" V 3580 3100 50  0001 C CNN
F 3 "" H 3650 3100 50  0001 C CNN
	1    3650 3100
	1    0    0    -1  
$EndComp
Wire Wire Line
	4025 3650 4025 3575
Wire Wire Line
	4025 3575 4150 3575
$Comp
L power:GND #PWR0101
U 1 1 5D81F226
P 4025 4000
F 0 "#PWR0101" H 4025 3750 50  0001 C CNN
F 1 "GND" H 4030 3827 50  0000 C CNN
F 2 "" H 4025 4000 50  0001 C CNN
F 3 "" H 4025 4000 50  0001 C CNN
	1    4025 4000
	1    0    0    -1  
$EndComp
$Comp
L power:GND #PWR0102
U 1 1 5D81F27A
P 3650 4000
F 0 "#PWR0102" H 3650 3750 50  0001 C CNN
F 1 "GND" H 3655 3827 50  0000 C CNN
F 2 "" H 3650 4000 50  0001 C CNN
F 3 "" H 3650 4000 50  0001 C CNN
	1    3650 4000
	1    0    0    -1  
$EndComp
$Comp
L pcb-rescue:C-device C102
U 1 1 5D81F2CF
P 4425 2850
F 0 "C102" V 4173 2850 50  0000 C CNN
F 1 "10u" V 4264 2850 50  0000 C CNN
F 2 "Capacitor_SMD:C_1210_3225Metric" H 4463 2700 50  0001 C CNN
F 3 "" H 4425 2850 50  0001 C CNN
	1    4425 2850
	0    1    1    0   
$EndComp
$Comp
L power:GND #PWR0103
U 1 1 5D81F38D
P 4875 3275
F 0 "#PWR0103" H 4875 3025 50  0001 C CNN
F 1 "GND" V 4880 3147 50  0000 R CNN
F 2 "" H 4875 3275 50  0001 C CNN
F 3 "" H 4875 3275 50  0001 C CNN
	1    4875 3275
	0    -1   -1   0   
$EndComp
Wire Wire Line
	4875 3275 4800 3275
Wire Wire Line
	4575 2850 4800 2850
Wire Wire Line
	4800 2850 4800 3275
Connection ~ 4800 3275
Wire Wire Line
	4800 3275 4750 3275
Wire Wire Line
	4150 3275 4100 3275
Wire Wire Line
	4100 3275 4100 2850
Wire Wire Line
	4100 2850 4275 2850
Wire Wire Line
	4150 3375 3650 3375
Connection ~ 3650 3375
Wire Wire Line
	3650 3375 3650 3250
$Comp
L pcb-rescue:D-device D104
U 1 1 5D81F56A
P 5375 3150
F 0 "D104" V 5329 3229 50  0000 L CNN
F 1 "ES1J" V 5420 3229 50  0000 L CNN
F 2 "Diode_SMD:D_SMA" H 5375 3150 50  0001 C CNN
F 3 "" H 5375 3150 50  0001 C CNN
	1    5375 3150
	0    1    1    0   
$EndComp
$Comp
L pcb-rescue:D_Zener-device D102
U 1 1 5D81F64D
P 5375 2750
F 0 "D102" V 5421 2671 50  0000 R CNN
F 1 "SMAJ180A" V 5330 2671 50  0000 R CNN
F 2 "Diode_SMD:D_SMA" H 5375 2750 50  0001 C CNN
F 3 "https://en.wikipedia.org/wiki/Zener_diode" H 5375 2750 50  0001 C CNN
	1    5375 2750
	0    -1   -1   0   
$EndComp
Text GLabel 6100 3475 0    50   Input ~ 0
Vlink
Wire Wire Line
	4750 3475 4825 3475
Wire Wire Line
	4750 3575 4825 3575
Wire Wire Line
	4825 3575 4825 3525
Wire Wire Line
	4825 3525 5375 3525
Connection ~ 4825 3525
Wire Wire Line
	4825 3525 4825 3475
Wire Wire Line
	5375 3000 5375 2950
Text GLabel 5375 2575 1    50   Input ~ 0
Vlink
Wire Wire Line
	5375 2600 5375 2575
Text GLabel 4500 2050 2    50   Input ~ 0
Vlink
$Comp
L pcb-rescue:R-device R106
U 1 1 5D820467
P 4100 2575
F 0 "R106" H 4170 2621 50  0000 L CNN
F 1 "270k" H 4170 2530 50  0000 L CNN
F 2 "Resistor_SMD:R_0805_2012Metric" V 4030 2575 50  0001 C CNN
F 3 "" H 4100 2575 50  0001 C CNN
	1    4100 2575
	1    0    0    -1  
$EndComp
Wire Wire Line
	4100 2725 4100 2850
Connection ~ 4100 2850
$Comp
L pcb-rescue:R-device R105
U 1 1 5D820860
P 4100 2200
F 0 "R105" H 4170 2246 50  0000 L CNN
F 1 "270k" H 4170 2155 50  0000 L CNN
F 2 "Resistor_SMD:R_0805_2012Metric" V 4030 2200 50  0001 C CNN
F 3 "" H 4100 2200 50  0001 C CNN
	1    4100 2200
	1    0    0    -1  
$EndComp
$Comp
L pcb-rescue:R-device R103
U 1 1 5D8208DA
P 4100 1825
F 0 "R103" H 4170 1871 50  0000 L CNN
F 1 "270k" H 4170 1780 50  0000 L CNN
F 2 "Resistor_SMD:R_0805_2012Metric" V 4030 1825 50  0001 C CNN
F 3 "" H 4100 1825 50  0001 C CNN
	1    4100 1825
	1    0    0    -1  
$EndComp
$Comp
L pcb-rescue:R-device R101
U 1 1 5D82094D
P 4100 1450
F 0 "R101" H 4170 1496 50  0000 L CNN
F 1 "270k" H 4170 1405 50  0000 L CNN
F 2 "Resistor_SMD:R_0805_2012Metric" V 4030 1450 50  0001 C CNN
F 3 "" H 4100 1450 50  0001 C CNN
	1    4100 1450
	1    0    0    -1  
$EndComp
$Comp
L pcb-rescue:R-device R102
U 1 1 5D820A2B
P 4400 1450
F 0 "R102" H 4470 1496 50  0000 L CNN
F 1 "270k" H 4470 1405 50  0000 L CNN
F 2 "Resistor_SMD:R_0805_2012Metric" V 4330 1450 50  0001 C CNN
F 3 "" H 4400 1450 50  0001 C CNN
	1    4400 1450
	1    0    0    -1  
$EndComp
$Comp
L pcb-rescue:R-device R104
U 1 1 5D820AA8
P 4400 1825
F 0 "R104" H 4470 1871 50  0000 L CNN
F 1 "270k" H 4470 1780 50  0000 L CNN
F 2 "Resistor_SMD:R_0805_2012Metric" V 4330 1825 50  0001 C CNN
F 3 "" H 4400 1825 50  0001 C CNN
	1    4400 1825
	1    0    0    -1  
$EndComp
Wire Wire Line
	4500 2050 4400 2050
Wire Wire Line
	4400 2050 4400 1975
Wire Wire Line
	4400 1675 4400 1600
Wire Wire Line
	4400 1300 4400 1225
Wire Wire Line
	4400 1225 4100 1225
Wire Wire Line
	4100 1225 4100 1300
Wire Wire Line
	4100 1600 4100 1675
Wire Wire Line
	4100 1975 4100 2050
Wire Wire Line
	4100 2350 4100 2425
Wire Wire Line
	4025 3950 4025 4000
Wire Wire Line
	3650 3950 3650 4000
$Comp
L pcb-rescue:D-device D101
U 1 1 5D822F6D
P 3725 2650
F 0 "D101" H 3725 2434 50  0000 C CNN
F 1 "SS110" H 3725 2525 50  0000 C CNN
F 2 "Diode_SMD:D_SOD-123" H 3725 2650 50  0001 C CNN
F 3 "" H 3725 2650 50  0001 C CNN
	1    3725 2650
	-1   0    0    1   
$EndComp
$Comp
L pcb-rescue:R-device R107
U 1 1 5D823149
P 3325 2650
F 0 "R107" V 3118 2650 50  0000 C CNN
F 1 "0" V 3209 2650 50  0000 C CNN
F 2 "Resistor_SMD:R_0603_1608Metric" V 3255 2650 50  0001 C CNN
F 3 "" H 3325 2650 50  0001 C CNN
	1    3325 2650
	0    1    1    0   
$EndComp
Wire Wire Line
	3875 2650 3975 2650
Wire Wire Line
	3975 2650 3975 2850
Wire Wire Line
	3975 2850 4100 2850
Wire Wire Line
	3650 2950 3650 2825
Wire Wire Line
	3475 2650 3575 2650
Wire Wire Line
	2600 2825 2600 2650
$Comp
L pcb-rescue:D-device D105
U 1 1 5D825EAC
P 2600 3275
F 0 "D105" V 2646 3196 50  0000 R CNN
F 1 "SS110" V 2555 3196 50  0000 R CNN
F 2 "Diode_SMD:D_SOD-123" H 2600 3275 50  0001 C CNN
F 3 "" H 2600 3275 50  0001 C CNN
	1    2600 3275
	0    -1   -1   0   
$EndComp
$Comp
L pcb-rescue:C-device C105
U 1 1 5D825F5E
P 2600 3800
F 0 "C105" H 2485 3754 50  0000 R CNN
F 1 "10u" H 2485 3845 50  0000 R CNN
F 2 "Capacitor_SMD:C_1210_3225Metric" H 2638 3650 50  0001 C CNN
F 3 "" H 2600 3800 50  0001 C CNN
	1    2600 3800
	-1   0    0    1   
$EndComp
Wire Wire Line
	2600 3425 2600 3525
$Comp
L power:GND #PWR0104
U 1 1 5D827813
P 2600 4050
F 0 "#PWR0104" H 2600 3800 50  0001 C CNN
F 1 "GND" H 2605 3877 50  0000 C CNN
F 2 "" H 2600 4050 50  0001 C CNN
F 3 "" H 2600 4050 50  0001 C CNN
	1    2600 4050
	1    0    0    -1  
$EndComp
Text GLabel 6175 3325 0    50   Input ~ 0
pri-fb
Wire Wire Line
	6100 3475 6250 3475
Text GLabel 2600 2550 1    50   Input ~ 0
pri-fb
Wire Wire Line
	2600 2550 2600 2650
Connection ~ 2600 2650
$Comp
L pcb-rescue:D-device D103
U 1 1 5D82BCA0
P 7400 3125
F 0 "D103" H 7400 2909 50  0000 C CNN
F 1 "SS110" H 7400 3000 50  0000 C CNN
F 2 "Diode_SMD:D_SOD-123" H 7400 3125 50  0001 C CNN
F 3 "" H 7400 3125 50  0001 C CNN
	1    7400 3125
	-1   0    0    1   
$EndComp
$Comp
L pcb-rescue:C-device C103
U 1 1 5D82BE1D
P 7725 3350
F 0 "C103" H 7610 3304 50  0000 R CNN
F 1 "10u" H 7610 3395 50  0000 R CNN
F 2 "Capacitor_SMD:C_1210_3225Metric" H 7763 3200 50  0001 C CNN
F 3 "" H 7725 3350 50  0001 C CNN
	1    7725 3350
	-1   0    0    1   
$EndComp
$Comp
L pcb-rescue:C-device C104
U 1 1 5D82BED4
P 8050 3350
F 0 "C104" H 7935 3304 50  0000 R CNN
F 1 "10u" H 7935 3395 50  0000 R CNN
F 2 "Capacitor_SMD:C_1210_3225Metric" H 8088 3200 50  0001 C CNN
F 3 "" H 8050 3350 50  0001 C CNN
	1    8050 3350
	-1   0    0    1   
$EndComp
$Comp
L pcb-rescue:GNDPWR-power #PWR0106
U 1 1 5D82BFD2
P 7725 3675
F 0 "#PWR0106" H 7725 3475 50  0001 C CNN
F 1 "GNDPWR" H 7925 3650 50  0000 C CNN
F 2 "" H 7725 3625 50  0001 C CNN
F 3 "" H 7725 3625 50  0001 C CNN
	1    7725 3675
	1    0    0    -1  
$EndComp
Wire Wire Line
	7725 3675 7725 3525
Wire Wire Line
	7150 3525 7725 3525
Connection ~ 7725 3525
Wire Wire Line
	7725 3525 7725 3500
Wire Wire Line
	7725 3525 8050 3525
Wire Wire Line
	8050 3525 8050 3500
Wire Wire Line
	7725 3200 7725 3125
Wire Wire Line
	7725 3125 7550 3125
Wire Wire Line
	7725 3125 8050 3125
Wire Wire Line
	8050 3125 8050 3200
Connection ~ 7725 3125
Wire Wire Line
	7250 3125 7150 3125
$Comp
L pcb-rescue:R-device R109
U 1 1 5D8317C8
P 8475 3350
F 0 "R109" H 8545 3396 50  0000 L CNN
F 1 "1k" H 8545 3305 50  0000 L CNN
F 2 "Resistor_SMD:R_1206_3216Metric" V 8405 3350 50  0001 C CNN
F 3 "" H 8475 3350 50  0001 C CNN
	1    8475 3350
	1    0    0    -1  
$EndComp
Wire Wire Line
	8050 3525 8475 3525
Wire Wire Line
	8475 3525 8475 3500
Connection ~ 8050 3525
Wire Wire Line
	8475 3125 8475 3200
Wire Wire Line
	8050 3125 8475 3125
Connection ~ 8050 3125
NoConn ~ 7150 3325
$Comp
L pcb-rescue:Transformer_ETD29_7Pin-SRC_KIT T101
U 1 1 5D81F9BA
P 6700 3225
F 0 "T101" H 6700 3590 50  0000 C CNN
F 1 "Transformer_ETD29_7Pin" H 6700 3499 50  0000 C CNN
F 2 "modaux:E13-7-4-aux" H 6700 3450 50  0001 C CNN
F 3 "" H 6700 3450 50  0001 C CNN
	1    6700 3225
	1    0    0    -1  
$EndComp
$Comp
L Connector_Generic:Conn_01x02 J101
U 1 1 5D838F74
P 1750 1725
F 0 "J101" H 1670 1400 50  0000 C CNN
F 1 "Conn_01x02" H 1670 1491 50  0000 C CNN
F 2 "Connector_Phoenix_MSTB:PhoenixContact_MSTBA_2,5_2-G-5,08_1x02_P5.08mm_Horizontal" H 1750 1725 50  0001 C CNN
F 3 "~" H 1750 1725 50  0001 C CNN
	1    1750 1725
	-1   0    0    1   
$EndComp
$Comp
L power:GND #PWR0107
U 1 1 5D839188
P 2000 1775
F 0 "#PWR0107" H 2000 1525 50  0001 C CNN
F 1 "GND" H 2005 1602 50  0000 C CNN
F 2 "" H 2000 1775 50  0001 C CNN
F 3 "" H 2000 1775 50  0001 C CNN
	1    2000 1775
	1    0    0    -1  
$EndComp
Text GLabel 2150 1500 1    50   Input ~ 0
Vlink
Wire Wire Line
	1950 1725 2000 1725
Wire Wire Line
	2000 1725 2000 1775
Wire Wire Line
	1950 1625 2150 1625
Wire Wire Line
	2150 1625 2150 1500
$Comp
L pcb-rescue:C-device C101
U 1 1 5D83BB9C
P 3100 950
F 0 "C101" H 3215 996 50  0000 L CNN
F 1 "470n" H 3215 905 50  0000 L CNN
F 2 "Capacitor_THT:C_Rect_L16.5mm_W13.5mm_P15.00mm_MKT" H 3138 800 50  0001 C CNN
F 3 "" H 3100 950 50  0001 C CNN
	1    3100 950 
	1    0    0    -1  
$EndComp
Text GLabel 3125 725  2    50   Input ~ 0
Vlink
$Comp
L power:GND #PWR0108
U 1 1 5D83BCC6
P 3100 1175
F 0 "#PWR0108" H 3100 925 50  0001 C CNN
F 1 "GND" H 3105 1002 50  0000 C CNN
F 2 "" H 3100 1175 50  0001 C CNN
F 3 "" H 3100 1175 50  0001 C CNN
	1    3100 1175
	1    0    0    -1  
$EndComp
Wire Wire Line
	3100 1175 3100 1100
Wire Wire Line
	3100 800  3100 725 
Wire Wire Line
	3100 725  3125 725 
$Comp
L Connector_Generic:Conn_01x02 J103
U 1 1 5D83EA07
P 1975 4675
F 0 "J103" H 1895 4350 50  0000 C CNN
F 1 "Conn_01x02" H 1895 4441 50  0000 C CNN
F 2 "Connector_Phoenix_MSTB:PhoenixContact_MSTBA_2,5_2-G-5,08_1x02_P5.08mm_Horizontal" H 1975 4675 50  0001 C CNN
F 3 "~" H 1975 4675 50  0001 C CNN
	1    1975 4675
	-1   0    0    1   
$EndComp
$Comp
L power:GND #PWR0109
U 1 1 5D842F34
P 2225 4725
F 0 "#PWR0109" H 2225 4475 50  0001 C CNN
F 1 "GND" H 2230 4552 50  0000 C CNN
F 2 "" H 2225 4725 50  0001 C CNN
F 3 "" H 2225 4725 50  0001 C CNN
	1    2225 4725
	1    0    0    -1  
$EndComp
Wire Wire Line
	2175 4675 2225 4675
Wire Wire Line
	2225 4675 2225 4725
Wire Wire Line
	2175 4575 2350 4575
Wire Wire Line
	2350 4575 2350 3525
Wire Wire Line
	2350 3525 2600 3525
Connection ~ 2600 3525
Wire Wire Line
	2600 3525 2600 3650
$Comp
L Connector_Generic:Conn_01x02 J102
U 1 1 5D8466FF
P 9125 3325
F 0 "J102" H 9205 3317 50  0000 L CNN
F 1 "Conn_01x02" H 9205 3226 50  0000 L CNN
F 2 "Connector_Phoenix_MSTB:PhoenixContact_MSTBA_2,5_2-G-5,08_1x02_P5.08mm_Horizontal" H 9125 3325 50  0001 C CNN
F 3 "~" H 9125 3325 50  0001 C CNN
	1    9125 3325
	1    0    0    -1  
$EndComp
Wire Wire Line
	8475 3525 8925 3525
Wire Wire Line
	8925 3525 8925 3425
Connection ~ 8475 3525
Wire Wire Line
	8925 3325 8925 3125
Wire Wire Line
	8925 3125 8475 3125
Connection ~ 8475 3125
Wire Wire Line
	5375 3300 5375 3525
Text GLabel 6150 3675 0    50   Input ~ 0
SW
Wire Wire Line
	6150 3675 6250 3675
Text GLabel 5425 3525 2    50   Input ~ 0
SW
Wire Wire Line
	5425 3525 5375 3525
Connection ~ 5375 3525
$Comp
L power:GND #PWR0105
U 1 1 5D80DB4E
P 6150 3125
F 0 "#PWR0105" H 6150 2875 50  0001 C CNN
F 1 "GND" H 6155 2952 50  0000 C CNN
F 2 "" H 6150 3125 50  0001 C CNN
F 3 "" H 6150 3125 50  0001 C CNN
	1    6150 3125
	0    1    1    0   
$EndComp
Wire Wire Line
	6175 3325 6250 3325
Wire Wire Line
	6150 3125 6250 3125
Text GLabel 5350 2950 0    50   Input ~ 0
Sw2
Wire Wire Line
	5350 2950 5375 2950
Connection ~ 5375 2950
Wire Wire Line
	5375 2950 5375 2900
$Comp
L Connector:TestPoint TP101
U 1 1 5D813EE7
P 9825 1425
F 0 "TP101" H 9883 1545 50  0000 L CNN
F 1 "TestPoint" H 9883 1454 50  0000 L CNN
F 2 "SRC_KIT:3mm_holes" H 10025 1425 50  0001 C CNN
F 3 "~" H 10025 1425 50  0001 C CNN
	1    9825 1425
	1    0    0    -1  
$EndComp
$Comp
L Connector:TestPoint TP102
U 1 1 5D81407B
P 9825 1650
F 0 "TP102" H 9883 1770 50  0000 L CNN
F 1 "TestPoint" H 9883 1679 50  0000 L CNN
F 2 "SRC_KIT:3mm_holes" H 10025 1650 50  0001 C CNN
F 3 "~" H 10025 1650 50  0001 C CNN
	1    9825 1650
	1    0    0    -1  
$EndComp
$Comp
L Connector:TestPoint TP103
U 1 1 5D8140D1
P 9825 1875
F 0 "TP103" H 9883 1995 50  0000 L CNN
F 1 "TestPoint" H 9883 1904 50  0000 L CNN
F 2 "SRC_KIT:3mm_holes" H 10025 1875 50  0001 C CNN
F 3 "~" H 10025 1875 50  0001 C CNN
	1    9825 1875
	1    0    0    -1  
$EndComp
$Comp
L Connector:TestPoint TP104
U 1 1 5D81412B
P 9825 2075
F 0 "TP104" H 9883 2195 50  0000 L CNN
F 1 "TestPoint" H 9883 2104 50  0000 L CNN
F 2 "SRC_KIT:3mm_holes" H 10025 2075 50  0001 C CNN
F 3 "~" H 10025 2075 50  0001 C CNN
	1    9825 2075
	1    0    0    -1  
$EndComp
NoConn ~ 9825 1425
NoConn ~ 9825 1650
NoConn ~ 9825 1875
NoConn ~ 9825 2075
$Comp
L pcb-rescue:C-device C1
U 1 1 5DB80A97
P 3300 3800
F 0 "C1" H 3185 3754 50  0000 R CNN
F 1 "56p" H 3185 3845 50  0000 R CNN
F 2 "Capacitor_SMD:C_0603_1608Metric" H 3338 3650 50  0001 C CNN
F 3 "" H 3300 3800 50  0001 C CNN
	1    3300 3800
	-1   0    0    1   
$EndComp
Wire Wire Line
	3300 3550 3300 3650
$Comp
L SRC_Power_Adaptor-cache:SRC_KIT_R_Small R1
U 1 1 5DB9065D
P 2950 3850
F 0 "R1" H 3009 3896 50  0000 L CNN
F 1 "1k" H 3009 3805 50  0000 L CNN
F 2 "" H 2950 3850 50  0001 C CNN
F 3 "" H 2950 3850 50  0001 C CNN
	1    2950 3850
	1    0    0    -1  
$EndComp
Wire Wire Line
	2950 3650 2950 3750
Wire Wire Line
	2950 3950 2950 4000
Wire Wire Line
	2600 2650 3175 2650
Wire Wire Line
	2600 2825 3650 2825
Connection ~ 2600 2825
Wire Wire Line
	3300 3550 3650 3550
Wire Wire Line
	3650 3375 3650 3550
Connection ~ 3650 3550
Wire Wire Line
	3650 3550 3650 3650
Wire Wire Line
	3300 3950 3650 3950
Connection ~ 3650 3950
Wire Wire Line
	2600 3650 2950 3650
Connection ~ 2600 3650
Wire Wire Line
	2600 4000 2950 4000
Wire Wire Line
	2600 3950 2600 4000
Connection ~ 2600 4000
Wire Wire Line
	2600 4000 2600 4050
Wire Wire Line
	2600 2825 2600 3125
$EndSCHEMATC
