(kicad_sch (version 20230121) (generator eeschema)

  (uuid 800e854d-b38b-4514-81e3-f2407e36beda)

  (paper "A4")

  (lib_symbols
    (symbol "Connector:TestPoint" (pin_numbers hide) (pin_names (offset 0.762) hide) (in_bom yes) (on_board yes)
      (property "Reference" "TP" (at 0 6.858 0)
        (effects (font (size 1.27 1.27)))
      )
      (property "Value" "Connector_TestPoint" (at 0 5.08 0)
        (effects (font (size 1.27 1.27)))
      )
      (property "Footprint" "" (at 5.08 0 0)
        (effects (font (size 1.27 1.27)) hide)
      )
      (property "Datasheet" "" (at 5.08 0 0)
        (effects (font (size 1.27 1.27)) hide)
      )
      (property "ki_fp_filters" "Pin* Test*" (at 0 0 0)
        (effects (font (size 1.27 1.27)) hide)
      )
      (symbol "TestPoint_0_1"
        (circle (center 0 3.302) (radius 0.762)
          (stroke (width 0) (type solid))
          (fill (type none))
        )
      )
      (symbol "TestPoint_1_1"
        (pin passive line (at 0 0 90) (length 2.54)
          (name "1" (effects (font (size 1.27 1.27))))
          (number "1" (effects (font (size 1.27 1.27))))
        )
      )
    )
    (symbol "Connector_Generic:Conn_01x02" (pin_names (offset 1.016) hide) (in_bom yes) (on_board yes)
      (property "Reference" "J" (at 0 2.54 0)
        (effects (font (size 1.27 1.27)))
      )
      (property "Value" "Conn_01x02" (at 0 -5.08 0)
        (effects (font (size 1.27 1.27)))
      )
      (property "Footprint" "" (at 0 0 0)
        (effects (font (size 1.27 1.27)) hide)
      )
      (property "Datasheet" "~" (at 0 0 0)
        (effects (font (size 1.27 1.27)) hide)
      )
      (property "ki_keywords" "connector" (at 0 0 0)
        (effects (font (size 1.27 1.27)) hide)
      )
      (property "ki_description" "Generic connector, single row, 01x02, script generated (kicad-library-utils/schlib/autogen/connector/)" (at 0 0 0)
        (effects (font (size 1.27 1.27)) hide)
      )
      (property "ki_fp_filters" "Connector*:*_1x??_*" (at 0 0 0)
        (effects (font (size 1.27 1.27)) hide)
      )
      (symbol "Conn_01x02_1_1"
        (rectangle (start -1.27 -2.413) (end 0 -2.667)
          (stroke (width 0.1524) (type default))
          (fill (type none))
        )
        (rectangle (start -1.27 0.127) (end 0 -0.127)
          (stroke (width 0.1524) (type default))
          (fill (type none))
        )
        (rectangle (start -1.27 1.27) (end 1.27 -3.81)
          (stroke (width 0.254) (type default))
          (fill (type background))
        )
        (pin passive line (at -5.08 0 0) (length 3.81)
          (name "Pin_1" (effects (font (size 1.27 1.27))))
          (number "1" (effects (font (size 1.27 1.27))))
        )
        (pin passive line (at -5.08 -2.54 0) (length 3.81)
          (name "Pin_2" (effects (font (size 1.27 1.27))))
          (number "2" (effects (font (size 1.27 1.27))))
        )
      )
    )
    (symbol "SRC_Power_Adaptor-cache:SRC_KIT_R_Small" (pin_numbers hide) (pin_names (offset 0.254) hide) (in_bom yes) (on_board yes)
      (property "Reference" "R" (at 0.762 0.508 0)
        (effects (font (size 1.27 1.27)) (justify left))
      )
      (property "Value" "SRC_Power_Adaptor-cache_SRC_KIT_R_Small" (at 0.762 -1.016 0)
        (effects (font (size 1.27 1.27)) (justify left))
      )
      (property "Footprint" "" (at 0 0 0)
        (effects (font (size 1.27 1.27)) hide)
      )
      (property "Datasheet" "" (at 0 0 0)
        (effects (font (size 1.27 1.27)) hide)
      )
      (property "ki_fp_filters" "R_*" (at 0 0 0)
        (effects (font (size 1.27 1.27)) hide)
      )
      (symbol "SRC_KIT_R_Small_0_1"
        (rectangle (start -0.762 1.778) (end 0.762 -1.778)
          (stroke (width 0.2032) (type solid))
          (fill (type none))
        )
      )
      (symbol "SRC_KIT_R_Small_1_1"
        (pin passive line (at 0 2.54 270) (length 0.762)
          (name "~" (effects (font (size 1.27 1.27))))
          (number "1" (effects (font (size 1.27 1.27))))
        )
        (pin passive line (at 0 -2.54 90) (length 0.762)
          (name "~" (effects (font (size 1.27 1.27))))
          (number "2" (effects (font (size 1.27 1.27))))
        )
      )
    )
    (symbol "pcb-rescue:C-device" (pin_numbers hide) (pin_names (offset 0.254)) (in_bom yes) (on_board yes)
      (property "Reference" "C" (at 0.635 2.54 0)
        (effects (font (size 1.27 1.27)) (justify left))
      )
      (property "Value" "C-device" (at 0.635 -2.54 0)
        (effects (font (size 1.27 1.27)) (justify left))
      )
      (property "Footprint" "" (at 0.9652 -3.81 0)
        (effects (font (size 1.27 1.27)) hide)
      )
      (property "Datasheet" "" (at 0 0 0)
        (effects (font (size 1.27 1.27)) hide)
      )
      (property "ki_fp_filters" "C_*" (at 0 0 0)
        (effects (font (size 1.27 1.27)) hide)
      )
      (symbol "C-device_0_1"
        (polyline
          (pts
            (xy -2.032 -0.762)
            (xy 2.032 -0.762)
          )
          (stroke (width 0.508) (type solid))
          (fill (type none))
        )
        (polyline
          (pts
            (xy -2.032 0.762)
            (xy 2.032 0.762)
          )
          (stroke (width 0.508) (type solid))
          (fill (type none))
        )
      )
      (symbol "C-device_1_1"
        (pin passive line (at 0 3.81 270) (length 2.794)
          (name "~" (effects (font (size 1.27 1.27))))
          (number "1" (effects (font (size 1.27 1.27))))
        )
        (pin passive line (at 0 -3.81 90) (length 2.794)
          (name "~" (effects (font (size 1.27 1.27))))
          (number "2" (effects (font (size 1.27 1.27))))
        )
      )
    )
    (symbol "pcb-rescue:D-device" (pin_numbers hide) (pin_names (offset 1.016) hide) (in_bom yes) (on_board yes)
      (property "Reference" "D" (at 0 2.54 0)
        (effects (font (size 1.27 1.27)))
      )
      (property "Value" "D-device" (at 0 -2.54 0)
        (effects (font (size 1.27 1.27)))
      )
      (property "Footprint" "" (at 0 0 0)
        (effects (font (size 1.27 1.27)) hide)
      )
      (property "Datasheet" "" (at 0 0 0)
        (effects (font (size 1.27 1.27)) hide)
      )
      (property "ki_fp_filters" "TO-???* *SingleDiode *_Diode_* *SingleDiode* D_*" (at 0 0 0)
        (effects (font (size 1.27 1.27)) hide)
      )
      (symbol "D-device_0_1"
        (polyline
          (pts
            (xy -1.27 1.27)
            (xy -1.27 -1.27)
          )
          (stroke (width 0.2032) (type solid))
          (fill (type none))
        )
        (polyline
          (pts
            (xy 1.27 0)
            (xy -1.27 0)
          )
          (stroke (width 0) (type solid))
          (fill (type none))
        )
        (polyline
          (pts
            (xy 1.27 1.27)
            (xy 1.27 -1.27)
            (xy -1.27 0)
            (xy 1.27 1.27)
          )
          (stroke (width 0.2032) (type solid))
          (fill (type none))
        )
      )
      (symbol "D-device_1_1"
        (pin passive line (at -3.81 0 0) (length 2.54)
          (name "K" (effects (font (size 1.27 1.27))))
          (number "1" (effects (font (size 1.27 1.27))))
        )
        (pin passive line (at 3.81 0 180) (length 2.54)
          (name "A" (effects (font (size 1.27 1.27))))
          (number "2" (effects (font (size 1.27 1.27))))
        )
      )
    )
    (symbol "pcb-rescue:D_Zener-device" (pin_numbers hide) (pin_names (offset 1.016) hide) (in_bom yes) (on_board yes)
      (property "Reference" "D" (at 0 2.54 0)
        (effects (font (size 1.27 1.27)))
      )
      (property "Value" "D_Zener-device" (at 0 -2.54 0)
        (effects (font (size 1.27 1.27)))
      )
      (property "Footprint" "" (at 0 0 0)
        (effects (font (size 1.27 1.27)) hide)
      )
      (property "Datasheet" "" (at 0 0 0)
        (effects (font (size 1.27 1.27)) hide)
      )
      (property "ki_fp_filters" "TO-???* *SingleDiode *_Diode_* *SingleDiode* D_*" (at 0 0 0)
        (effects (font (size 1.27 1.27)) hide)
      )
      (symbol "D_Zener-device_0_1"
        (polyline
          (pts
            (xy 1.27 0)
            (xy -1.27 0)
          )
          (stroke (width 0) (type solid))
          (fill (type none))
        )
        (polyline
          (pts
            (xy -1.27 -1.27)
            (xy -1.27 1.27)
            (xy -0.762 1.27)
          )
          (stroke (width 0.2032) (type solid))
          (fill (type none))
        )
        (polyline
          (pts
            (xy 1.27 -1.27)
            (xy 1.27 1.27)
            (xy -1.27 0)
            (xy 1.27 -1.27)
          )
          (stroke (width 0.2032) (type solid))
          (fill (type none))
        )
      )
      (symbol "D_Zener-device_1_1"
        (pin passive line (at -3.81 0 0) (length 2.54)
          (name "K" (effects (font (size 1.27 1.27))))
          (number "1" (effects (font (size 1.27 1.27))))
        )
        (pin passive line (at 3.81 0 180) (length 2.54)
          (name "A" (effects (font (size 1.27 1.27))))
          (number "2" (effects (font (size 1.27 1.27))))
        )
      )
    )
    (symbol "pcb-rescue:GNDPWR-power" (power) (pin_names (offset 0)) (in_bom yes) (on_board yes)
      (property "Reference" "#PWR" (at 0 -5.08 0)
        (effects (font (size 1.27 1.27)) hide)
      )
      (property "Value" "GNDPWR-power" (at 0 -3.302 0)
        (effects (font (size 1.27 1.27)))
      )
      (property "Footprint" "" (at 0 -1.27 0)
        (effects (font (size 1.27 1.27)) hide)
      )
      (property "Datasheet" "" (at 0 -1.27 0)
        (effects (font (size 1.27 1.27)) hide)
      )
      (symbol "GNDPWR-power_0_1"
        (polyline
          (pts
            (xy 0 -1.27)
            (xy 0 0)
          )
          (stroke (width 0) (type solid))
          (fill (type none))
        )
        (polyline
          (pts
            (xy -1.016 -1.27)
            (xy -1.27 -2.032)
            (xy -1.27 -2.032)
          )
          (stroke (width 0.2032) (type solid))
          (fill (type none))
        )
        (polyline
          (pts
            (xy -0.508 -1.27)
            (xy -0.762 -2.032)
            (xy -0.762 -2.032)
          )
          (stroke (width 0.2032) (type solid))
          (fill (type none))
        )
        (polyline
          (pts
            (xy 0 -1.27)
            (xy -0.254 -2.032)
            (xy -0.254 -2.032)
          )
          (stroke (width 0.2032) (type solid))
          (fill (type none))
        )
        (polyline
          (pts
            (xy 0.508 -1.27)
            (xy 0.254 -2.032)
            (xy 0.254 -2.032)
          )
          (stroke (width 0.2032) (type solid))
          (fill (type none))
        )
        (polyline
          (pts
            (xy 1.016 -1.27)
            (xy -1.016 -1.27)
            (xy -1.016 -1.27)
          )
          (stroke (width 0.2032) (type solid))
          (fill (type none))
        )
        (polyline
          (pts
            (xy 1.016 -1.27)
            (xy 0.762 -2.032)
            (xy 0.762 -2.032)
            (xy 0.762 -2.032)
          )
          (stroke (width 0.2032) (type solid))
          (fill (type none))
        )
      )
      (symbol "GNDPWR-power_1_1"
        (pin power_in line (at 0 0 90) (length 0) hide
          (name "GNDPWR" (effects (font (size 1.27 1.27))))
          (number "1" (effects (font (size 1.27 1.27))))
        )
      )
    )
    (symbol "pcb-rescue:OB25133-OB2513" (pin_names (offset 1.016)) (in_bom yes) (on_board yes)
      (property "Reference" "U" (at 0 -6.35 0)
        (effects (font (size 1.27 1.27)))
      )
      (property "Value" "OB25133-OB2513" (at 0 6.35 0)
        (effects (font (size 1.27 1.27)))
      )
      (property "Footprint" "" (at 1.27 0 0)
        (effects (font (size 1.27 1.27)) hide)
      )
      (property "Datasheet" "" (at 1.27 0 0)
        (effects (font (size 1.27 1.27)) hide)
      )
      (symbol "OB25133-OB2513_0_1"
        (rectangle (start -5.08 5.08) (end 5.08 -5.08)
          (stroke (width 0) (type solid))
          (fill (type none))
        )
      )
      (symbol "OB25133-OB2513_1_1"
        (pin input line (at -7.62 3.81 0) (length 2.54)
          (name "VDD" (effects (font (size 1.27 1.27))))
          (number "1" (effects (font (size 1.27 1.27))))
        )
        (pin input line (at -7.62 1.27 0) (length 2.54)
          (name "FB" (effects (font (size 1.27 1.27))))
          (number "2" (effects (font (size 1.27 1.27))))
        )
        (pin no_connect line (at -7.62 -1.27 0) (length 2.54)
          (name "NC" (effects (font (size 1.27 1.27))))
          (number "3" (effects (font (size 1.27 1.27))))
        )
        (pin input line (at -7.62 -3.81 0) (length 2.54)
          (name "CS" (effects (font (size 1.27 1.27))))
          (number "4" (effects (font (size 1.27 1.27))))
        )
        (pin input line (at 7.62 -3.81 180) (length 2.54)
          (name "C" (effects (font (size 1.27 1.27))))
          (number "5" (effects (font (size 1.27 1.27))))
        )
        (pin input line (at 7.62 -1.27 180) (length 2.54)
          (name "C" (effects (font (size 1.27 1.27))))
          (number "6" (effects (font (size 1.27 1.27))))
        )
        (pin input line (at 7.62 3.81 180) (length 2.54)
          (name "GND" (effects (font (size 1.27 1.27))))
          (number "8" (effects (font (size 1.27 1.27))))
        )
      )
    )
    (symbol "pcb-rescue:R-device" (pin_numbers hide) (pin_names (offset 0)) (in_bom yes) (on_board yes)
      (property "Reference" "R" (at 2.032 0 90)
        (effects (font (size 1.27 1.27)))
      )
      (property "Value" "R-device" (at 0 0 90)
        (effects (font (size 1.27 1.27)))
      )
      (property "Footprint" "" (at -1.778 0 90)
        (effects (font (size 1.27 1.27)) hide)
      )
      (property "Datasheet" "" (at 0 0 0)
        (effects (font (size 1.27 1.27)) hide)
      )
      (property "ki_fp_filters" "R_* R_*" (at 0 0 0)
        (effects (font (size 1.27 1.27)) hide)
      )
      (symbol "R-device_0_1"
        (rectangle (start -1.016 -2.54) (end 1.016 2.54)
          (stroke (width 0.254) (type solid))
          (fill (type none))
        )
      )
      (symbol "R-device_1_1"
        (pin passive line (at 0 3.81 270) (length 1.27)
          (name "~" (effects (font (size 1.27 1.27))))
          (number "1" (effects (font (size 1.27 1.27))))
        )
        (pin passive line (at 0 -3.81 90) (length 1.27)
          (name "~" (effects (font (size 1.27 1.27))))
          (number "2" (effects (font (size 1.27 1.27))))
        )
      )
    )
    (symbol "pcb-rescue:Transformer_ETD29_7Pin-SRC_KIT" (pin_names (offset 1.016) hide) (in_bom yes) (on_board yes)
      (property "Reference" "T" (at 0 6.35 0)
        (effects (font (size 1.27 1.27)))
      )
      (property "Value" "Transformer_ETD29_7Pin-SRC_KIT" (at 0 8.89 0)
        (effects (font (size 1.27 1.27)))
      )
      (property "Footprint" "" (at 0 5.715 0)
        (effects (font (size 1.27 1.27)) hide)
      )
      (property "Datasheet" "" (at 0 5.715 0)
        (effects (font (size 1.27 1.27)) hide)
      )
      (symbol "Transformer_ETD29_7Pin-SRC_KIT_0_1"
        (arc (start -3.81 -2.5146) (mid -2.9299 -2.1501) (end -2.54 -1.27)
          (stroke (width 0) (type solid))
          (fill (type none))
        )
        (arc (start -3.81 0.0254) (mid -2.9299 0.3899) (end -2.54 1.27)
          (stroke (width 0) (type solid))
          (fill (type none))
        )
        (arc (start -2.54 -1.27) (mid -2.912 -0.372) (end -3.81 0)
          (stroke (width 0) (type solid))
          (fill (type none))
        )
        (arc (start -2.54 1.27) (mid -2.912 2.168) (end -3.81 2.54)
          (stroke (width 0) (type solid))
          (fill (type none))
        )
        (polyline
          (pts
            (xy -0.635 5.08)
            (xy -0.635 -15.24)
          )
          (stroke (width 0) (type solid))
          (fill (type none))
        )
        (polyline
          (pts
            (xy 0.635 -15.24)
            (xy 0.635 5.08)
          )
          (stroke (width 0) (type solid))
          (fill (type none))
        )
        (arc (start 2.5654 -3.81) (mid 2.9299 -4.6901) (end 3.81 -5.0546)
          (stroke (width 0) (type solid))
          (fill (type none))
        )
        (arc (start 2.5654 -1.27) (mid 2.9299 -2.1501) (end 3.81 -2.5146)
          (stroke (width 0) (type solid))
          (fill (type none))
        )
        (arc (start 2.5654 1.27) (mid 2.9299 0.3899) (end 3.81 0.0254)
          (stroke (width 0) (type solid))
          (fill (type none))
        )
        (arc (start 2.5908 -6.35) (mid 2.9553 -7.2301) (end 3.8354 -7.5946)
          (stroke (width 0) (type solid))
          (fill (type none))
        )
        (arc (start 3.81 -2.54) (mid 2.912 -2.912) (end 2.5654 -3.81)
          (stroke (width 0) (type solid))
          (fill (type none))
        )
        (arc (start 3.81 0) (mid 2.912 -0.372) (end 2.5654 -1.27)
          (stroke (width 0) (type solid))
          (fill (type none))
        )
        (arc (start 3.81 2.54) (mid 2.912 2.168) (end 2.5654 1.27)
          (stroke (width 0) (type solid))
          (fill (type none))
        )
        (arc (start 3.8354 -5.08) (mid 2.9374 -5.452) (end 2.5908 -6.35)
          (stroke (width 0) (type solid))
          (fill (type none))
        )
      )
      (symbol "Transformer_ETD29_7Pin-SRC_KIT_1_1"
        (arc (start -3.81 -11.4046) (mid -2.9299 -11.0401) (end -2.54 -10.16)
          (stroke (width 0) (type solid))
          (fill (type none))
        )
        (arc (start -3.81 -8.8646) (mid -2.9299 -8.5001) (end -2.54 -7.62)
          (stroke (width 0) (type solid))
          (fill (type none))
        )
        (arc (start -2.54 -10.16) (mid -2.912 -9.262) (end -3.81 -8.89)
          (stroke (width 0) (type solid))
          (fill (type none))
        )
        (arc (start -2.54 -7.62) (mid -2.912 -6.722) (end -3.81 -6.35)
          (stroke (width 0) (type solid))
          (fill (type none))
        )
        (pin passive line (at -11.43 2.54 0) (length 7.62)
          (name "1" (effects (font (size 1.27 1.27))))
          (number "1" (effects (font (size 1.27 1.27))))
        )
        (pin passive line (at -11.43 -2.54 0) (length 7.62)
          (name "2" (effects (font (size 1.27 1.27))))
          (number "2" (effects (font (size 1.27 1.27))))
        )
        (pin passive line (at -11.43 -6.35 0) (length 7.62)
          (name "3" (effects (font (size 1.27 1.27))))
          (number "3" (effects (font (size 1.27 1.27))))
        )
        (pin passive line (at -11.43 -11.43 0) (length 7.62)
          (name "4" (effects (font (size 1.27 1.27))))
          (number "4" (effects (font (size 1.27 1.27))))
        )
        (pin passive line (at 11.43 -7.62 180) (length 7.62)
          (name "5" (effects (font (size 1.27 1.27))))
          (number "5" (effects (font (size 1.27 1.27))))
        )
        (pin passive line (at 11.43 -2.54 180) (length 7.62)
          (name "6" (effects (font (size 1.27 1.27))))
          (number "6" (effects (font (size 1.27 1.27))))
        )
        (pin passive line (at 11.43 2.54 180) (length 7.62)
          (name "7" (effects (font (size 1.27 1.27))))
          (number "7" (effects (font (size 1.27 1.27))))
        )
      )
    )
    (symbol "power:GND" (power) (pin_names (offset 0)) (in_bom yes) (on_board yes)
      (property "Reference" "#PWR" (at 0 -6.35 0)
        (effects (font (size 1.27 1.27)) hide)
      )
      (property "Value" "GND" (at 0 -3.81 0)
        (effects (font (size 1.27 1.27)))
      )
      (property "Footprint" "" (at 0 0 0)
        (effects (font (size 1.27 1.27)) hide)
      )
      (property "Datasheet" "" (at 0 0 0)
        (effects (font (size 1.27 1.27)) hide)
      )
      (property "ki_keywords" "global power" (at 0 0 0)
        (effects (font (size 1.27 1.27)) hide)
      )
      (property "ki_description" "Power symbol creates a global label with name \"GND\" , ground" (at 0 0 0)
        (effects (font (size 1.27 1.27)) hide)
      )
      (symbol "GND_0_1"
        (polyline
          (pts
            (xy 0 0)
            (xy 0 -1.27)
            (xy 1.27 -1.27)
            (xy 0 -2.54)
            (xy -1.27 -1.27)
            (xy 0 -1.27)
          )
          (stroke (width 0) (type default))
          (fill (type none))
        )
      )
      (symbol "GND_1_1"
        (pin power_in line (at 0 0 270) (length 0) hide
          (name "GND" (effects (font (size 1.27 1.27))))
          (number "1" (effects (font (size 1.27 1.27))))
        )
      )
    )
  )

  (junction (at 204.47 79.375) (diameter 0) (color 0 0 0 0)
    (uuid 0a334145-8fec-4c23-b21d-76277bb2c904)
  )
  (junction (at 92.71 100.33) (diameter 0) (color 0 0 0 0)
    (uuid 106f9245-b0bf-4371-b3fa-ef46f150a306)
  )
  (junction (at 92.71 85.725) (diameter 0) (color 0 0 0 0)
    (uuid 13acf7b2-c2b1-4895-87ec-e662a28dd82f)
  )
  (junction (at 121.92 83.185) (diameter 0) (color 0 0 0 0)
    (uuid 43b3fef4-3926-4db0-b808-e939482198fd)
  )
  (junction (at 66.04 92.71) (diameter 0) (color 0 0 0 0)
    (uuid 4eee84ec-250b-41a9-971d-d8ea0a57c339)
  )
  (junction (at 215.265 79.375) (diameter 0) (color 0 0 0 0)
    (uuid 591e690f-4f30-49cd-925a-e0e7b17fcbff)
  )
  (junction (at 196.215 79.375) (diameter 0) (color 0 0 0 0)
    (uuid 631e5cf0-8b6d-4a7f-9780-40bb6d341681)
  )
  (junction (at 196.215 89.535) (diameter 0) (color 0 0 0 0)
    (uuid 68a5c51e-0e31-4554-b56a-643153c33a49)
  )
  (junction (at 136.525 89.535) (diameter 0) (color 0 0 0 0)
    (uuid 6bdd07a2-6c02-4976-98d1-d66e2c44df93)
  )
  (junction (at 136.525 74.93) (diameter 0) (color 0 0 0 0)
    (uuid 7533af8e-87dd-445d-b65d-e1e5c87af6e3)
  )
  (junction (at 122.555 89.535) (diameter 0) (color 0 0 0 0)
    (uuid 839f877d-dbe9-4cfb-b49b-78f37a369833)
  )
  (junction (at 92.71 90.17) (diameter 0) (color 0 0 0 0)
    (uuid 8a06501f-c971-49f6-88b0-dd39e490d702)
  )
  (junction (at 104.14 72.39) (diameter 0) (color 0 0 0 0)
    (uuid 94fbf289-490d-4151-a937-80b959d25406)
  )
  (junction (at 66.04 71.755) (diameter 0) (color 0 0 0 0)
    (uuid b2deb689-e4cf-4003-9708-fdb897dcda7b)
  )
  (junction (at 204.47 89.535) (diameter 0) (color 0 0 0 0)
    (uuid b4025e61-8358-49d4-8236-9bba3a3e5403)
  )
  (junction (at 66.04 67.31) (diameter 0) (color 0 0 0 0)
    (uuid c151476d-9fbc-4949-a2e0-84c6dfaa1fb1)
  )
  (junction (at 215.265 89.535) (diameter 0) (color 0 0 0 0)
    (uuid e227058f-7cb0-433e-99e9-e7c38158c0a0)
  )
  (junction (at 66.04 89.535) (diameter 0) (color 0 0 0 0)
    (uuid f2f07557-0ace-4fe9-8d89-983824a7d294)
  )
  (junction (at 66.04 101.6) (diameter 0) (color 0 0 0 0)
    (uuid fd5ee9ad-2425-480b-aada-254ca513095a)
  )

  (no_connect (at 181.61 84.455) (uuid 17c267d4-eb33-4900-9049-f908220df47e))
  (no_connect (at 249.555 47.625) (uuid 2ea5b609-28c8-4417-95a0-148042f80dae))
  (no_connect (at 249.555 41.91) (uuid 8c1d58bc-4cba-4f40-af9c-99858c2045c3))
  (no_connect (at 249.555 52.705) (uuid a702307c-725d-448b-aca9-68336001f8c3))
  (no_connect (at 249.555 36.195) (uuid d40bd21a-6d4e-4fee-8022-7e0388e17f5f))

  (wire (pts (xy 196.215 79.375) (xy 204.47 79.375))
    (stroke (width 0) (type default))
    (uuid 00200e3a-ec85-48df-8c8f-5358b40634ca)
  )
  (wire (pts (xy 196.215 79.375) (xy 191.77 79.375))
    (stroke (width 0) (type default))
    (uuid 04dd8817-a8b6-45f8-bf4e-0aff170b3741)
  )
  (wire (pts (xy 66.04 101.6) (xy 66.04 102.87))
    (stroke (width 0) (type default))
    (uuid 0572e7e8-fa79-487a-b753-33fb8b2d9258)
  )
  (wire (pts (xy 98.425 67.31) (xy 100.965 67.31))
    (stroke (width 0) (type default))
    (uuid 083a57d6-e621-4625-8a25-ac3e015ad364)
  )
  (wire (pts (xy 111.76 31.115) (xy 104.14 31.115))
    (stroke (width 0) (type default))
    (uuid 09211b99-b06b-485a-91e7-f785ce657e00)
  )
  (wire (pts (xy 215.265 79.375) (xy 215.265 81.28))
    (stroke (width 0) (type default))
    (uuid 0e0724d5-f1be-4ec6-8842-95d71ce86340)
  )
  (wire (pts (xy 66.04 92.71) (xy 74.93 92.71))
    (stroke (width 0) (type default))
    (uuid 188c9cc9-187f-48c1-83eb-64fbc342ecd6)
  )
  (wire (pts (xy 156.845 84.455) (xy 158.75 84.455))
    (stroke (width 0) (type default))
    (uuid 1975ed0b-8016-4536-b6f1-fce786288ae5)
  )
  (wire (pts (xy 196.215 93.345) (xy 196.215 89.535))
    (stroke (width 0) (type default))
    (uuid 1fd3c7e8-0cc9-4cf0-bbf4-980b4415a2e5)
  )
  (wire (pts (xy 111.76 33.02) (xy 111.76 31.115))
    (stroke (width 0) (type default))
    (uuid 21a80345-7600-49c0-9bcc-cc70c1ceba62)
  )
  (wire (pts (xy 92.71 100.33) (xy 92.71 101.6))
    (stroke (width 0) (type default))
    (uuid 23d2ca94-5b53-4b1c-bb9e-581aa642690d)
  )
  (wire (pts (xy 136.525 66.04) (xy 136.525 65.405))
    (stroke (width 0) (type default))
    (uuid 24a18d0a-8fc1-4dec-83e1-9588520cc1f9)
  )
  (wire (pts (xy 184.15 79.375) (xy 181.61 79.375))
    (stroke (width 0) (type default))
    (uuid 24c23b0f-f9af-415a-980b-f9a198c3e1ee)
  )
  (wire (pts (xy 181.61 89.535) (xy 196.215 89.535))
    (stroke (width 0) (type default))
    (uuid 276733d1-ce01-465f-8bc1-d9f7ad78ba88)
  )
  (wire (pts (xy 54.61 41.275) (xy 54.61 38.1))
    (stroke (width 0) (type default))
    (uuid 2c6ee5a2-8fc3-453c-a911-fa4d2a9a0ada)
  )
  (wire (pts (xy 122.555 90.805) (xy 122.555 89.535))
    (stroke (width 0) (type default))
    (uuid 2d2c70ac-1616-4793-93c7-335b7ce2bc51)
  )
  (wire (pts (xy 55.245 118.745) (xy 56.515 118.745))
    (stroke (width 0) (type default))
    (uuid 3cc96c43-d861-4cb6-846d-c7d07911089f)
  )
  (wire (pts (xy 55.245 116.205) (xy 59.69 116.205))
    (stroke (width 0) (type default))
    (uuid 3d1d6831-76ff-470e-a17e-f1bb485a020a)
  )
  (wire (pts (xy 114.3 52.07) (xy 111.76 52.07))
    (stroke (width 0) (type default))
    (uuid 3e599e79-6d70-4900-98f9-58877c8cc20f)
  )
  (wire (pts (xy 204.47 79.375) (xy 204.47 81.28))
    (stroke (width 0) (type default))
    (uuid 44321ec1-417f-4d37-82b9-62598a26b59f)
  )
  (wire (pts (xy 50.8 43.815) (xy 50.8 45.085))
    (stroke (width 0) (type default))
    (uuid 47684c0e-aea6-4a35-88e9-acd8e9f8a4b2)
  )
  (wire (pts (xy 154.94 88.265) (xy 158.75 88.265))
    (stroke (width 0) (type default))
    (uuid 4c064bf7-eada-4187-b075-64fc15b83da3)
  )
  (wire (pts (xy 92.71 85.725) (xy 92.71 90.17))
    (stroke (width 0) (type default))
    (uuid 548e961b-acbb-4aa6-bd06-513265702a4d)
  )
  (wire (pts (xy 78.74 29.845) (xy 78.74 27.94))
    (stroke (width 0) (type default))
    (uuid 5d2516da-b40c-483f-838c-f70be7c22f2e)
  )
  (wire (pts (xy 102.235 100.33) (xy 102.235 101.6))
    (stroke (width 0) (type default))
    (uuid 60df5cec-e53b-4aa0-b407-f55df722493e)
  )
  (wire (pts (xy 104.14 69.215) (xy 104.14 72.39))
    (stroke (width 0) (type default))
    (uuid 61e62513-92af-48b5-9f32-78fe1e8b215d)
  )
  (wire (pts (xy 122.555 89.535) (xy 122.555 88.265))
    (stroke (width 0) (type default))
    (uuid 62c70fd0-9bae-4f1f-9a9a-fc67fa9ae4d3)
  )
  (wire (pts (xy 204.47 89.535) (xy 215.265 89.535))
    (stroke (width 0) (type default))
    (uuid 62dde5c2-8561-4ec8-9476-a055a8526df4)
  )
  (wire (pts (xy 66.04 64.77) (xy 66.04 67.31))
    (stroke (width 0) (type default))
    (uuid 63fbd869-68aa-4a69-97c5-9ebb9ccdc9f6)
  )
  (wire (pts (xy 204.47 89.535) (xy 204.47 88.9))
    (stroke (width 0) (type default))
    (uuid 6675045d-4321-4cf6-8118-9f4443198445)
  )
  (wire (pts (xy 104.14 31.115) (xy 104.14 33.02))
    (stroke (width 0) (type default))
    (uuid 680640f8-37e1-4646-85f8-78950d229493)
  )
  (wire (pts (xy 105.41 83.185) (xy 104.14 83.185))
    (stroke (width 0) (type default))
    (uuid 6b4c955d-4527-495c-963c-a15bbd0b1045)
  )
  (wire (pts (xy 59.69 116.205) (xy 59.69 89.535))
    (stroke (width 0) (type default))
    (uuid 6b905296-4518-41d0-9adb-3d9457e0a242)
  )
  (wire (pts (xy 156.21 93.345) (xy 158.75 93.345))
    (stroke (width 0) (type default))
    (uuid 6c1eb5c7-3db8-48ef-a5c4-a973cf068d2c)
  )
  (wire (pts (xy 116.205 72.39) (xy 121.92 72.39))
    (stroke (width 0) (type default))
    (uuid 715dbf4f-dc20-4491-877d-f15a91dc128a)
  )
  (wire (pts (xy 66.04 71.755) (xy 92.71 71.755))
    (stroke (width 0) (type default))
    (uuid 71e3d74e-3b9b-4866-8ed7-ed1516a9a085)
  )
  (wire (pts (xy 121.92 83.185) (xy 120.65 83.185))
    (stroke (width 0) (type default))
    (uuid 79a3bf4f-fd23-4ce8-a31a-d9906dee6247)
  )
  (wire (pts (xy 88.265 67.31) (xy 90.805 67.31))
    (stroke (width 0) (type default))
    (uuid 8187164c-4662-44ce-91a3-fc5e0fdcc892)
  )
  (wire (pts (xy 226.695 79.375) (xy 215.265 79.375))
    (stroke (width 0) (type default))
    (uuid 818a181b-f6ae-47b5-97c9-9698eff40510)
  )
  (wire (pts (xy 104.14 40.64) (xy 104.14 42.545))
    (stroke (width 0) (type default))
    (uuid 83b13a19-9c1f-47db-8f26-3b9fefce641d)
  )
  (wire (pts (xy 111.76 42.545) (xy 111.76 40.64))
    (stroke (width 0) (type default))
    (uuid 85d0f94b-08d3-49f2-b5ad-4201e38cdf7c)
  )
  (wire (pts (xy 102.235 92.71) (xy 102.235 90.805))
    (stroke (width 0) (type default))
    (uuid 87129e54-0878-48e9-9868-40203c3c6f66)
  )
  (wire (pts (xy 104.14 83.185) (xy 104.14 72.39))
    (stroke (width 0) (type default))
    (uuid 88ae00ad-3454-44a0-8407-50bc56f4f708)
  )
  (wire (pts (xy 123.825 83.185) (xy 121.92 83.185))
    (stroke (width 0) (type default))
    (uuid 8c92b573-9095-41dd-a012-66886a07543a)
  )
  (wire (pts (xy 49.53 43.815) (xy 50.8 43.815))
    (stroke (width 0) (type default))
    (uuid 8d2c334f-4f66-4af4-93d2-153da594311f)
  )
  (wire (pts (xy 102.235 90.805) (xy 105.41 90.805))
    (stroke (width 0) (type default))
    (uuid 8da0906e-51d5-47d7-a279-10286c31f0fa)
  )
  (wire (pts (xy 215.265 89.535) (xy 215.265 88.9))
    (stroke (width 0) (type default))
    (uuid 9007addb-e0f8-4a50-897e-5f44c1ac3ef3)
  )
  (wire (pts (xy 215.265 89.535) (xy 226.695 89.535))
    (stroke (width 0) (type default))
    (uuid 92eee96f-6ee8-4198-aa3b-e4ae42f9d80b)
  )
  (wire (pts (xy 78.74 20.32) (xy 78.74 18.415))
    (stroke (width 0) (type default))
    (uuid 95617a68-190f-49ea-aa2a-149434a6c023)
  )
  (wire (pts (xy 135.89 74.93) (xy 136.525 74.93))
    (stroke (width 0) (type default))
    (uuid 9740b8ac-0f22-4627-8332-1bb2162b1201)
  )
  (wire (pts (xy 83.82 90.17) (xy 92.71 90.17))
    (stroke (width 0) (type default))
    (uuid 995fac4e-13dd-42bc-8aee-96fc7064c4d5)
  )
  (wire (pts (xy 196.215 89.535) (xy 204.47 89.535))
    (stroke (width 0) (type default))
    (uuid 9c50f698-da14-4172-ba34-d44dc879fdcf)
  )
  (wire (pts (xy 66.04 89.535) (xy 66.04 92.71))
    (stroke (width 0) (type default))
    (uuid 9c8c0b3d-afdf-49ce-9960-08e3f1720d18)
  )
  (wire (pts (xy 121.92 72.39) (xy 121.92 83.185))
    (stroke (width 0) (type default))
    (uuid a1e7cdab-0734-4cb0-8710-72139939dc83)
  )
  (wire (pts (xy 66.04 71.755) (xy 66.04 79.375))
    (stroke (width 0) (type default))
    (uuid a3d1cf77-8ea2-4cac-9c9c-8ee17c23f12e)
  )
  (wire (pts (xy 104.14 50.165) (xy 104.14 52.07))
    (stroke (width 0) (type default))
    (uuid aa955b87-dd46-4eef-a54c-045801d210f8)
  )
  (wire (pts (xy 105.41 85.725) (xy 92.71 85.725))
    (stroke (width 0) (type default))
    (uuid ab2a6e6f-96cb-4a30-b164-b3e072ad7da6)
  )
  (wire (pts (xy 78.74 18.415) (xy 79.375 18.415))
    (stroke (width 0) (type default))
    (uuid ac97e36a-50e4-45c7-a9fb-5a90cb7ca200)
  )
  (wire (pts (xy 204.47 79.375) (xy 215.265 79.375))
    (stroke (width 0) (type default))
    (uuid ad232005-aef0-4706-bf39-f2f3b3e02b72)
  )
  (wire (pts (xy 92.71 85.725) (xy 92.71 82.55))
    (stroke (width 0) (type default))
    (uuid ae7b6a1f-4fa1-43e7-afcf-7a37920cf7fb)
  )
  (wire (pts (xy 66.04 86.995) (xy 66.04 89.535))
    (stroke (width 0) (type default))
    (uuid af3cfa5d-2e8c-42e8-b1ad-aff19760e0b3)
  )
  (wire (pts (xy 226.695 84.455) (xy 226.695 79.375))
    (stroke (width 0) (type default))
    (uuid afc778ff-ece5-4ded-8cb3-b809a5efcf1c)
  )
  (wire (pts (xy 136.525 74.93) (xy 136.525 73.66))
    (stroke (width 0) (type default))
    (uuid b0275e44-36d6-4ac1-87e8-783fb7027687)
  )
  (wire (pts (xy 66.04 101.6) (xy 74.93 101.6))
    (stroke (width 0) (type default))
    (uuid b11b44f1-b788-4601-921a-66968769857a)
  )
  (wire (pts (xy 59.69 89.535) (xy 66.04 89.535))
    (stroke (width 0) (type default))
    (uuid b5cfc8c5-e242-4cf8-a46b-cce61d8c3d02)
  )
  (wire (pts (xy 156.21 79.375) (xy 158.75 79.375))
    (stroke (width 0) (type default))
    (uuid ba05c92e-3b5a-414f-9266-994d86eb0206)
  )
  (wire (pts (xy 74.93 100.33) (xy 74.93 101.6))
    (stroke (width 0) (type default))
    (uuid be5219b0-a707-4f2e-927d-88f25a2c0a4a)
  )
  (wire (pts (xy 111.76 52.07) (xy 111.76 50.165))
    (stroke (width 0) (type default))
    (uuid bf928f54-3913-42a9-8300-a0bdb8344b22)
  )
  (wire (pts (xy 196.215 81.28) (xy 196.215 79.375))
    (stroke (width 0) (type default))
    (uuid bfe6e4b3-b473-4452-96e2-cd355b9f03a9)
  )
  (wire (pts (xy 120.65 88.265) (xy 122.555 88.265))
    (stroke (width 0) (type default))
    (uuid c163c4a2-70e3-43e7-9280-8bb4d8288d96)
  )
  (wire (pts (xy 92.71 74.93) (xy 92.71 71.755))
    (stroke (width 0) (type default))
    (uuid c4a90405-f7c5-4b12-8862-9d5da7c04b8d)
  )
  (wire (pts (xy 196.215 89.535) (xy 196.215 88.9))
    (stroke (width 0) (type default))
    (uuid cdbc4e06-a613-4943-8498-b2b43ab24c9b)
  )
  (wire (pts (xy 66.04 100.33) (xy 66.04 101.6))
    (stroke (width 0) (type default))
    (uuid cdddd8e7-e43f-453e-b436-fb1980781c7c)
  )
  (wire (pts (xy 122.555 89.535) (xy 136.525 89.535))
    (stroke (width 0) (type default))
    (uuid ce9918a1-8039-42ac-b59c-be3d1e801835)
  )
  (wire (pts (xy 136.525 76.2) (xy 136.525 74.93))
    (stroke (width 0) (type default))
    (uuid d2110b5b-c79b-42bd-b7f4-66e43734fa90)
  )
  (wire (pts (xy 83.82 90.17) (xy 83.82 92.71))
    (stroke (width 0) (type default))
    (uuid d6fa2ab4-d1cd-426a-9533-1566590a40d7)
  )
  (wire (pts (xy 100.965 67.31) (xy 100.965 72.39))
    (stroke (width 0) (type default))
    (uuid d93537f2-903e-4f73-9c7e-1ad9547da5d9)
  )
  (wire (pts (xy 66.04 71.755) (xy 66.04 67.31))
    (stroke (width 0) (type default))
    (uuid dbe7d8be-8024-406d-bdee-c2265ba9f918)
  )
  (wire (pts (xy 66.04 67.31) (xy 80.645 67.31))
    (stroke (width 0) (type default))
    (uuid e8170889-98c4-4e1f-8c2d-003e74f0da44)
  )
  (wire (pts (xy 74.93 92.71) (xy 74.93 95.25))
    (stroke (width 0) (type default))
    (uuid e82f3d74-7df3-40c3-aefb-0afec6117b43)
  )
  (wire (pts (xy 120.65 90.805) (xy 122.555 90.805))
    (stroke (width 0) (type default))
    (uuid ef4ca628-64dd-43ef-9228-e5e980706b05)
  )
  (wire (pts (xy 92.71 90.17) (xy 92.71 92.71))
    (stroke (width 0) (type default))
    (uuid f00bf1b0-27c4-4bc9-8cc2-e81cf42fc33d)
  )
  (wire (pts (xy 56.515 118.745) (xy 56.515 120.015))
    (stroke (width 0) (type default))
    (uuid f18ce320-a3a2-474c-b8e2-e007656349c7)
  )
  (wire (pts (xy 137.795 89.535) (xy 136.525 89.535))
    (stroke (width 0) (type default))
    (uuid f23bbaae-aa2d-45c6-b5e2-e69d1b58e248)
  )
  (wire (pts (xy 83.82 100.33) (xy 92.71 100.33))
    (stroke (width 0) (type default))
    (uuid f446c016-4ac8-4e4b-b426-ac09249fcfcc)
  )
  (wire (pts (xy 104.14 72.39) (xy 108.585 72.39))
    (stroke (width 0) (type default))
    (uuid f54db796-6698-4b69-affb-ed51a1e70f09)
  )
  (wire (pts (xy 100.965 72.39) (xy 104.14 72.39))
    (stroke (width 0) (type default))
    (uuid f85b073a-e9fd-46fe-90f7-2ee65317bf25)
  )
  (wire (pts (xy 226.695 89.535) (xy 226.695 86.995))
    (stroke (width 0) (type default))
    (uuid fb1e04a7-6473-4f00-ab6c-065387ab59b8)
  )
  (wire (pts (xy 104.14 59.69) (xy 104.14 61.595))
    (stroke (width 0) (type default))
    (uuid fd1314ef-025b-47de-9248-ad991d337567)
  )
  (wire (pts (xy 136.525 83.82) (xy 136.525 89.535))
    (stroke (width 0) (type default))
    (uuid fd88fea1-f8b8-41de-bc16-f32b61b719e1)
  )
  (wire (pts (xy 49.53 41.275) (xy 54.61 41.275))
    (stroke (width 0) (type default))
    (uuid ff7e12d1-6789-4ab4-b437-ffb22393558b)
  )

  (global_label "Vlink" (shape input) (at 114.3 52.07 0)
    (effects (font (size 1.27 1.27)) (justify left))
    (uuid 0438af9c-649a-478f-b71f-fe6ddd8ba9cc)
    (property "Intersheetrefs" "${INTERSHEET_REFS}" (at 114.3 52.07 0)
      (effects (font (size 1.27 1.27)) hide)
    )
  )
  (global_label "Sw2" (shape input) (at 135.89 74.93 180)
    (effects (font (size 1.27 1.27)) (justify right))
    (uuid 05f1ceb3-f1ae-4fb9-a7d6-d7b685f6a03e)
    (property "Intersheetrefs" "${INTERSHEET_REFS}" (at 135.89 74.93 0)
      (effects (font (size 1.27 1.27)) hide)
    )
  )
  (global_label "pri-fb" (shape input) (at 156.845 84.455 180)
    (effects (font (size 1.27 1.27)) (justify right))
    (uuid 0c89fc51-0444-4ba7-9114-13ac32efc394)
    (property "Intersheetrefs" "${INTERSHEET_REFS}" (at 156.845 84.455 0)
      (effects (font (size 1.27 1.27)) hide)
    )
  )
  (global_label "Vlink" (shape input) (at 136.525 65.405 90)
    (effects (font (size 1.27 1.27)) (justify left))
    (uuid 0e0c4377-5b85-4089-ba7c-9495092ed6c8)
    (property "Intersheetrefs" "${INTERSHEET_REFS}" (at 136.525 65.405 0)
      (effects (font (size 1.27 1.27)) hide)
    )
  )
  (global_label "SW" (shape input) (at 156.21 93.345 180)
    (effects (font (size 1.27 1.27)) (justify right))
    (uuid 2ff847a4-a213-482e-b43b-ef690090d4f3)
    (property "Intersheetrefs" "${INTERSHEET_REFS}" (at 156.21 93.345 0)
      (effects (font (size 1.27 1.27)) hide)
    )
  )
  (global_label "Vlink" (shape input) (at 154.94 88.265 180)
    (effects (font (size 1.27 1.27)) (justify right))
    (uuid 42a5107e-3523-4094-b809-f35020aee5bc)
    (property "Intersheetrefs" "${INTERSHEET_REFS}" (at 154.94 88.265 0)
      (effects (font (size 1.27 1.27)) hide)
    )
  )
  (global_label "pri-fb" (shape input) (at 66.04 64.77 90)
    (effects (font (size 1.27 1.27)) (justify left))
    (uuid 519fcf1c-c0c2-466f-b4a6-21619a425721)
    (property "Intersheetrefs" "${INTERSHEET_REFS}" (at 66.04 64.77 0)
      (effects (font (size 1.27 1.27)) hide)
    )
  )
  (global_label "Vlink" (shape input) (at 79.375 18.415 0)
    (effects (font (size 1.27 1.27)) (justify left))
    (uuid 65ba7aeb-7820-421d-95cd-b61ae4209c2d)
    (property "Intersheetrefs" "${INTERSHEET_REFS}" (at 79.375 18.415 0)
      (effects (font (size 1.27 1.27)) hide)
    )
  )
  (global_label "SW" (shape input) (at 137.795 89.535 0)
    (effects (font (size 1.27 1.27)) (justify left))
    (uuid 7bf38dad-b5e3-4bc7-9993-89828bb993a7)
    (property "Intersheetrefs" "${INTERSHEET_REFS}" (at 137.795 89.535 0)
      (effects (font (size 1.27 1.27)) hide)
    )
  )
  (global_label "Vlink" (shape input) (at 54.61 38.1 90)
    (effects (font (size 1.27 1.27)) (justify left))
    (uuid d4521eb7-e81f-41dc-961f-77de040e15f9)
    (property "Intersheetrefs" "${INTERSHEET_REFS}" (at 54.61 38.1 0)
      (effects (font (size 1.27 1.27)) hide)
    )
  )

  (symbol (lib_id "power:GND") (at 156.21 79.375 270) (unit 1)
    (in_bom yes) (on_board yes) (dnp no)
    (uuid 00000000-0000-0000-0000-00005d80db4e)
    (property "Reference" "#PWR0105" (at 149.86 79.375 0)
      (effects (font (size 1.27 1.27)) hide)
    )
    (property "Value" "GND" (at 151.8158 79.502 0)
      (effects (font (size 1.27 1.27)))
    )
    (property "Footprint" "" (at 156.21 79.375 0)
      (effects (font (size 1.27 1.27)) hide)
    )
    (property "Datasheet" "" (at 156.21 79.375 0)
      (effects (font (size 1.27 1.27)) hide)
    )
    (pin "1" (uuid 8aacd298-7ed6-42c1-bcb9-a3030a9a2091))
    (instances
      (project "pcb"
        (path "/800e854d-b38b-4514-81e3-f2407e36beda"
          (reference "#PWR0105") (unit 1)
        )
      )
    )
  )

  (symbol (lib_id "Connector:TestPoint") (at 249.555 36.195 0) (unit 1)
    (in_bom yes) (on_board yes) (dnp no)
    (uuid 00000000-0000-0000-0000-00005d813ee7)
    (property "Reference" "TP101" (at 251.0282 33.147 0)
      (effects (font (size 1.27 1.27)) (justify left))
    )
    (property "Value" "TestPoint" (at 251.0282 35.4584 0)
      (effects (font (size 1.27 1.27)) (justify left))
    )
    (property "Footprint" "SRC_KIT:3mm_holes" (at 254.635 36.195 0)
      (effects (font (size 1.27 1.27)) hide)
    )
    (property "Datasheet" "~" (at 254.635 36.195 0)
      (effects (font (size 1.27 1.27)) hide)
    )
    (pin "1" (uuid 1a184c7b-4858-4ae4-85f1-9c1bd0822c75))
    (instances
      (project "pcb"
        (path "/800e854d-b38b-4514-81e3-f2407e36beda"
          (reference "TP101") (unit 1)
        )
      )
    )
  )

  (symbol (lib_id "Connector:TestPoint") (at 249.555 41.91 0) (unit 1)
    (in_bom yes) (on_board yes) (dnp no)
    (uuid 00000000-0000-0000-0000-00005d81407b)
    (property "Reference" "TP102" (at 251.0282 38.862 0)
      (effects (font (size 1.27 1.27)) (justify left))
    )
    (property "Value" "TestPoint" (at 251.0282 41.1734 0)
      (effects (font (size 1.27 1.27)) (justify left))
    )
    (property "Footprint" "SRC_KIT:3mm_holes" (at 254.635 41.91 0)
      (effects (font (size 1.27 1.27)) hide)
    )
    (property "Datasheet" "~" (at 254.635 41.91 0)
      (effects (font (size 1.27 1.27)) hide)
    )
    (pin "1" (uuid 42bc05a7-dd3c-40f0-95aa-7aa067877926))
    (instances
      (project "pcb"
        (path "/800e854d-b38b-4514-81e3-f2407e36beda"
          (reference "TP102") (unit 1)
        )
      )
    )
  )

  (symbol (lib_id "Connector:TestPoint") (at 249.555 47.625 0) (unit 1)
    (in_bom yes) (on_board yes) (dnp no)
    (uuid 00000000-0000-0000-0000-00005d8140d1)
    (property "Reference" "TP103" (at 251.0282 44.577 0)
      (effects (font (size 1.27 1.27)) (justify left))
    )
    (property "Value" "TestPoint" (at 251.0282 46.8884 0)
      (effects (font (size 1.27 1.27)) (justify left))
    )
    (property "Footprint" "SRC_KIT:3mm_holes" (at 254.635 47.625 0)
      (effects (font (size 1.27 1.27)) hide)
    )
    (property "Datasheet" "~" (at 254.635 47.625 0)
      (effects (font (size 1.27 1.27)) hide)
    )
    (pin "1" (uuid bff50a70-2a34-45d8-9fcb-6c905c6c3a30))
    (instances
      (project "pcb"
        (path "/800e854d-b38b-4514-81e3-f2407e36beda"
          (reference "TP103") (unit 1)
        )
      )
    )
  )

  (symbol (lib_id "Connector:TestPoint") (at 249.555 52.705 0) (unit 1)
    (in_bom yes) (on_board yes) (dnp no)
    (uuid 00000000-0000-0000-0000-00005d81412b)
    (property "Reference" "TP104" (at 251.0282 49.657 0)
      (effects (font (size 1.27 1.27)) (justify left))
    )
    (property "Value" "TestPoint" (at 251.0282 51.9684 0)
      (effects (font (size 1.27 1.27)) (justify left))
    )
    (property "Footprint" "SRC_KIT:3mm_holes" (at 254.635 52.705 0)
      (effects (font (size 1.27 1.27)) hide)
    )
    (property "Datasheet" "~" (at 254.635 52.705 0)
      (effects (font (size 1.27 1.27)) hide)
    )
    (pin "1" (uuid bc292202-6081-4f68-9eb9-4424d1a4c940))
    (instances
      (project "pcb"
        (path "/800e854d-b38b-4514-81e3-f2407e36beda"
          (reference "TP104") (unit 1)
        )
      )
    )
  )

  (symbol (lib_id "pcb-rescue:OB25133-OB2513") (at 113.03 86.995 0) (unit 1)
    (in_bom yes) (on_board yes) (dnp no)
    (uuid 00000000-0000-0000-0000-00005d81f016)
    (property "Reference" "U101" (at 113.03 77.47 0)
      (effects (font (size 1.27 1.27)))
    )
    (property "Value" "OB25133" (at 113.03 79.7814 0)
      (effects (font (size 1.27 1.27)))
    )
    (property "Footprint" "modaux:SOP-7_3.76x4.96mm_P1.27mm" (at 114.3 86.995 0)
      (effects (font (size 1.27 1.27)) hide)
    )
    (property "Datasheet" "" (at 114.3 86.995 0)
      (effects (font (size 1.27 1.27)) hide)
    )
    (pin "1" (uuid 9819e5fd-52a6-4bbe-8f91-98ca142c7390))
    (pin "2" (uuid 70c00d91-123d-4fab-8c85-8b25ccfc4a5b))
    (pin "3" (uuid f2c8d104-3a38-44b1-8d32-96fd930d1940))
    (pin "4" (uuid 8ebdbd4d-5c1c-49e0-8869-86ea6982b82a))
    (pin "5" (uuid eae7cb57-faa3-4231-b50c-3c1d6aaba81e))
    (pin "6" (uuid 12348765-170a-43ef-b697-a2d685b4e8f4))
    (pin "8" (uuid 96ed84bb-96ee-416c-b085-e6896ab58ac8))
    (instances
      (project "pcb"
        (path "/800e854d-b38b-4514-81e3-f2407e36beda"
          (reference "U101") (unit 1)
        )
      )
    )
  )

  (symbol (lib_id "pcb-rescue:R-device") (at 102.235 96.52 0) (unit 1)
    (in_bom yes) (on_board yes) (dnp no)
    (uuid 00000000-0000-0000-0000-00005d81f0db)
    (property "Reference" "R111" (at 104.013 95.3516 0)
      (effects (font (size 1.27 1.27)) (justify left))
    )
    (property "Value" "6R8" (at 104.013 97.663 0)
      (effects (font (size 1.27 1.27)) (justify left))
    )
    (property "Footprint" "Resistor_SMD:R_1206_3216Metric" (at 100.457 96.52 90)
      (effects (font (size 1.27 1.27)) hide)
    )
    (property "Datasheet" "" (at 102.235 96.52 0)
      (effects (font (size 1.27 1.27)) hide)
    )
    (pin "1" (uuid 3c67ba2a-f694-417d-a9c3-b98979adad20))
    (pin "2" (uuid 1bc7b64d-0295-4e6b-84d1-9adf2bde353a))
    (instances
      (project "pcb"
        (path "/800e854d-b38b-4514-81e3-f2407e36beda"
          (reference "R111") (unit 1)
        )
      )
    )
  )

  (symbol (lib_id "pcb-rescue:R-device") (at 92.71 96.52 0) (unit 1)
    (in_bom yes) (on_board yes) (dnp no)
    (uuid 00000000-0000-0000-0000-00005d81f117)
    (property "Reference" "R110" (at 94.488 95.3516 0)
      (effects (font (size 1.27 1.27)) (justify left))
    )
    (property "Value" "4k7" (at 94.488 97.663 0)
      (effects (font (size 1.27 1.27)) (justify left))
    )
    (property "Footprint" "Resistor_SMD:R_0603_1608Metric" (at 90.932 96.52 90)
      (effects (font (size 1.27 1.27)) hide)
    )
    (property "Datasheet" "" (at 92.71 96.52 0)
      (effects (font (size 1.27 1.27)) hide)
    )
    (pin "1" (uuid 4d19bc5b-dc9c-466f-9bee-4d79ab0128c0))
    (pin "2" (uuid 2d90e76d-a5a6-453b-b199-330a0d0a7d72))
    (instances
      (project "pcb"
        (path "/800e854d-b38b-4514-81e3-f2407e36beda"
          (reference "R110") (unit 1)
        )
      )
    )
  )

  (symbol (lib_id "pcb-rescue:R-device") (at 92.71 78.74 0) (unit 1)
    (in_bom yes) (on_board yes) (dnp no)
    (uuid 00000000-0000-0000-0000-00005d81f1e5)
    (property "Reference" "R108" (at 94.488 77.5716 0)
      (effects (font (size 1.27 1.27)) (justify left))
    )
    (property "Value" "7k5" (at 94.488 79.883 0)
      (effects (font (size 1.27 1.27)) (justify left))
    )
    (property "Footprint" "Resistor_SMD:R_0603_1608Metric" (at 90.932 78.74 90)
      (effects (font (size 1.27 1.27)) hide)
    )
    (property "Datasheet" "" (at 92.71 78.74 0)
      (effects (font (size 1.27 1.27)) hide)
    )
    (pin "1" (uuid 8f206dbf-44c5-4a99-a9f8-7665bc49a31e))
    (pin "2" (uuid 8987d88f-785d-434f-87fe-58bb13616ef6))
    (instances
      (project "pcb"
        (path "/800e854d-b38b-4514-81e3-f2407e36beda"
          (reference "R108") (unit 1)
        )
      )
    )
  )

  (symbol (lib_id "power:GND") (at 102.235 101.6 0) (unit 1)
    (in_bom yes) (on_board yes) (dnp no)
    (uuid 00000000-0000-0000-0000-00005d81f226)
    (property "Reference" "#PWR0101" (at 102.235 107.95 0)
      (effects (font (size 1.27 1.27)) hide)
    )
    (property "Value" "GND" (at 102.362 105.9942 0)
      (effects (font (size 1.27 1.27)))
    )
    (property "Footprint" "" (at 102.235 101.6 0)
      (effects (font (size 1.27 1.27)) hide)
    )
    (property "Datasheet" "" (at 102.235 101.6 0)
      (effects (font (size 1.27 1.27)) hide)
    )
    (pin "1" (uuid 78e29351-8627-439e-a95d-ca9c7292d4fd))
    (instances
      (project "pcb"
        (path "/800e854d-b38b-4514-81e3-f2407e36beda"
          (reference "#PWR0101") (unit 1)
        )
      )
    )
  )

  (symbol (lib_id "power:GND") (at 92.71 101.6 0) (unit 1)
    (in_bom yes) (on_board yes) (dnp no)
    (uuid 00000000-0000-0000-0000-00005d81f27a)
    (property "Reference" "#PWR0102" (at 92.71 107.95 0)
      (effects (font (size 1.27 1.27)) hide)
    )
    (property "Value" "GND" (at 92.837 105.9942 0)
      (effects (font (size 1.27 1.27)))
    )
    (property "Footprint" "" (at 92.71 101.6 0)
      (effects (font (size 1.27 1.27)) hide)
    )
    (property "Datasheet" "" (at 92.71 101.6 0)
      (effects (font (size 1.27 1.27)) hide)
    )
    (pin "1" (uuid 1a3b71c1-6259-4d24-a701-fb4266c71ef2))
    (instances
      (project "pcb"
        (path "/800e854d-b38b-4514-81e3-f2407e36beda"
          (reference "#PWR0102") (unit 1)
        )
      )
    )
  )

  (symbol (lib_id "pcb-rescue:C-device") (at 112.395 72.39 270) (unit 1)
    (in_bom yes) (on_board yes) (dnp no)
    (uuid 00000000-0000-0000-0000-00005d81f2cf)
    (property "Reference" "C102" (at 112.395 65.9892 90)
      (effects (font (size 1.27 1.27)))
    )
    (property "Value" "10u" (at 112.395 68.3006 90)
      (effects (font (size 1.27 1.27)))
    )
    (property "Footprint" "Capacitor_SMD:C_1210_3225Metric" (at 108.585 73.3552 0)
      (effects (font (size 1.27 1.27)) hide)
    )
    (property "Datasheet" "" (at 112.395 72.39 0)
      (effects (font (size 1.27 1.27)) hide)
    )
    (pin "1" (uuid 002d8bd8-66c5-4688-8ef7-dee476612050))
    (pin "2" (uuid 57a554eb-a6d9-48f4-8f52-ba9151380e42))
    (instances
      (project "pcb"
        (path "/800e854d-b38b-4514-81e3-f2407e36beda"
          (reference "C102") (unit 1)
        )
      )
    )
  )

  (symbol (lib_id "power:GND") (at 123.825 83.185 90) (unit 1)
    (in_bom yes) (on_board yes) (dnp no)
    (uuid 00000000-0000-0000-0000-00005d81f38d)
    (property "Reference" "#PWR0103" (at 130.175 83.185 0)
      (effects (font (size 1.27 1.27)) hide)
    )
    (property "Value" "GND" (at 127.0762 83.058 90)
      (effects (font (size 1.27 1.27)) (justify right))
    )
    (property "Footprint" "" (at 123.825 83.185 0)
      (effects (font (size 1.27 1.27)) hide)
    )
    (property "Datasheet" "" (at 123.825 83.185 0)
      (effects (font (size 1.27 1.27)) hide)
    )
    (pin "1" (uuid 058b5e55-9cf6-42a0-892c-5dbb8242999e))
    (instances
      (project "pcb"
        (path "/800e854d-b38b-4514-81e3-f2407e36beda"
          (reference "#PWR0103") (unit 1)
        )
      )
    )
  )

  (symbol (lib_id "pcb-rescue:D-device") (at 136.525 80.01 270) (unit 1)
    (in_bom yes) (on_board yes) (dnp no)
    (uuid 00000000-0000-0000-0000-00005d81f56a)
    (property "Reference" "D104" (at 138.5316 78.8416 90)
      (effects (font (size 1.27 1.27)) (justify left))
    )
    (property "Value" "ES1J" (at 138.5316 81.153 90)
      (effects (font (size 1.27 1.27)) (justify left))
    )
    (property "Footprint" "Diode_SMD:D_SMA" (at 136.525 80.01 0)
      (effects (font (size 1.27 1.27)) hide)
    )
    (property "Datasheet" "" (at 136.525 80.01 0)
      (effects (font (size 1.27 1.27)) hide)
    )
    (pin "1" (uuid 986b4b4c-ffb9-42fd-a9d5-b8676b3e92e3))
    (pin "2" (uuid 4b26b2d6-4a5d-4c31-a2b8-2e7b924204a6))
    (instances
      (project "pcb"
        (path "/800e854d-b38b-4514-81e3-f2407e36beda"
          (reference "D104") (unit 1)
        )
      )
    )
  )

  (symbol (lib_id "pcb-rescue:D_Zener-device") (at 136.525 69.85 90) (unit 1)
    (in_bom yes) (on_board yes) (dnp no)
    (uuid 00000000-0000-0000-0000-00005d81f64d)
    (property "Reference" "D102" (at 138.5316 68.6816 90)
      (effects (font (size 1.27 1.27)) (justify right))
    )
    (property "Value" "SMAJ180A" (at 138.5316 70.993 90)
      (effects (font (size 1.27 1.27)) (justify right))
    )
    (property "Footprint" "Diode_SMD:D_SMA" (at 136.525 69.85 0)
      (effects (font (size 1.27 1.27)) hide)
    )
    (property "Datasheet" "https://en.wikipedia.org/wiki/Zener_diode" (at 136.525 69.85 0)
      (effects (font (size 1.27 1.27)) hide)
    )
    (pin "1" (uuid 8590e543-69f8-4d56-b532-a8d45f813f23))
    (pin "2" (uuid 3f5c2ad5-491c-4c82-93b1-33fc1ac4f0a3))
    (instances
      (project "pcb"
        (path "/800e854d-b38b-4514-81e3-f2407e36beda"
          (reference "D102") (unit 1)
        )
      )
    )
  )

  (symbol (lib_id "pcb-rescue:Transformer_ETD29_7Pin-SRC_KIT") (at 170.18 81.915 0) (unit 1)
    (in_bom yes) (on_board yes) (dnp no)
    (uuid 00000000-0000-0000-0000-00005d81f9ba)
    (property "Reference" "T101" (at 170.18 72.644 0)
      (effects (font (size 1.27 1.27)))
    )
    (property "Value" "Transformer_ETD29_7Pin" (at 170.18 74.9554 0)
      (effects (font (size 1.27 1.27)))
    )
    (property "Footprint" "modaux:E13-7-4-aux" (at 170.18 76.2 0)
      (effects (font (size 1.27 1.27)) hide)
    )
    (property "Datasheet" "" (at 170.18 76.2 0)
      (effects (font (size 1.27 1.27)) hide)
    )
    (pin "1" (uuid 4a41efc6-cf61-40ec-8865-e9b8721b3882))
    (pin "2" (uuid 99afe593-9adc-42b9-b674-48a567a98001))
    (pin "3" (uuid 8baa9644-1de4-411b-893f-353b926b9a60))
    (pin "4" (uuid 32698978-99fc-4ad9-9c74-6166be9e4f0f))
    (pin "5" (uuid 5aaed0e8-3cc0-4420-9e4e-2bc04c348443))
    (pin "6" (uuid abd4922b-8057-42c2-808c-e92b1767e420))
    (pin "7" (uuid a872fcea-8024-4a5f-a26f-c8d57e13c582))
    (instances
      (project "pcb"
        (path "/800e854d-b38b-4514-81e3-f2407e36beda"
          (reference "T101") (unit 1)
        )
      )
    )
  )

  (symbol (lib_id "pcb-rescue:R-device") (at 104.14 65.405 0) (unit 1)
    (in_bom yes) (on_board yes) (dnp no)
    (uuid 00000000-0000-0000-0000-00005d820467)
    (property "Reference" "R106" (at 105.918 64.2366 0)
      (effects (font (size 1.27 1.27)) (justify left))
    )
    (property "Value" "270k" (at 105.918 66.548 0)
      (effects (font (size 1.27 1.27)) (justify left))
    )
    (property "Footprint" "Resistor_SMD:R_0805_2012Metric" (at 102.362 65.405 90)
      (effects (font (size 1.27 1.27)) hide)
    )
    (property "Datasheet" "" (at 104.14 65.405 0)
      (effects (font (size 1.27 1.27)) hide)
    )
    (pin "1" (uuid ee3962da-e776-44bc-8d2a-4eb1f681341e))
    (pin "2" (uuid 73bf0abf-c6cc-48c3-b5f9-c208df833215))
    (instances
      (project "pcb"
        (path "/800e854d-b38b-4514-81e3-f2407e36beda"
          (reference "R106") (unit 1)
        )
      )
    )
  )

  (symbol (lib_id "pcb-rescue:R-device") (at 104.14 55.88 0) (unit 1)
    (in_bom yes) (on_board yes) (dnp no)
    (uuid 00000000-0000-0000-0000-00005d820860)
    (property "Reference" "R105" (at 105.918 54.7116 0)
      (effects (font (size 1.27 1.27)) (justify left))
    )
    (property "Value" "270k" (at 105.918 57.023 0)
      (effects (font (size 1.27 1.27)) (justify left))
    )
    (property "Footprint" "Resistor_SMD:R_0805_2012Metric" (at 102.362 55.88 90)
      (effects (font (size 1.27 1.27)) hide)
    )
    (property "Datasheet" "" (at 104.14 55.88 0)
      (effects (font (size 1.27 1.27)) hide)
    )
    (pin "1" (uuid d70f225b-f8e2-463b-9b9d-64fe5f34a423))
    (pin "2" (uuid 75417241-78ff-4c09-90e3-f2729401857f))
    (instances
      (project "pcb"
        (path "/800e854d-b38b-4514-81e3-f2407e36beda"
          (reference "R105") (unit 1)
        )
      )
    )
  )

  (symbol (lib_id "pcb-rescue:R-device") (at 104.14 46.355 0) (unit 1)
    (in_bom yes) (on_board yes) (dnp no)
    (uuid 00000000-0000-0000-0000-00005d8208da)
    (property "Reference" "R103" (at 105.918 45.1866 0)
      (effects (font (size 1.27 1.27)) (justify left))
    )
    (property "Value" "270k" (at 105.918 47.498 0)
      (effects (font (size 1.27 1.27)) (justify left))
    )
    (property "Footprint" "Resistor_SMD:R_0805_2012Metric" (at 102.362 46.355 90)
      (effects (font (size 1.27 1.27)) hide)
    )
    (property "Datasheet" "" (at 104.14 46.355 0)
      (effects (font (size 1.27 1.27)) hide)
    )
    (pin "1" (uuid 4850619e-9450-4fa6-9c7a-250ef819a5f3))
    (pin "2" (uuid b3bd0de9-7293-42e2-aebc-a0b12b7c52f8))
    (instances
      (project "pcb"
        (path "/800e854d-b38b-4514-81e3-f2407e36beda"
          (reference "R103") (unit 1)
        )
      )
    )
  )

  (symbol (lib_id "pcb-rescue:R-device") (at 104.14 36.83 0) (unit 1)
    (in_bom yes) (on_board yes) (dnp no)
    (uuid 00000000-0000-0000-0000-00005d82094d)
    (property "Reference" "R101" (at 105.918 35.6616 0)
      (effects (font (size 1.27 1.27)) (justify left))
    )
    (property "Value" "270k" (at 105.918 37.973 0)
      (effects (font (size 1.27 1.27)) (justify left))
    )
    (property "Footprint" "Resistor_SMD:R_0805_2012Metric" (at 102.362 36.83 90)
      (effects (font (size 1.27 1.27)) hide)
    )
    (property "Datasheet" "" (at 104.14 36.83 0)
      (effects (font (size 1.27 1.27)) hide)
    )
    (pin "1" (uuid 553a7739-15d4-4271-8b8b-e37acffbb370))
    (pin "2" (uuid eaa34177-2e13-405d-b6da-4923ae3d788e))
    (instances
      (project "pcb"
        (path "/800e854d-b38b-4514-81e3-f2407e36beda"
          (reference "R101") (unit 1)
        )
      )
    )
  )

  (symbol (lib_id "pcb-rescue:R-device") (at 111.76 36.83 0) (unit 1)
    (in_bom yes) (on_board yes) (dnp no)
    (uuid 00000000-0000-0000-0000-00005d820a2b)
    (property "Reference" "R102" (at 113.538 35.6616 0)
      (effects (font (size 1.27 1.27)) (justify left))
    )
    (property "Value" "270k" (at 113.538 37.973 0)
      (effects (font (size 1.27 1.27)) (justify left))
    )
    (property "Footprint" "Resistor_SMD:R_0805_2012Metric" (at 109.982 36.83 90)
      (effects (font (size 1.27 1.27)) hide)
    )
    (property "Datasheet" "" (at 111.76 36.83 0)
      (effects (font (size 1.27 1.27)) hide)
    )
    (pin "1" (uuid 37c979df-8b7e-4490-b66b-b003b938ec72))
    (pin "2" (uuid 2fb2c05f-6df6-41d0-8276-a7488848cdea))
    (instances
      (project "pcb"
        (path "/800e854d-b38b-4514-81e3-f2407e36beda"
          (reference "R102") (unit 1)
        )
      )
    )
  )

  (symbol (lib_id "pcb-rescue:R-device") (at 111.76 46.355 0) (unit 1)
    (in_bom yes) (on_board yes) (dnp no)
    (uuid 00000000-0000-0000-0000-00005d820aa8)
    (property "Reference" "R104" (at 113.538 45.1866 0)
      (effects (font (size 1.27 1.27)) (justify left))
    )
    (property "Value" "270k" (at 113.538 47.498 0)
      (effects (font (size 1.27 1.27)) (justify left))
    )
    (property "Footprint" "Resistor_SMD:R_0805_2012Metric" (at 109.982 46.355 90)
      (effects (font (size 1.27 1.27)) hide)
    )
    (property "Datasheet" "" (at 111.76 46.355 0)
      (effects (font (size 1.27 1.27)) hide)
    )
    (pin "1" (uuid 2ea8b9b5-a7be-4ab7-b6cf-6141a67cfc1d))
    (pin "2" (uuid 2a7dea74-3ca5-4861-8ca5-082b3c8d40cf))
    (instances
      (project "pcb"
        (path "/800e854d-b38b-4514-81e3-f2407e36beda"
          (reference "R104") (unit 1)
        )
      )
    )
  )

  (symbol (lib_id "pcb-rescue:D-device") (at 94.615 67.31 180) (unit 1)
    (in_bom yes) (on_board yes) (dnp no)
    (uuid 00000000-0000-0000-0000-00005d822f6d)
    (property "Reference" "D101" (at 94.615 61.8236 0)
      (effects (font (size 1.27 1.27)))
    )
    (property "Value" "SS110" (at 94.615 64.135 0)
      (effects (font (size 1.27 1.27)))
    )
    (property "Footprint" "Diode_SMD:D_SOD-123" (at 94.615 67.31 0)
      (effects (font (size 1.27 1.27)) hide)
    )
    (property "Datasheet" "" (at 94.615 67.31 0)
      (effects (font (size 1.27 1.27)) hide)
    )
    (pin "1" (uuid 37aadde4-9374-4a25-8e0f-6012e012d3c1))
    (pin "2" (uuid 42155b07-5f82-49fc-8cdb-8270c7737eea))
    (instances
      (project "pcb"
        (path "/800e854d-b38b-4514-81e3-f2407e36beda"
          (reference "D101") (unit 1)
        )
      )
    )
  )

  (symbol (lib_id "pcb-rescue:R-device") (at 84.455 67.31 270) (unit 1)
    (in_bom yes) (on_board yes) (dnp no)
    (uuid 00000000-0000-0000-0000-00005d823149)
    (property "Reference" "R107" (at 84.455 62.0522 90)
      (effects (font (size 1.27 1.27)))
    )
    (property "Value" "0" (at 84.455 64.3636 90)
      (effects (font (size 1.27 1.27)))
    )
    (property "Footprint" "Resistor_SMD:R_0603_1608Metric" (at 84.455 65.532 90)
      (effects (font (size 1.27 1.27)) hide)
    )
    (property "Datasheet" "" (at 84.455 67.31 0)
      (effects (font (size 1.27 1.27)) hide)
    )
    (pin "1" (uuid 09e13bda-9817-401f-ba86-f96fe14bc036))
    (pin "2" (uuid 923a6bca-1446-4a86-9f31-37462edfac41))
    (instances
      (project "pcb"
        (path "/800e854d-b38b-4514-81e3-f2407e36beda"
          (reference "R107") (unit 1)
        )
      )
    )
  )

  (symbol (lib_id "pcb-rescue:D-device") (at 66.04 83.185 90) (unit 1)
    (in_bom yes) (on_board yes) (dnp no)
    (uuid 00000000-0000-0000-0000-00005d825eac)
    (property "Reference" "D105" (at 68.0466 82.0166 90)
      (effects (font (size 1.27 1.27)) (justify right))
    )
    (property "Value" "SS110" (at 68.0466 84.328 90)
      (effects (font (size 1.27 1.27)) (justify right))
    )
    (property "Footprint" "Diode_SMD:D_SOD-123" (at 66.04 83.185 0)
      (effects (font (size 1.27 1.27)) hide)
    )
    (property "Datasheet" "" (at 66.04 83.185 0)
      (effects (font (size 1.27 1.27)) hide)
    )
    (pin "1" (uuid abcf13ea-0b8d-4437-8f04-4efe33ad72d4))
    (pin "2" (uuid dbc8f192-2629-48ad-999b-1d4ff5df9abc))
    (instances
      (project "pcb"
        (path "/800e854d-b38b-4514-81e3-f2407e36beda"
          (reference "D105") (unit 1)
        )
      )
    )
  )

  (symbol (lib_id "pcb-rescue:C-device") (at 66.04 96.52 180) (unit 1)
    (in_bom yes) (on_board yes) (dnp no)
    (uuid 00000000-0000-0000-0000-00005d825f5e)
    (property "Reference" "C105" (at 68.961 95.3516 0)
      (effects (font (size 1.27 1.27)) (justify right))
    )
    (property "Value" "10u" (at 68.961 97.663 0)
      (effects (font (size 1.27 1.27)) (justify right))
    )
    (property "Footprint" "Capacitor_SMD:C_1210_3225Metric" (at 65.0748 92.71 0)
      (effects (font (size 1.27 1.27)) hide)
    )
    (property "Datasheet" "" (at 66.04 96.52 0)
      (effects (font (size 1.27 1.27)) hide)
    )
    (pin "1" (uuid 57c4fc8f-3f46-403f-97a3-1dabfc3e60e2))
    (pin "2" (uuid 829df25b-2934-4d40-85c5-6bd1b02d652f))
    (instances
      (project "pcb"
        (path "/800e854d-b38b-4514-81e3-f2407e36beda"
          (reference "C105") (unit 1)
        )
      )
    )
  )

  (symbol (lib_id "power:GND") (at 66.04 102.87 0) (unit 1)
    (in_bom yes) (on_board yes) (dnp no)
    (uuid 00000000-0000-0000-0000-00005d827813)
    (property "Reference" "#PWR0104" (at 66.04 109.22 0)
      (effects (font (size 1.27 1.27)) hide)
    )
    (property "Value" "GND" (at 66.167 107.2642 0)
      (effects (font (size 1.27 1.27)))
    )
    (property "Footprint" "" (at 66.04 102.87 0)
      (effects (font (size 1.27 1.27)) hide)
    )
    (property "Datasheet" "" (at 66.04 102.87 0)
      (effects (font (size 1.27 1.27)) hide)
    )
    (pin "1" (uuid 4f5ddc41-c0e7-4b01-8a5a-27655b7b43d9))
    (instances
      (project "pcb"
        (path "/800e854d-b38b-4514-81e3-f2407e36beda"
          (reference "#PWR0104") (unit 1)
        )
      )
    )
  )

  (symbol (lib_id "pcb-rescue:D-device") (at 187.96 79.375 180) (unit 1)
    (in_bom yes) (on_board yes) (dnp no)
    (uuid 00000000-0000-0000-0000-00005d82bca0)
    (property "Reference" "D103" (at 187.96 73.8886 0)
      (effects (font (size 1.27 1.27)))
    )
    (property "Value" "SS110" (at 187.96 76.2 0)
      (effects (font (size 1.27 1.27)))
    )
    (property "Footprint" "Diode_SMD:D_SOD-123" (at 187.96 79.375 0)
      (effects (font (size 1.27 1.27)) hide)
    )
    (property "Datasheet" "" (at 187.96 79.375 0)
      (effects (font (size 1.27 1.27)) hide)
    )
    (pin "1" (uuid d52e1837-6ce8-46d3-9eb6-f7558faccc4c))
    (pin "2" (uuid d72b7d5c-6dd8-4e0e-bd05-5cb945850d39))
    (instances
      (project "pcb"
        (path "/800e854d-b38b-4514-81e3-f2407e36beda"
          (reference "D103") (unit 1)
        )
      )
    )
  )

  (symbol (lib_id "pcb-rescue:C-device") (at 196.215 85.09 180) (unit 1)
    (in_bom yes) (on_board yes) (dnp no)
    (uuid 00000000-0000-0000-0000-00005d82be1d)
    (property "Reference" "C103" (at 199.136 83.9216 0)
      (effects (font (size 1.27 1.27)) (justify right))
    )
    (property "Value" "10u" (at 199.136 86.233 0)
      (effects (font (size 1.27 1.27)) (justify right))
    )
    (property "Footprint" "Capacitor_SMD:C_1210_3225Metric" (at 195.2498 81.28 0)
      (effects (font (size 1.27 1.27)) hide)
    )
    (property "Datasheet" "" (at 196.215 85.09 0)
      (effects (font (size 1.27 1.27)) hide)
    )
    (pin "1" (uuid 31f2ebd5-1656-4fdf-8016-b6fca93a602a))
    (pin "2" (uuid 9bef87a8-bba5-42db-99c3-562a38ce9198))
    (instances
      (project "pcb"
        (path "/800e854d-b38b-4514-81e3-f2407e36beda"
          (reference "C103") (unit 1)
        )
      )
    )
  )

  (symbol (lib_id "pcb-rescue:C-device") (at 204.47 85.09 180) (unit 1)
    (in_bom yes) (on_board yes) (dnp no)
    (uuid 00000000-0000-0000-0000-00005d82bed4)
    (property "Reference" "C104" (at 207.391 83.9216 0)
      (effects (font (size 1.27 1.27)) (justify right))
    )
    (property "Value" "10u" (at 207.391 86.233 0)
      (effects (font (size 1.27 1.27)) (justify right))
    )
    (property "Footprint" "Capacitor_SMD:C_1210_3225Metric" (at 203.5048 81.28 0)
      (effects (font (size 1.27 1.27)) hide)
    )
    (property "Datasheet" "" (at 204.47 85.09 0)
      (effects (font (size 1.27 1.27)) hide)
    )
    (pin "1" (uuid 0f9f3641-7f0a-4c2e-b9ae-b9c6f6f25f19))
    (pin "2" (uuid d3abf0e8-e8eb-4857-bb0a-1c348576a16e))
    (instances
      (project "pcb"
        (path "/800e854d-b38b-4514-81e3-f2407e36beda"
          (reference "C104") (unit 1)
        )
      )
    )
  )

  (symbol (lib_id "pcb-rescue:GNDPWR-power") (at 196.215 93.345 0) (unit 1)
    (in_bom yes) (on_board yes) (dnp no)
    (uuid 00000000-0000-0000-0000-00005d82bfd2)
    (property "Reference" "#PWR0106" (at 196.215 98.425 0)
      (effects (font (size 1.27 1.27)) hide)
    )
    (property "Value" "GNDPWR" (at 201.295 93.98 0)
      (effects (font (size 1.27 1.27)))
    )
    (property "Footprint" "" (at 196.215 94.615 0)
      (effects (font (size 1.27 1.27)) hide)
    )
    (property "Datasheet" "" (at 196.215 94.615 0)
      (effects (font (size 1.27 1.27)) hide)
    )
    (pin "1" (uuid cf65a3fe-2065-4ef5-96c4-f0b905589a5b))
    (instances
      (project "pcb"
        (path "/800e854d-b38b-4514-81e3-f2407e36beda"
          (reference "#PWR0106") (unit 1)
        )
      )
    )
  )

  (symbol (lib_id "pcb-rescue:R-device") (at 215.265 85.09 0) (unit 1)
    (in_bom yes) (on_board yes) (dnp no)
    (uuid 00000000-0000-0000-0000-00005d8317c8)
    (property "Reference" "R109" (at 217.043 83.9216 0)
      (effects (font (size 1.27 1.27)) (justify left))
    )
    (property "Value" "1k" (at 217.043 86.233 0)
      (effects (font (size 1.27 1.27)) (justify left))
    )
    (property "Footprint" "Resistor_SMD:R_1206_3216Metric" (at 213.487 85.09 90)
      (effects (font (size 1.27 1.27)) hide)
    )
    (property "Datasheet" "" (at 215.265 85.09 0)
      (effects (font (size 1.27 1.27)) hide)
    )
    (pin "1" (uuid 6a104372-1e00-4bdb-a6ec-b61e7c548921))
    (pin "2" (uuid 31dc2bd5-7582-43a3-a8b0-23c460e1ca5a))
    (instances
      (project "pcb"
        (path "/800e854d-b38b-4514-81e3-f2407e36beda"
          (reference "R109") (unit 1)
        )
      )
    )
  )

  (symbol (lib_id "Connector_Generic:Conn_01x02") (at 44.45 43.815 180) (unit 1)
    (in_bom yes) (on_board yes) (dnp no)
    (uuid 00000000-0000-0000-0000-00005d838f74)
    (property "Reference" "J101" (at 46.482 35.56 0)
      (effects (font (size 1.27 1.27)))
    )
    (property "Value" "Conn_01x02" (at 46.482 37.8714 0)
      (effects (font (size 1.27 1.27)))
    )
    (property "Footprint" "Connector_Phoenix_MSTB:PhoenixContact_MSTBA_2,5_2-G-5,08_1x02_P5.08mm_Horizontal" (at 44.45 43.815 0)
      (effects (font (size 1.27 1.27)) hide)
    )
    (property "Datasheet" "~" (at 44.45 43.815 0)
      (effects (font (size 1.27 1.27)) hide)
    )
    (pin "1" (uuid 0551d2fd-286d-413a-bcb0-1d3e192f620f))
    (pin "2" (uuid 7b3719bf-a95f-43df-a58c-89841f7e80f8))
    (instances
      (project "pcb"
        (path "/800e854d-b38b-4514-81e3-f2407e36beda"
          (reference "J101") (unit 1)
        )
      )
    )
  )

  (symbol (lib_id "power:GND") (at 50.8 45.085 0) (unit 1)
    (in_bom yes) (on_board yes) (dnp no)
    (uuid 00000000-0000-0000-0000-00005d839188)
    (property "Reference" "#PWR0107" (at 50.8 51.435 0)
      (effects (font (size 1.27 1.27)) hide)
    )
    (property "Value" "GND" (at 50.927 49.4792 0)
      (effects (font (size 1.27 1.27)))
    )
    (property "Footprint" "" (at 50.8 45.085 0)
      (effects (font (size 1.27 1.27)) hide)
    )
    (property "Datasheet" "" (at 50.8 45.085 0)
      (effects (font (size 1.27 1.27)) hide)
    )
    (pin "1" (uuid 2ec28228-a0b9-4b79-9729-7bea4627ae9b))
    (instances
      (project "pcb"
        (path "/800e854d-b38b-4514-81e3-f2407e36beda"
          (reference "#PWR0107") (unit 1)
        )
      )
    )
  )

  (symbol (lib_id "pcb-rescue:C-device") (at 78.74 24.13 0) (unit 1)
    (in_bom yes) (on_board yes) (dnp no)
    (uuid 00000000-0000-0000-0000-00005d83bb9c)
    (property "Reference" "C101" (at 81.661 22.9616 0)
      (effects (font (size 1.27 1.27)) (justify left))
    )
    (property "Value" "470n" (at 81.661 25.273 0)
      (effects (font (size 1.27 1.27)) (justify left))
    )
    (property "Footprint" "Capacitor_THT:C_Rect_L16.5mm_W13.5mm_P15.00mm_MKT" (at 79.7052 27.94 0)
      (effects (font (size 1.27 1.27)) hide)
    )
    (property "Datasheet" "" (at 78.74 24.13 0)
      (effects (font (size 1.27 1.27)) hide)
    )
    (pin "1" (uuid 4d8b4dae-fa9b-4f89-b2d0-2d69e00dfd39))
    (pin "2" (uuid fcb4a03d-81f7-4046-af45-e0f2b03c70c2))
    (instances
      (project "pcb"
        (path "/800e854d-b38b-4514-81e3-f2407e36beda"
          (reference "C101") (unit 1)
        )
      )
    )
  )

  (symbol (lib_id "power:GND") (at 78.74 29.845 0) (unit 1)
    (in_bom yes) (on_board yes) (dnp no)
    (uuid 00000000-0000-0000-0000-00005d83bcc6)
    (property "Reference" "#PWR0108" (at 78.74 36.195 0)
      (effects (font (size 1.27 1.27)) hide)
    )
    (property "Value" "GND" (at 78.867 34.2392 0)
      (effects (font (size 1.27 1.27)))
    )
    (property "Footprint" "" (at 78.74 29.845 0)
      (effects (font (size 1.27 1.27)) hide)
    )
    (property "Datasheet" "" (at 78.74 29.845 0)
      (effects (font (size 1.27 1.27)) hide)
    )
    (pin "1" (uuid eef9c529-c9ec-4273-b8ea-d71736ce36bc))
    (instances
      (project "pcb"
        (path "/800e854d-b38b-4514-81e3-f2407e36beda"
          (reference "#PWR0108") (unit 1)
        )
      )
    )
  )

  (symbol (lib_id "Connector_Generic:Conn_01x02") (at 50.165 118.745 180) (unit 1)
    (in_bom yes) (on_board yes) (dnp no)
    (uuid 00000000-0000-0000-0000-00005d83ea07)
    (property "Reference" "J103" (at 52.197 110.49 0)
      (effects (font (size 1.27 1.27)))
    )
    (property "Value" "Conn_01x02" (at 52.197 112.8014 0)
      (effects (font (size 1.27 1.27)))
    )
    (property "Footprint" "Connector_Phoenix_MSTB:PhoenixContact_MSTBA_2,5_2-G-5,08_1x02_P5.08mm_Horizontal" (at 50.165 118.745 0)
      (effects (font (size 1.27 1.27)) hide)
    )
    (property "Datasheet" "~" (at 50.165 118.745 0)
      (effects (font (size 1.27 1.27)) hide)
    )
    (pin "1" (uuid 78aaf48d-ada5-4929-bb5e-b3d02551b20f))
    (pin "2" (uuid 3bf96480-30c8-4c19-abf2-0f2c9035164f))
    (instances
      (project "pcb"
        (path "/800e854d-b38b-4514-81e3-f2407e36beda"
          (reference "J103") (unit 1)
        )
      )
    )
  )

  (symbol (lib_id "power:GND") (at 56.515 120.015 0) (unit 1)
    (in_bom yes) (on_board yes) (dnp no)
    (uuid 00000000-0000-0000-0000-00005d842f34)
    (property "Reference" "#PWR0109" (at 56.515 126.365 0)
      (effects (font (size 1.27 1.27)) hide)
    )
    (property "Value" "GND" (at 56.642 124.4092 0)
      (effects (font (size 1.27 1.27)))
    )
    (property "Footprint" "" (at 56.515 120.015 0)
      (effects (font (size 1.27 1.27)) hide)
    )
    (property "Datasheet" "" (at 56.515 120.015 0)
      (effects (font (size 1.27 1.27)) hide)
    )
    (pin "1" (uuid a5bcc5fa-261b-4e36-ad99-48457e1c3f97))
    (instances
      (project "pcb"
        (path "/800e854d-b38b-4514-81e3-f2407e36beda"
          (reference "#PWR0109") (unit 1)
        )
      )
    )
  )

  (symbol (lib_id "Connector_Generic:Conn_01x02") (at 231.775 84.455 0) (unit 1)
    (in_bom yes) (on_board yes) (dnp no)
    (uuid 00000000-0000-0000-0000-00005d8466ff)
    (property "Reference" "J102" (at 233.807 84.6582 0)
      (effects (font (size 1.27 1.27)) (justify left))
    )
    (property "Value" "Conn_01x02" (at 233.807 86.9696 0)
      (effects (font (size 1.27 1.27)) (justify left))
    )
    (property "Footprint" "Connector_Phoenix_MSTB:PhoenixContact_MSTBA_2,5_2-G-5,08_1x02_P5.08mm_Horizontal" (at 231.775 84.455 0)
      (effects (font (size 1.27 1.27)) hide)
    )
    (property "Datasheet" "~" (at 231.775 84.455 0)
      (effects (font (size 1.27 1.27)) hide)
    )
    (pin "1" (uuid 2236bcd9-775c-4b0e-9892-b2dedf490529))
    (pin "2" (uuid 9e9930f6-21e4-4196-a573-dedcc7c2024d))
    (instances
      (project "pcb"
        (path "/800e854d-b38b-4514-81e3-f2407e36beda"
          (reference "J102") (unit 1)
        )
      )
    )
  )

  (symbol (lib_id "pcb-rescue:C-device") (at 83.82 96.52 180) (unit 1)
    (in_bom yes) (on_board yes) (dnp no)
    (uuid 00000000-0000-0000-0000-00005db80a97)
    (property "Reference" "C1" (at 86.741 95.3516 0)
      (effects (font (size 1.27 1.27)) (justify right))
    )
    (property "Value" "56p" (at 86.741 97.663 0)
      (effects (font (size 1.27 1.27)) (justify right))
    )
    (property "Footprint" "Capacitor_SMD:C_0603_1608Metric" (at 82.8548 92.71 0)
      (effects (font (size 1.27 1.27)) hide)
    )
    (property "Datasheet" "" (at 83.82 96.52 0)
      (effects (font (size 1.27 1.27)) hide)
    )
    (pin "1" (uuid 57a108a1-e69c-43f3-bd5e-fd6f09484a42))
    (pin "2" (uuid 56a4ea1a-edb0-4fac-b5d6-6ddf7b0f237e))
    (instances
      (project "pcb"
        (path "/800e854d-b38b-4514-81e3-f2407e36beda"
          (reference "C1") (unit 1)
        )
      )
    )
  )

  (symbol (lib_id "SRC_Power_Adaptor-cache:SRC_KIT_R_Small") (at 74.93 97.79 0) (unit 1)
    (in_bom yes) (on_board yes) (dnp no)
    (uuid 00000000-0000-0000-0000-00005db9065d)
    (property "Reference" "R1" (at 76.4286 96.6216 0)
      (effects (font (size 1.27 1.27)) (justify left))
    )
    (property "Value" "1k" (at 76.4286 98.933 0)
      (effects (font (size 1.27 1.27)) (justify left))
    )
    (property "Footprint" "" (at 74.93 97.79 0)
      (effects (font (size 1.27 1.27)) hide)
    )
    (property "Datasheet" "" (at 74.93 97.79 0)
      (effects (font (size 1.27 1.27)) hide)
    )
    (pin "1" (uuid 92b401a2-544e-4ef5-9109-0c26450773df))
    (pin "2" (uuid 8344b0c0-2a2c-426b-aa7d-995d0008324e))
    (instances
      (project "pcb"
        (path "/800e854d-b38b-4514-81e3-f2407e36beda"
          (reference "R1") (unit 1)
        )
      )
    )
  )

  (sheet_instances
    (path "/" (page "1"))
  )
)
