Comment,Designator,Footprint,LCSC
3PolePower,J101,"Connector_Phoenix_MSTB:PhoenixContact_MSTBA_2,5_3-G-5,08_1x03_P5.08mm_Horizontal",C8377
2PolePower_5_08,"J102,J103,J104","Connector_Phoenix_MSTB:PhoenixContact_MSTBA_2,5_2-G-5,08_1x02_P5.08mm_Horizontal",C3697
SM4007PL,"D501,D502,D503,D504",Diode_SMD:D_SOD-123F,C64898
1k_1206,"R501,R502",Resistor_SMD:R_1206_3216Metric,C4410
470u_4030_230mA(FNR4030S471MT),L502,inductors:SunlordSWPA4030,C167901.
100n(X2-104K-275VAC),C501,Capacitor_THT:C_Rect_L13.0mm_W6.0mm_P10.00mm_FKS3_FKP3_MKS4,C914483
10u_0805_X7R_16V,"C204,C205,C206,C207,C216,C217,C218,C219,C602,C603,C604,C605",Capacitor_SMD:C_0805_2012Metric,C47971
SMAJ180A(extend),D204,Diode_SMD:D_SMA,C438042
OB25133JPA,U201,gebhardt:SOIC127P600X175-8N,C131096
1M_1206,"R204,R205,R206",Resistor_SMD:R_1206_3216Metric,C17927
1k_0402,R202,Resistor_SMD:R_0402_1005Metric,C11702
3k3_0402,R201,Resistor_SMD:R_0402_1005Metric,C25890
1SMA4742A,"D206,D208",Diode_SMD:D_SMA,C382772
DS110W,"D201,D202,D203",Diode_SMD:D_SOD-123F,C123900
470n(PX474K2C1002),C208,Capacitor_THT:C_Rect_L13.0mm_W8.0mm_P10.00mm_FKS3_FKP3_MKS4,C2693796
1u_0805_X7R_50V,C202,Capacitor_SMD:C_0805_2012Metric,C28323
US1M(Basic),D205,Diode_SMD:D_SMA,C412437
Transformer_E13_ 6Pin,T201,coilformer:E13_Coil_Former,
10n_1206_X7R_1000V,C201,Capacitor_SMD:C_1206_3216Metric,C9194
10_0805,R203,Resistor_SMD:R_0805_2012Metric,C17415
6k8_0402,R602,Resistor_SMD:R_0402_1005Metric,C25917
FTC252012S100MBCA,L601,Inductor_SMD:L_Changjiang_FNR252012S,C5832376
1_0805,R603,Resistor_SMD:R_0805_2012Metric,C25271
33k_0402,R601,Resistor_SMD:R_0402_1005Metric,C25779
100n_0402_X7R_50V,C601,Capacitor_SMD:C_0402_1005Metric,C307331
MT2492,U604,Package_TO_SOT_SMD:SOT-23-6,C89358
