(version 1)
(rule "HV-500V"
   (layer outer)
   (constraint clearance (min 0.8mm))
   (condition "A.NetClass =='500V'")
)
(rule "HV-800V"
   (layer outer)
   (constraint clearance (min 1.7mm))
   (condition "A.NetClass =='800V'")
)
