(kicad_sch (version 20230121) (generator eeschema)

  (uuid a29a2a17-db50-47bf-8d31-0e3d0d487483)

  (paper "A4")

  (lib_symbols
    (symbol "Connector_Generic:Conn_01x01" (pin_names (offset 1.016) hide) (in_bom yes) (on_board yes)
      (property "Reference" "J" (at 0 2.54 0)
        (effects (font (size 1.27 1.27)))
      )
      (property "Value" "Conn_01x01" (at 0 -2.54 0)
        (effects (font (size 1.27 1.27)))
      )
      (property "Footprint" "" (at 0 0 0)
        (effects (font (size 1.27 1.27)) hide)
      )
      (property "Datasheet" "~" (at 0 0 0)
        (effects (font (size 1.27 1.27)) hide)
      )
      (property "ki_keywords" "connector" (at 0 0 0)
        (effects (font (size 1.27 1.27)) hide)
      )
      (property "ki_description" "Generic connector, single row, 01x01, script generated (kicad-library-utils/schlib/autogen/connector/)" (at 0 0 0)
        (effects (font (size 1.27 1.27)) hide)
      )
      (property "ki_fp_filters" "Connector*:*_1x??_*" (at 0 0 0)
        (effects (font (size 1.27 1.27)) hide)
      )
      (symbol "Conn_01x01_1_1"
        (rectangle (start -1.27 0.127) (end 0 -0.127)
          (stroke (width 0.1524) (type default))
          (fill (type none))
        )
        (rectangle (start -1.27 1.27) (end 1.27 -1.27)
          (stroke (width 0.254) (type default))
          (fill (type background))
        )
        (pin passive line (at -5.08 0 0) (length 3.81)
          (name "Pin_1" (effects (font (size 1.27 1.27))))
          (number "1" (effects (font (size 1.27 1.27))))
        )
      )
    )
    (symbol "DPS_connectors:2PolePower_5_08" (pin_names (offset 1.016) hide) (in_bom yes) (on_board yes)
      (property "Reference" "J" (at 0 2.54 0)
        (effects (font (size 1.27 1.27)))
      )
      (property "Value" "2PolePower_5_08" (at 0 -5.08 0)
        (effects (font (size 1.27 1.27)))
      )
      (property "Footprint" "Connector_Phoenix_MSTB:PhoenixContact_MSTBA_2,5_2-G-5,08_1x02_P5.08mm_Horizontal" (at 0 0 0)
        (effects (font (size 1.27 1.27)) hide)
      )
      (property "Datasheet" "https://datasheet.lcsc.com/lcsc/1912251635_Ningbo-Kangnex-Elec-WJ2EDGVC-5-08-2P_C8445.pdf" (at 0 0 0)
        (effects (font (size 1.27 1.27)) hide)
      )
      (property "LCSC" "C3697" (at 0 0 0)
        (effects (font (size 1.27 1.27)) hide)
      )
      (property "ki_keywords" "connector" (at 0 0 0)
        (effects (font (size 1.27 1.27)) hide)
      )
      (property "ki_description" "2 Bend 1 5.08mm Green Board Edge/Receptacle P=5.08mm Pluggable System Terminal Block ROHS" (at 0 0 0)
        (effects (font (size 1.27 1.27)) hide)
      )
      (property "ki_fp_filters" "Connector*:*_1x??_*" (at 0 0 0)
        (effects (font (size 1.27 1.27)) hide)
      )
      (symbol "2PolePower_5_08_1_1"
        (rectangle (start -1.27 -2.413) (end 0 -2.667)
          (stroke (width 0.1524) (type default))
          (fill (type none))
        )
        (rectangle (start -1.27 0.127) (end 0 -0.127)
          (stroke (width 0.1524) (type default))
          (fill (type none))
        )
        (rectangle (start -1.27 1.27) (end 1.27 -3.81)
          (stroke (width 0.254) (type default))
          (fill (type background))
        )
        (text "+" (at 0 -0.635 0)
          (effects (font (size 1.27 1.27)))
        )
        (pin passive line (at -5.08 0 0) (length 3.81)
          (name "Pin_1" (effects (font (size 1.27 1.27))))
          (number "1" (effects (font (size 1.27 1.27))))
        )
        (pin passive line (at -5.08 -2.54 0) (length 3.81)
          (name "Pin_2" (effects (font (size 1.27 1.27))))
          (number "2" (effects (font (size 1.27 1.27))))
        )
      )
    )
    (symbol "DPS_connectors:3PolePower" (pin_names (offset 1.016) hide) (in_bom yes) (on_board yes)
      (property "Reference" "J" (at 0 5.08 0)
        (effects (font (size 1.27 1.27)))
      )
      (property "Value" "3PolePower" (at 0 -5.08 0)
        (effects (font (size 1.27 1.27)))
      )
      (property "Footprint" "Connector_Phoenix_MSTB:PhoenixContact_MSTBA_2,5_3-G-5,08_1x03_P5.08mm_Horizontal" (at 0 0 0)
        (effects (font (size 1.27 1.27)) hide)
      )
      (property "Datasheet" "https://lcsc.com/product-detail/Pluggable-System-Terminal-Block_Ningbo-Kangnex-Elec-WJ2EDGRC-5-08-3P_C8377.html" (at 0 0 0)
        (effects (font (size 1.27 1.27)) hide)
      )
      (property "LCSC" "C8377" (at 0 0 0)
        (effects (font (size 1.27 1.27)) hide)
      )
      (property "Partnumber" "WJ2EDGRC-5.08-3P" (at 0 0 0)
        (effects (font (size 1.27 1.27)) hide)
      )
      (property "ki_keywords" "connector" (at 0 0 0)
        (effects (font (size 1.27 1.27)) hide)
      )
      (property "ki_description" "3 Bend 1 5.08mm Green Board Edge/Receptacle-闭口 P=5.08mm Pluggable System Terminal Block ROHS" (at 0 0 0)
        (effects (font (size 1.27 1.27)) hide)
      )
      (property "ki_fp_filters" "Connector*:*_1x??_*" (at 0 0 0)
        (effects (font (size 1.27 1.27)) hide)
      )
      (symbol "3PolePower_1_1"
        (rectangle (start -1.27 -2.413) (end 0 -2.667)
          (stroke (width 0.1524) (type default))
          (fill (type none))
        )
        (rectangle (start -1.27 0.127) (end 0 -0.127)
          (stroke (width 0.1524) (type default))
          (fill (type none))
        )
        (rectangle (start -1.27 2.667) (end 0 2.413)
          (stroke (width 0.1524) (type default))
          (fill (type none))
        )
        (rectangle (start -1.27 3.81) (end 1.27 -3.81)
          (stroke (width 0.254) (type default))
          (fill (type background))
        )
        (pin passive line (at -5.08 2.54 0) (length 3.81)
          (name "Pin_1" (effects (font (size 1.27 1.27))))
          (number "1" (effects (font (size 1.27 1.27))))
        )
        (pin passive line (at -5.08 0 0) (length 3.81)
          (name "Pin_2" (effects (font (size 1.27 1.27))))
          (number "2" (effects (font (size 1.27 1.27))))
        )
        (pin passive line (at -5.08 -2.54 0) (length 3.81)
          (name "Pin_3" (effects (font (size 1.27 1.27))))
          (number "3" (effects (font (size 1.27 1.27))))
        )
      )
    )
  )

  (junction (at 161.29 96.52) (diameter 0) (color 0 0 0 0)
    (uuid bc4a9117-8767-4838-9a52-7ff209eb923b)
  )
  (junction (at 194.31 97.155) (diameter 0) (color 0 0 0 0)
    (uuid be6b990f-fe5a-433d-8019-606d6fc57a6e)
  )
  (junction (at 167.64 96.52) (diameter 0) (color 0 0 0 0)
    (uuid c58172ea-abc6-42f9-90bb-a868aa7915af)
  )
  (junction (at 163.83 94.615) (diameter 0) (color 0 0 0 0)
    (uuid c9251b38-e918-41ec-8b3e-07e2ac7059a2)
  )

  (no_connect (at 136.525 40.005) (uuid 097f7d9f-b2ef-4f8e-8ba0-adb60a0ca175))

  (wire (pts (xy 167.64 106.68) (xy 194.31 106.68))
    (stroke (width 0) (type default))
    (uuid 042929fe-1162-4052-815d-ce69fb8de4f6)
  )
  (wire (pts (xy 163.83 94.615) (xy 163.83 105.41))
    (stroke (width 0) (type default))
    (uuid 05b61cd6-3977-49c2-af32-3692ad5a9fe5)
  )
  (wire (pts (xy 83.82 40.005) (xy 83.82 96.52))
    (stroke (width 0) (type default))
    (uuid 13c00bd6-b884-4bf2-8bec-d9c3560f58ba)
  )
  (wire (pts (xy 188.595 97.155) (xy 194.31 97.155))
    (stroke (width 0) (type default))
    (uuid 18375723-79e7-4c37-bdc9-0da025a33c0e)
  )
  (wire (pts (xy 81.28 93.98) (xy 114.935 93.98))
    (stroke (width 0) (type default))
    (uuid 25559ecd-6ce5-451e-9486-98404f20b53e)
  )
  (wire (pts (xy 167.64 96.52) (xy 168.91 96.52))
    (stroke (width 0) (type default))
    (uuid 3bd1c0ef-e675-4cca-94fe-05b573c83bd6)
  )
  (wire (pts (xy 156.21 96.52) (xy 161.29 96.52))
    (stroke (width 0) (type default))
    (uuid 44c9d904-2952-4a47-b27f-6271362ff8c9)
  )
  (wire (pts (xy 188.595 94.615) (xy 197.485 94.615))
    (stroke (width 0) (type default))
    (uuid 48dcb2d6-8628-4d3b-be0f-84b1f6dbb526)
  )
  (wire (pts (xy 156.21 94.615) (xy 163.83 94.615))
    (stroke (width 0) (type default))
    (uuid 4e155ba6-8e3d-4bde-b929-85fd969e8f2d)
  )
  (wire (pts (xy 167.64 96.52) (xy 167.64 106.68))
    (stroke (width 0) (type default))
    (uuid 6f5fd8e4-7444-4eea-b718-5dd3fe0ef9eb)
  )
  (wire (pts (xy 161.29 96.52) (xy 167.64 96.52))
    (stroke (width 0) (type default))
    (uuid 74720de9-73fb-4ee4-a32a-0428e6881be8)
  )
  (wire (pts (xy 133.985 40.005) (xy 133.985 43.18))
    (stroke (width 0) (type default))
    (uuid 74fa3760-fec4-444a-9024-1f8d0aa9800b)
  )
  (wire (pts (xy 161.29 105.41) (xy 161.29 96.52))
    (stroke (width 0) (type default))
    (uuid 8c47944a-150c-4d0b-a562-94b207914344)
  )
  (wire (pts (xy 194.31 97.155) (xy 197.485 97.155))
    (stroke (width 0) (type default))
    (uuid 9fca380a-4481-4e8a-9d09-1f61f067e22c)
  )
  (wire (pts (xy 140.97 68.58) (xy 140.97 79.375))
    (stroke (width 0) (type default))
    (uuid a0c742e1-60af-4fbf-83b3-5b5c2452ef5c)
  )
  (wire (pts (xy 194.31 106.68) (xy 194.31 97.155))
    (stroke (width 0) (type default))
    (uuid b1f36b5f-cdd5-4df6-984b-010ae30cb91f)
  )
  (wire (pts (xy 139.065 40.005) (xy 139.065 43.18))
    (stroke (width 0) (type default))
    (uuid b278bd47-69f7-472e-997a-064388f5bc5c)
  )
  (wire (pts (xy 114.935 96.52) (xy 83.82 96.52))
    (stroke (width 0) (type default))
    (uuid d3847d30-f982-43ce-9d7a-b6eebf25f32d)
  )
  (wire (pts (xy 132.08 68.58) (xy 132.08 79.375))
    (stroke (width 0) (type default))
    (uuid e4442e64-1723-472f-9d0a-88ea74a54f9d)
  )
  (wire (pts (xy 81.28 40.005) (xy 81.28 93.98))
    (stroke (width 0) (type default))
    (uuid e5ed220d-f3b9-4538-a81b-c01da8ecadbe)
  )
  (wire (pts (xy 163.83 94.615) (xy 168.91 94.615))
    (stroke (width 0) (type default))
    (uuid e98f32a7-6529-46bc-afaf-b0e7f24bba41)
  )

  (symbol (lib_id "DPS_connectors:3PolePower") (at 136.525 34.925 90) (unit 1)
    (in_bom yes) (on_board yes) (dnp no) (fields_autoplaced)
    (uuid 72a4f99d-8ca8-4e02-b35f-d2038b1c4a90)
    (property "Reference" "J101" (at 142.24 33.655 90)
      (effects (font (size 1.27 1.27)) (justify right))
    )
    (property "Value" "3PolePower" (at 142.24 36.195 90)
      (effects (font (size 1.27 1.27)) (justify right))
    )
    (property "Footprint" "Connector_Phoenix_MSTB:PhoenixContact_MSTBA_2,5_3-G-5,08_1x03_P5.08mm_Horizontal" (at 136.525 34.925 0)
      (effects (font (size 1.27 1.27)) hide)
    )
    (property "Datasheet" "https://lcsc.com/product-detail/Pluggable-System-Terminal-Block_Ningbo-Kangnex-Elec-WJ2EDGRC-5-08-3P_C8377.html" (at 136.525 34.925 0)
      (effects (font (size 1.27 1.27)) hide)
    )
    (property "LCSC" "C8377" (at 136.525 34.925 0)
      (effects (font (size 1.27 1.27)) hide)
    )
    (property "Partnumber" "WJ2EDGRC-5.08-3P" (at 136.525 34.925 0)
      (effects (font (size 1.27 1.27)) hide)
    )
    (pin "1" (uuid f1955dd3-0930-432e-8571-52ac11b25913))
    (pin "2" (uuid d07d3e0b-b2e9-46d4-ac81-f52eea7b2987))
    (pin "3" (uuid 523e1e1d-0c62-4e24-9ecb-cdb8472c78bc))
    (instances
      (project "auxsupply"
        (path "/a29a2a17-db50-47bf-8d31-0e3d0d487483"
          (reference "J101") (unit 1)
        )
      )
    )
  )

  (symbol (lib_id "DPS_connectors:2PolePower_5_08") (at 202.565 94.615 0) (unit 1)
    (in_bom yes) (on_board yes) (dnp no) (fields_autoplaced)
    (uuid a2b633e0-3cce-4389-a3ca-d09bdef10943)
    (property "Reference" "J104" (at 205.105 94.615 0)
      (effects (font (size 1.27 1.27)) (justify left))
    )
    (property "Value" "2PolePower_5_08" (at 205.105 97.155 0)
      (effects (font (size 1.27 1.27)) (justify left))
    )
    (property "Footprint" "Connector_Phoenix_MSTB:PhoenixContact_MSTBA_2,5_2-G-5,08_1x02_P5.08mm_Horizontal" (at 202.565 94.615 0)
      (effects (font (size 1.27 1.27)) hide)
    )
    (property "Datasheet" "https://datasheet.lcsc.com/lcsc/1912251635_Ningbo-Kangnex-Elec-WJ2EDGVC-5-08-2P_C8445.pdf" (at 202.565 94.615 0)
      (effects (font (size 1.27 1.27)) hide)
    )
    (property "LCSC" "C3697" (at 202.565 94.615 0)
      (effects (font (size 1.27 1.27)) hide)
    )
    (pin "1" (uuid a27c0a3d-ab8d-4b76-81d9-759c27869e72))
    (pin "2" (uuid 9e8e3806-b097-4c59-a9bd-f116d01168b5))
    (instances
      (project "auxsupply"
        (path "/a29a2a17-db50-47bf-8d31-0e3d0d487483"
          (reference "J104") (unit 1)
        )
      )
    )
  )

  (symbol (lib_id "DPS_connectors:2PolePower_5_08") (at 163.83 110.49 270) (unit 1)
    (in_bom yes) (on_board yes) (dnp no) (fields_autoplaced)
    (uuid db36b324-704a-4462-b6bb-60e65b477311)
    (property "Reference" "J103" (at 166.37 109.22 90)
      (effects (font (size 1.27 1.27)) (justify left))
    )
    (property "Value" "2PolePower_5_08" (at 166.37 111.76 90)
      (effects (font (size 1.27 1.27)) (justify left))
    )
    (property "Footprint" "Connector_Phoenix_MSTB:PhoenixContact_MSTBA_2,5_2-G-5,08_1x02_P5.08mm_Horizontal" (at 163.83 110.49 0)
      (effects (font (size 1.27 1.27)) hide)
    )
    (property "Datasheet" "https://datasheet.lcsc.com/lcsc/1912251635_Ningbo-Kangnex-Elec-WJ2EDGVC-5-08-2P_C8445.pdf" (at 163.83 110.49 0)
      (effects (font (size 1.27 1.27)) hide)
    )
    (property "LCSC" "C3697" (at 163.83 110.49 0)
      (effects (font (size 1.27 1.27)) hide)
    )
    (pin "1" (uuid 543bb9e4-16b2-4fb6-8732-3ceb571def48))
    (pin "2" (uuid 7a154629-d12c-4949-870f-a01ae2b6853b))
    (instances
      (project "auxsupply"
        (path "/a29a2a17-db50-47bf-8d31-0e3d0d487483"
          (reference "J103") (unit 1)
        )
      )
    )
  )

  (symbol (lib_id "DPS_connectors:2PolePower_5_08") (at 81.28 34.925 90) (unit 1)
    (in_bom yes) (on_board yes) (dnp no) (fields_autoplaced)
    (uuid dd45f3e8-286b-4c90-8618-c71955194823)
    (property "Reference" "J102" (at 86.36 33.655 90)
      (effects (font (size 1.27 1.27)) (justify right))
    )
    (property "Value" "2PolePower_5_08" (at 86.36 36.195 90)
      (effects (font (size 1.27 1.27)) (justify right))
    )
    (property "Footprint" "Connector_Phoenix_MSTB:PhoenixContact_MSTBA_2,5_2-G-5,08_1x02_P5.08mm_Horizontal" (at 81.28 34.925 0)
      (effects (font (size 1.27 1.27)) hide)
    )
    (property "Datasheet" "https://datasheet.lcsc.com/lcsc/1912251635_Ningbo-Kangnex-Elec-WJ2EDGVC-5-08-2P_C8445.pdf" (at 81.28 34.925 0)
      (effects (font (size 1.27 1.27)) hide)
    )
    (property "LCSC" "C3697" (at 81.28 34.925 0)
      (effects (font (size 1.27 1.27)) hide)
    )
    (pin "1" (uuid a5adcf40-a50e-4651-a82e-9398d86bab38))
    (pin "2" (uuid bf7057bf-288a-45b3-ac87-eda9d3f9330a))
    (instances
      (project "auxsupply"
        (path "/a29a2a17-db50-47bf-8d31-0e3d0d487483"
          (reference "J102") (unit 1)
        )
      )
    )
  )

  (symbol (lib_id "Connector_Generic:Conn_01x01") (at 219.71 45.72 0) (unit 1)
    (in_bom yes) (on_board yes) (dnp no) (fields_autoplaced)
    (uuid f2a737fc-fa9e-422c-8304-0887e2d5f445)
    (property "Reference" "J105" (at 222.25 44.45 0)
      (effects (font (size 1.27 1.27)) (justify left))
    )
    (property "Value" "Conn_01x01" (at 222.25 46.99 0)
      (effects (font (size 1.27 1.27)) (justify left))
    )
    (property "Footprint" "" (at 219.71 45.72 0)
      (effects (font (size 1.27 1.27)) hide)
    )
    (property "Datasheet" "~" (at 219.71 45.72 0)
      (effects (font (size 1.27 1.27)) hide)
    )
    (pin "1" (uuid 37e6f9b9-9b7e-4c7f-94c4-7c84e3f9c5b9))
    (instances
      (project "auxsupply"
        (path "/a29a2a17-db50-47bf-8d31-0e3d0d487483"
          (reference "J105") (unit 1)
        )
      )
    )
  )

  (sheet (at 114.3 43.18) (size 41.91 25.4) (fields_autoplaced)
    (stroke (width 0.1524) (type solid))
    (fill (color 0 0 0 0.0000))
    (uuid 1acbe26f-541b-45a3-9ef4-0d8ac83245dd)
    (property "Sheetname" "AC_IN" (at 114.3 42.4684 0)
      (effects (font (size 1.27 1.27)) (justify left bottom))
    )
    (property "Sheetfile" "AC_IN.kicad_sch" (at 114.3 69.1646 0)
      (effects (font (size 1.27 1.27)) (justify left top))
    )
    (property "Field2" "" (at 114.3 43.18 0)
      (effects (font (size 1.27 1.27)) hide)
    )
    (pin "DC+" output (at 132.08 68.58 270)
      (effects (font (size 1.27 1.27)) (justify left))
      (uuid bf4b0d03-277b-4df1-bfad-b2ed6f667209)
    )
    (pin "DC-" output (at 140.97 68.58 270)
      (effects (font (size 1.27 1.27)) (justify left))
      (uuid 4cf23ca6-979f-4e49-be09-b52a2e4aa456)
    )
    (pin "AC2" input (at 133.985 43.18 90)
      (effects (font (size 1.27 1.27)) (justify right))
      (uuid 656586ef-0779-4cac-a0f3-309e8ea78198)
    )
    (pin "AC1" input (at 139.065 43.18 90)
      (effects (font (size 1.27 1.27)) (justify right))
      (uuid b73dd4ca-9947-443a-890f-7ea8e6953dbf)
    )
    (instances
      (project "auxsupply"
        (path "/a29a2a17-db50-47bf-8d31-0e3d0d487483" (page "5"))
      )
    )
  )

  (sheet (at 114.935 79.375) (size 41.275 20.955) (fields_autoplaced)
    (stroke (width 0.1524) (type solid))
    (fill (color 0 0 0 0.0000))
    (uuid 6721b4e3-e6fe-4d07-9756-d333b672f107)
    (property "Sheetname" "flyback" (at 114.935 78.6634 0)
      (effects (font (size 1.27 1.27)) (justify left bottom))
    )
    (property "Sheetfile" "flyback.kicad_sch" (at 114.935 100.9146 0)
      (effects (font (size 1.27 1.27)) (justify left top))
    )
    (pin "PRI_GND" output (at 114.935 96.52 180)
      (effects (font (size 1.27 1.27)) (justify left))
      (uuid c88ccdde-b8bb-4a8a-9e52-a6ebea6d9c5f)
    )
    (pin "PRI_GateSupply" output (at 114.935 93.98 180)
      (effects (font (size 1.27 1.27)) (justify left))
      (uuid 50c65d35-e8a9-4f7e-925e-3d4cd41d7b6e)
    )
    (pin "SEC_GND" output (at 156.21 96.52 0)
      (effects (font (size 1.27 1.27)) (justify right))
      (uuid 51e3c466-abec-419a-8f27-cf2e559d86be)
    )
    (pin "SEC_GateSupply" output (at 156.21 94.615 0)
      (effects (font (size 1.27 1.27)) (justify right))
      (uuid 6d15c4b6-b803-4d80-9f75-c48b56b6ef9e)
    )
    (pin "HV_IN" input (at 132.08 79.375 90)
      (effects (font (size 1.27 1.27)) (justify right))
      (uuid 536d6dfb-cc92-42b3-aa71-ed5013d80329)
    )
    (pin "HV_GND" input (at 140.97 79.375 90)
      (effects (font (size 1.27 1.27)) (justify right))
      (uuid 57e94317-51ca-4a9d-89ba-7539586c6cd3)
    )
    (instances
      (project "auxsupply"
        (path "/a29a2a17-db50-47bf-8d31-0e3d0d487483" (page "2"))
      )
    )
  )

  (sheet (at 168.91 79.375) (size 19.685 20.955) (fields_autoplaced)
    (stroke (width 0.1524) (type solid))
    (fill (color 0 0 0 0.0000))
    (uuid 869e4b36-612a-4da2-9f84-68963474e5d9)
    (property "Sheetname" "dcdc" (at 168.91 78.6634 0)
      (effects (font (size 1.27 1.27)) (justify left bottom))
    )
    (property "Sheetfile" "dcdc.kicad_sch" (at 168.91 100.9146 0)
      (effects (font (size 1.27 1.27)) (justify left top))
    )
    (pin "OUT+" input (at 188.595 94.615 0)
      (effects (font (size 1.27 1.27)) (justify right))
      (uuid 58a0054b-a1f2-42c6-ad50-e741b0a7085f)
    )
    (pin "OUT-" input (at 188.595 97.155 0)
      (effects (font (size 1.27 1.27)) (justify right))
      (uuid 7b993c4a-45be-48b7-9ab4-187a10bc0f25)
    )
    (pin "SUP+" input (at 168.91 94.615 180)
      (effects (font (size 1.27 1.27)) (justify left))
      (uuid a64060b8-9781-4928-baa6-593c20ddfc20)
    )
    (pin "SUP-" input (at 168.91 96.52 180)
      (effects (font (size 1.27 1.27)) (justify left))
      (uuid 30ae27c6-0ad8-4fb5-a715-26413d5421f5)
    )
    (instances
      (project "auxsupply"
        (path "/a29a2a17-db50-47bf-8d31-0e3d0d487483" (page "6"))
      )
    )
  )

  (sheet (at 140.97 165.735) (size 32.385 27.305) (fields_autoplaced)
    (stroke (width 0.1524) (type solid))
    (fill (color 0 0 0 0.0000))
    (uuid eeb26e29-b7b5-4b6e-9493-b7808cf49608)
    (property "Sheetname" "clearance" (at 140.97 165.0234 0)
      (effects (font (size 1.27 1.27)) (justify left bottom))
    )
    (property "Sheetfile" "clearance.kicad_sch" (at 140.97 193.6246 0)
      (effects (font (size 1.27 1.27)) (justify left top))
    )
    (instances
      (project "auxsupply"
        (path "/a29a2a17-db50-47bf-8d31-0e3d0d487483" (page "7"))
      )
    )
  )

  (sheet_instances
    (path "/" (page "1"))
  )
)
