Drill report for panel.kicad_pcb
Created on Thu Nov  2 20:52:37 2023

Copper Layer Stackup:
    =============================================================
    L1 :  F.Cu                      front
    L2 :  B.Cu                      back


Drill file 'panel.drl' contains
    plated through holes:
    =============================================================
    T1  0.300mm  0.0118"  (48 holes)
    T2  0.400mm  0.0157"  (4 holes)
    T3  1.000mm  0.0394"  (8 holes)
    T4  1.200mm  0.0472"  (12 holes)
    T5  1.400mm  0.0551"  (18 holes)

    Total plated holes count 90


Not plated through holes are merged with plated holes
    unplated through holes:
    =============================================================
    T6  0.500mm  0.0197"  (48 holes)

    Total unplated holes count 48
