(footprint "L_Changjiang_FNR252012S" (version 20221018) (generator pcbnew)
  (layer "F.Cu")
  (descr "Inductor, Changjiang, FNR252012S, 2.5x2.0x1.2mm, https://datasheet.lcsc.com/lcsc/1806131217_cjiang-Changjiang-Microelectronics-Tech-FNR5040S3R3NT_C167960.pdf")
  (tags "Inductor wirewound power shielded")
  (property "Description" "1.2A 10uH Molding Choke ±20% 1.6A SMD,2x2.5mm  Power Inductors ROHS")
  (property "LCSC" "C5832376")
  (property "Price1000" "0.0277")
  (property "Sheetfile" "dcdc.kicad_sch")
  (property "Sheetname" "dcdc")
  (property "ki_description" "Inductor with ferrite core, small symbol")
  (property "ki_keywords" "inductor choke coil reactor magnetic")
  (attr smd)
  (fp_text reference "REF**" (at 0 -2) (layer "F.SilkS")
      (effects (font (size 1 1) (thickness 0.15)))
    (tstamp 3ff5de1b-9b20-46d2-ae0f-257d81ee6224)
  )
  (fp_text value "FTC252012S100MBCA" (at 0 2) (layer "F.Fab")
      (effects (font (size 1 1) (thickness 0.15)))
    (tstamp e3f3780e-5b90-4551-a967-35b213dd505a)
  )
  (fp_text user "${REFERENCE}" (at 0 0 90) (layer "F.Fab")
      (effects (font (size 0.5 0.5) (thickness 0.075)))
    (tstamp 719a3d9f-780d-411a-ab19-cd3d754f7ce4)
  )
  (fp_line (start -1.51 -1.26) (end 1.51 -1.26)
    (stroke (width 0.12) (type solid)) (layer "F.SilkS") (tstamp c5873fd0-a97b-49fb-9493-87d942d0ff28))
  (fp_line (start -1.51 1.26) (end 1.51 1.26)
    (stroke (width 0.12) (type solid)) (layer "F.SilkS") (tstamp 27e6c3e7-27d4-4eb8-9b79-a3d447f6cd2c))
  (fp_line (start -1.5 -1.25) (end -1.5 1.25)
    (stroke (width 0.05) (type solid)) (layer "F.CrtYd") (tstamp d0737722-28bd-43ac-a358-1e0e3474f5e6))
  (fp_line (start -1.5 1.25) (end 1.5 1.25)
    (stroke (width 0.05) (type solid)) (layer "F.CrtYd") (tstamp 37c1bb0e-b5b8-4e32-b7e2-f4983aa0650c))
  (fp_line (start 1.5 -1.25) (end -1.5 -1.25)
    (stroke (width 0.05) (type solid)) (layer "F.CrtYd") (tstamp 5495f5df-b178-47e5-8b1f-51189bbaa7dd))
  (fp_line (start 1.5 1.25) (end 1.5 -1.25)
    (stroke (width 0.05) (type solid)) (layer "F.CrtYd") (tstamp 8a782a24-61e1-4357-b616-7cceb0614521))
  (fp_line (start -1.25 -1) (end -1.25 1)
    (stroke (width 0.1) (type solid)) (layer "F.Fab") (tstamp da51e541-0b59-453c-a9de-a0448c8f254a))
  (fp_line (start -1.25 1) (end 1.25 1)
    (stroke (width 0.1) (type solid)) (layer "F.Fab") (tstamp 4a3a360f-43f0-4f26-9b47-278a4aeac2c6))
  (fp_line (start 1.25 -1) (end -1.25 -1)
    (stroke (width 0.1) (type solid)) (layer "F.Fab") (tstamp a207d4b0-60a4-4361-9c79-365107daa3eb))
  (fp_line (start 1.25 1) (end 1.25 -1)
    (stroke (width 0.1) (type solid)) (layer "F.Fab") (tstamp 2cfe6978-c7b8-4985-8fba-076b4adbca91))
  (pad "1" smd rect (at -0.825 0) (size 0.85 2) (layers "F.Cu" "F.Paste" "F.Mask") (tstamp b26bbca3-be6a-4d5f-ad1d-078b0f61d85d))
  (pad "2" smd rect (at 0.825 0) (size 0.85 2) (layers "F.Cu" "F.Paste" "F.Mask") (tstamp fd572762-e87c-46f1-94aa-d88d89d7e6bf))
  (model "${KICAD7_3DMODEL_DIR}/Inductor_SMD.3dshapes/L_Changjiang_FNR252012S.wrl"
    (offset (xyz 0 0 0))
    (scale (xyz 1 1 1))
    (rotate (xyz 0 0 0))
  )
)
