(footprint "R_0402_1005Metric" (version 20221018) (generator pcbnew)
  (layer "F.Cu")
  (descr "Resistor SMD 0402 (1005 Metric), square (rectangular) end terminal, IPC_7351 nominal, (Body size source: IPC-SM-782 page 72, https://www.pcb-3d.com/wordpress/wp-content/uploads/ipc-sm-782a_amendment_1_and_2.pdf), generated with kicad-footprint-generator")
  (tags "resistor")
  (property "Description" "±1% 1/16W Thick Film Resistors 50V ±100ppm/℃ -55℃~+155℃ 10kΩ 0402 Chip Resistor - Surface Mount ROHS")
  (property "LCSC" "C25917")
  (property "Sheetfile" "dcdc.kicad_sch")
  (property "Sheetname" "dcdc")
  (property "Tollerance" "1%")
  (property "Voltage" "50V")
  (property "ki_description" "±1% 1/16W Thick Film Resistors 50V ±100ppm/℃ -55℃~+155℃ 6.8kΩ 0402 Chip Resistor - Surface Mount ROHS")
  (property "ki_keywords" "R resistor")
  (attr smd)
  (fp_text reference "REF**" (at 0 -1.17) (layer "F.SilkS")
      (effects (font (size 1 1) (thickness 0.15)))
    (tstamp 77ebc415-d1c6-445f-a390-441acd6c22ef)
  )
  (fp_text value "6k8_0402" (at 0 1.17) (layer "F.Fab")
      (effects (font (size 1 1) (thickness 0.15)))
    (tstamp 924e6596-6173-4f0d-a472-5a1e120ebed8)
  )
  (fp_text user "${REFERENCE}" (at 0 0) (layer "F.Fab")
      (effects (font (size 0.26 0.26) (thickness 0.04)))
    (tstamp 38bdaec9-61f8-4603-8e39-db6e7e4277bb)
  )
  (fp_line (start -0.153641 -0.38) (end 0.153641 -0.38)
    (stroke (width 0.12) (type solid)) (layer "F.SilkS") (tstamp c0a9d2f4-56ee-43d9-97e6-cfeab6c72a1a))
  (fp_line (start -0.153641 0.38) (end 0.153641 0.38)
    (stroke (width 0.12) (type solid)) (layer "F.SilkS") (tstamp fe5dab66-95bb-4d51-8e61-cd9e23c0f452))
  (fp_line (start -0.93 -0.47) (end 0.93 -0.47)
    (stroke (width 0.05) (type solid)) (layer "F.CrtYd") (tstamp c7fd185b-adbf-452c-889d-842f3969185a))
  (fp_line (start -0.93 0.47) (end -0.93 -0.47)
    (stroke (width 0.05) (type solid)) (layer "F.CrtYd") (tstamp 67c88673-fdf9-44b0-9cc8-c1c3e5eaf0ff))
  (fp_line (start 0.93 -0.47) (end 0.93 0.47)
    (stroke (width 0.05) (type solid)) (layer "F.CrtYd") (tstamp 74212514-ff41-4cbb-be9f-0b775c1a1b52))
  (fp_line (start 0.93 0.47) (end -0.93 0.47)
    (stroke (width 0.05) (type solid)) (layer "F.CrtYd") (tstamp 307d89f3-f804-48ee-8ba7-c05085fa2a03))
  (fp_line (start -0.525 -0.27) (end 0.525 -0.27)
    (stroke (width 0.1) (type solid)) (layer "F.Fab") (tstamp 6be18244-a986-48c7-b968-616a463857ee))
  (fp_line (start -0.525 0.27) (end -0.525 -0.27)
    (stroke (width 0.1) (type solid)) (layer "F.Fab") (tstamp a4769b56-0598-4ee2-b53a-5a2ddfb3b0e4))
  (fp_line (start 0.525 -0.27) (end 0.525 0.27)
    (stroke (width 0.1) (type solid)) (layer "F.Fab") (tstamp b5133f7e-bcab-49f6-abbe-d3a7146b87d1))
  (fp_line (start 0.525 0.27) (end -0.525 0.27)
    (stroke (width 0.1) (type solid)) (layer "F.Fab") (tstamp d8b087d1-de96-45b0-b870-acfe8e771e69))
  (pad "1" smd roundrect (at -0.51 0) (size 0.54 0.64) (layers "F.Cu" "F.Paste" "F.Mask") (roundrect_rratio 0.25) (tstamp 6d07f7b7-afb0-41fd-9a17-15f8afc2246b))
  (pad "2" smd roundrect (at 0.51 0) (size 0.54 0.64) (layers "F.Cu" "F.Paste" "F.Mask") (roundrect_rratio 0.25) (tstamp 20dbf601-da0b-4f1d-a510-221c09ef3448))
  (model "${KICAD6_3DMODEL_DIR}/Resistor_SMD.3dshapes/R_0402_1005Metric.wrl"
    (offset (xyz 0 0 0))
    (scale (xyz 1 1 1))
    (rotate (xyz 0 0 0))
  )
)
