(footprint "SOT-23-6" (version 20221018) (generator pcbnew)
  (layer "F.Cu")
  (descr "SOT, 6 Pin (https://www.jedec.org/sites/default/files/docs/Mo-178c.PDF variant AB), generated with kicad-footprint-generator ipc_gullwing_generator.py")
  (tags "SOT TO_SOT_SMD")
  (property "JLCPCB_CORRECTION" "0;0;180;")
  (property "LCSC" "C89358")
  (property "Price1000" "0.0302")
  (property "QtyReel" "3000")
  (property "Sheetfile" "dcdc.kicad_sch")
  (property "Sheetname" "dcdc")
  (property "ki_description" "Step-down type SOT-23-6  DC-DC Converters ROHS")
  (attr smd)
  (fp_text reference "REF**" (at 0 -2.4) (layer "F.SilkS")
      (effects (font (size 1 1) (thickness 0.15)))
    (tstamp fb89e521-c258-47c7-85e7-37b78bd45c66)
  )
  (fp_text value "MT2492" (at 0 2.4) (layer "F.Fab")
      (effects (font (size 1 1) (thickness 0.15)))
    (tstamp d0d0d69d-408e-4d07-bf90-bdc048521798)
  )
  (fp_text user "${REFERENCE}" (at 0 0) (layer "F.Fab")
      (effects (font (size 0.4 0.4) (thickness 0.06)))
    (tstamp 2efc1776-c702-46b4-b331-c60519a4ca83)
  )
  (fp_line (start 0 -1.56) (end -1.8 -1.56)
    (stroke (width 0.12) (type solid)) (layer "F.SilkS") (tstamp 55112ab5-2a6c-4a63-98f1-51edbd43bcea))
  (fp_line (start 0 -1.56) (end 0.8 -1.56)
    (stroke (width 0.12) (type solid)) (layer "F.SilkS") (tstamp 8d64a99d-fb77-4cbe-811a-d84162fcafbd))
  (fp_line (start 0 1.56) (end -0.8 1.56)
    (stroke (width 0.12) (type solid)) (layer "F.SilkS") (tstamp aa30e473-c866-4b4f-88d4-a3e8df8aaf74))
  (fp_line (start 0 1.56) (end 0.8 1.56)
    (stroke (width 0.12) (type solid)) (layer "F.SilkS") (tstamp 258a5a0f-64c8-452b-ae8c-ff6ff6d949c8))
  (fp_line (start -2.05 -1.7) (end -2.05 1.7)
    (stroke (width 0.05) (type solid)) (layer "F.CrtYd") (tstamp 9e072a9c-3481-4703-9603-b7a50fdfc4e2))
  (fp_line (start -2.05 1.7) (end 2.05 1.7)
    (stroke (width 0.05) (type solid)) (layer "F.CrtYd") (tstamp 6ea9f584-89a4-4d60-9c25-a60da9afaf5d))
  (fp_line (start 2.05 -1.7) (end -2.05 -1.7)
    (stroke (width 0.05) (type solid)) (layer "F.CrtYd") (tstamp 23d418ee-1327-44f8-904c-08d9d941f567))
  (fp_line (start 2.05 1.7) (end 2.05 -1.7)
    (stroke (width 0.05) (type solid)) (layer "F.CrtYd") (tstamp a64db573-3c25-4935-bb67-c62c6513e0f6))
  (fp_line (start -0.8 -1.05) (end -0.4 -1.45)
    (stroke (width 0.1) (type solid)) (layer "F.Fab") (tstamp 3223c662-94aa-4a9b-9984-d75a3f2b6f36))
  (fp_line (start -0.8 1.45) (end -0.8 -1.05)
    (stroke (width 0.1) (type solid)) (layer "F.Fab") (tstamp 36c145e7-280e-425f-bb3e-e210363e414e))
  (fp_line (start -0.4 -1.45) (end 0.8 -1.45)
    (stroke (width 0.1) (type solid)) (layer "F.Fab") (tstamp 687dced6-93fb-4555-8952-f14fee1cd01a))
  (fp_line (start 0.8 -1.45) (end 0.8 1.45)
    (stroke (width 0.1) (type solid)) (layer "F.Fab") (tstamp 668ff9f0-4228-45f1-84f5-ab438990d18c))
  (fp_line (start 0.8 1.45) (end -0.8 1.45)
    (stroke (width 0.1) (type solid)) (layer "F.Fab") (tstamp 58922652-1507-4086-8910-b0389b2c142c))
  (pad "1" smd roundrect (at -1.1375 -0.95) (size 1.325 0.6) (layers "F.Cu" "F.Paste" "F.Mask") (roundrect_rratio 0.25) (tstamp b8925c87-9f68-4593-bbbf-475f5111b5a5))
  (pad "2" smd roundrect (at -1.1375 0) (size 1.325 0.6) (layers "F.Cu" "F.Paste" "F.Mask") (roundrect_rratio 0.25) (tstamp 859c8dfd-e04c-4855-8d65-d6263c0dc560))
  (pad "3" smd roundrect (at -1.1375 0.95) (size 1.325 0.6) (layers "F.Cu" "F.Paste" "F.Mask") (roundrect_rratio 0.25) (tstamp 55c51ffc-724d-4df0-8191-a5e76a439fa2))
  (pad "4" smd roundrect (at 1.1375 0.95) (size 1.325 0.6) (layers "F.Cu" "F.Paste" "F.Mask") (roundrect_rratio 0.25) (tstamp 127f06ba-2020-45e3-948c-eae75d2db71d))
  (pad "5" smd roundrect (at 1.1375 0) (size 1.325 0.6) (layers "F.Cu" "F.Paste" "F.Mask") (roundrect_rratio 0.25) (tstamp b9953b0b-184d-4dc6-b743-5ccf3259e050))
  (pad "6" smd roundrect (at 1.1375 -0.95) (size 1.325 0.6) (layers "F.Cu" "F.Paste" "F.Mask") (roundrect_rratio 0.25) (tstamp 5d451ef9-135a-4c4d-a355-f175550b1839))
  (model "${KICAD6_3DMODEL_DIR}/Package_TO_SOT_SMD.3dshapes/SOT-23-6.wrl"
    (offset (xyz 0 0 0))
    (scale (xyz 1 1 1))
    (rotate (xyz 0 0 0))
  )
)
