(kicad_sch (version 20230121) (generator eeschema)

  (uuid 2b851cc1-0e27-4943-8063-a025da703caa)

  (paper "A4")

  (lib_symbols
    (symbol "Diode:SM4007" (pin_numbers hide) (pin_names (offset 1.016) hide) (in_bom yes) (on_board yes)
      (property "Reference" "D" (at 0 2.54 0)
        (effects (font (size 1.27 1.27)))
      )
      (property "Value" "SM4007" (at 0 -2.54 0)
        (effects (font (size 1.27 1.27)))
      )
      (property "Footprint" "Diode_SMD:D_MELF" (at 0 -4.445 0)
        (effects (font (size 1.27 1.27)) hide)
      )
      (property "Datasheet" "http://cdn-reichelt.de/documents/datenblatt/A400/SMD1N400%23DIO.pdf" (at 0 0 0)
        (effects (font (size 1.27 1.27)) hide)
      )
      (property "ki_keywords" "diode" (at 0 0 0)
        (effects (font (size 1.27 1.27)) hide)
      )
      (property "ki_description" "1000V 1A General Purpose Rectifier Diode, MELF" (at 0 0 0)
        (effects (font (size 1.27 1.27)) hide)
      )
      (symbol "SM4007_0_1"
        (polyline
          (pts
            (xy -1.27 1.27)
            (xy -1.27 -1.27)
          )
          (stroke (width 0.254) (type default))
          (fill (type none))
        )
        (polyline
          (pts
            (xy 1.27 0)
            (xy -1.27 0)
          )
          (stroke (width 0) (type default))
          (fill (type none))
        )
        (polyline
          (pts
            (xy 1.27 1.27)
            (xy 1.27 -1.27)
            (xy -1.27 0)
            (xy 1.27 1.27)
          )
          (stroke (width 0.254) (type default))
          (fill (type none))
        )
      )
      (symbol "SM4007_1_1"
        (pin passive line (at -3.81 0 0) (length 2.54)
          (name "K" (effects (font (size 1.27 1.27))))
          (number "1" (effects (font (size 1.27 1.27))))
        )
        (pin passive line (at 3.81 0 180) (length 2.54)
          (name "A" (effects (font (size 1.27 1.27))))
          (number "2" (effects (font (size 1.27 1.27))))
        )
      )
    )
    (symbol "filmcaps_tht:100n(X2-104K-275VAC)" (pin_numbers hide) (pin_names (offset 0.254) hide) (in_bom yes) (on_board yes)
      (property "Reference" "C2" (at 2.337 1.168 0)
        (effects (font (size 1.27 1.27)) (justify left))
      )
      (property "Value" "100n(X2-104K-275VAC)" (at -7.62 7.62 0)
        (effects (font (size 1.27 1.27)) (justify left))
      )
      (property "Footprint" "Capacitor_THT:C_Rect_L13.0mm_W6.0mm_P10.00mm_FKS3_FKP3_MKS4" (at -2.54 0 90)
        (effects (font (size 1.27 1.27)) hide)
      )
      (property "Datasheet" "https://datasheet.lcsc.com/lcsc/2304140030_NDF-X2-104K-275VAC_C914483.pdf" (at 0 0 0)
        (effects (font (size 1.27 1.27)) hide)
      )
      (property "LCSC" "C914483" (at 0 0 0)
        (effects (font (size 1.27 1.27)) hide)
      )
      (property "ki_description" " 100nF ±10% X2 275V Plugin,P=10mm Suppression Capacitors ROHS " (at 0 0 0)
        (effects (font (size 1.27 1.27)) hide)
      )
      (property "ki_fp_filters" "C_*" (at 0 0 0)
        (effects (font (size 1.27 1.27)) hide)
      )
      (symbol "100n(X2-104K-275VAC)_0_1"
        (polyline
          (pts
            (xy -1.524 -0.508)
            (xy 1.524 -0.508)
          )
          (stroke (width 0.3302) (type default))
          (fill (type none))
        )
        (polyline
          (pts
            (xy -1.524 0.508)
            (xy 1.524 0.508)
          )
          (stroke (width 0.3048) (type default))
          (fill (type none))
        )
      )
      (symbol "100n(X2-104K-275VAC)_1_1"
        (pin passive line (at 0 2.54 270) (length 2.032)
          (name "~" (effects (font (size 1.27 1.27))))
          (number "1" (effects (font (size 1.27 1.27))))
        )
        (pin passive line (at 0 -2.54 90) (length 2.032)
          (name "~" (effects (font (size 1.27 1.27))))
          (number "2" (effects (font (size 1.27 1.27))))
        )
      )
    )
    (symbol "inductor:470u_4030_230mA(FNR4030S471MT)" (pin_numbers hide) (pin_names (offset 0.254) hide) (in_bom yes) (on_board yes)
      (property "Reference" "L" (at 1.27 1.016 0)
        (effects (font (size 1.27 1.27)) (justify left))
      )
      (property "Value" "470u_4030_230mA(FNR4030S471MT)" (at 1.27 -1.27 0)
        (effects (font (size 1.27 1.27)) (justify left))
      )
      (property "Footprint" "inductors:SunlordSWPA4030" (at 0 0 0)
        (effects (font (size 1.27 1.27)) hide)
      )
      (property "Datasheet" "https://datasheet.lcsc.com/lcsc/2304140030_cjiang--Changjiang-Microelectronics-Tech-FNR4030S471MT_C167901.pdf" (at 0 0 0)
        (effects (font (size 1.27 1.27)) hide)
      )
      (property "LCSC" "C167901." (at 0 0 0)
        (effects (font (size 1.27 1.27)) hide)
      )
      (property "PriceReel" "0.0251" (at 0 0 0)
        (effects (font (size 1.27 1.27)) hide)
      )
      (property "QtyReel" "2000" (at 0 0 0)
        (effects (font (size 1.27 1.27)) hide)
      )
      (property "ki_keywords" "inductor choke coil reactor magnetic" (at 0 0 0)
        (effects (font (size 1.27 1.27)) hide)
      )
      (property "ki_description" "0.49A 100uH ±20% 0.73A SMD,4x4mm  Power Inductors ROHS" (at 0 0 0)
        (effects (font (size 1.27 1.27)) hide)
      )
      (property "ki_fp_filters" "Choke_* *Coil* Inductor_* L_*" (at 0 0 0)
        (effects (font (size 1.27 1.27)) hide)
      )
      (symbol "470u_4030_230mA(FNR4030S471MT)_0_1"
        (arc (start 0 -2.032) (mid 0.5058 -1.524) (end 0 -1.016)
          (stroke (width 0) (type default))
          (fill (type none))
        )
        (arc (start 0 -1.016) (mid 0.5058 -0.508) (end 0 0)
          (stroke (width 0) (type default))
          (fill (type none))
        )
        (polyline
          (pts
            (xy 0.762 -1.905)
            (xy 0.762 -1.651)
          )
          (stroke (width 0) (type default))
          (fill (type none))
        )
        (polyline
          (pts
            (xy 0.762 -1.397)
            (xy 0.762 -1.143)
          )
          (stroke (width 0) (type default))
          (fill (type none))
        )
        (polyline
          (pts
            (xy 0.762 -0.889)
            (xy 0.762 -0.635)
          )
          (stroke (width 0) (type default))
          (fill (type none))
        )
        (polyline
          (pts
            (xy 0.762 -0.381)
            (xy 0.762 -0.127)
          )
          (stroke (width 0) (type default))
          (fill (type none))
        )
        (polyline
          (pts
            (xy 0.762 0.127)
            (xy 0.762 0.381)
          )
          (stroke (width 0) (type default))
          (fill (type none))
        )
        (polyline
          (pts
            (xy 0.762 0.635)
            (xy 0.762 0.889)
          )
          (stroke (width 0) (type default))
          (fill (type none))
        )
        (polyline
          (pts
            (xy 0.762 1.143)
            (xy 0.762 1.397)
          )
          (stroke (width 0) (type default))
          (fill (type none))
        )
        (polyline
          (pts
            (xy 0.762 1.651)
            (xy 0.762 1.905)
          )
          (stroke (width 0) (type default))
          (fill (type none))
        )
        (polyline
          (pts
            (xy 1.016 -1.651)
            (xy 1.016 -1.905)
          )
          (stroke (width 0) (type default))
          (fill (type none))
        )
        (polyline
          (pts
            (xy 1.016 -1.143)
            (xy 1.016 -1.397)
          )
          (stroke (width 0) (type default))
          (fill (type none))
        )
        (polyline
          (pts
            (xy 1.016 -0.635)
            (xy 1.016 -0.889)
          )
          (stroke (width 0) (type default))
          (fill (type none))
        )
        (polyline
          (pts
            (xy 1.016 -0.127)
            (xy 1.016 -0.381)
          )
          (stroke (width 0) (type default))
          (fill (type none))
        )
        (polyline
          (pts
            (xy 1.016 0.381)
            (xy 1.016 0.127)
          )
          (stroke (width 0) (type default))
          (fill (type none))
        )
        (polyline
          (pts
            (xy 1.016 0.889)
            (xy 1.016 0.635)
          )
          (stroke (width 0) (type default))
          (fill (type none))
        )
        (polyline
          (pts
            (xy 1.016 1.397)
            (xy 1.016 1.143)
          )
          (stroke (width 0) (type default))
          (fill (type none))
        )
        (polyline
          (pts
            (xy 1.016 1.905)
            (xy 1.016 1.651)
          )
          (stroke (width 0) (type default))
          (fill (type none))
        )
        (arc (start 0 0) (mid 0.5058 0.508) (end 0 1.016)
          (stroke (width 0) (type default))
          (fill (type none))
        )
        (arc (start 0 1.016) (mid 0.5058 1.524) (end 0 2.032)
          (stroke (width 0) (type default))
          (fill (type none))
        )
      )
      (symbol "470u_4030_230mA(FNR4030S471MT)_1_1"
        (pin passive line (at 0 2.54 270) (length 0.508)
          (name "~" (effects (font (size 1.27 1.27))))
          (number "1" (effects (font (size 1.27 1.27))))
        )
        (pin passive line (at 0 -2.54 90) (length 0.508)
          (name "~" (effects (font (size 1.27 1.27))))
          (number "2" (effects (font (size 1.27 1.27))))
        )
      )
    )
    (symbol "resistor_smd_standard:1k_1206" (pin_numbers hide) (pin_names (offset 0.254) hide) (in_bom yes) (on_board yes)
      (property "Reference" "R" (at 1.27 1.27 0)
        (effects (font (size 1.27 1.27)) (justify left))
      )
      (property "Value" "1k_1206" (at 1.27 0 0)
        (effects (font (size 0.7 0.7)) (justify left))
      )
      (property "Footprint" "Resistor_SMD:R_1206_3216Metric" (at 0.635 -3.175 0)
        (effects (font (size 1.27 1.27)) hide)
      )
      (property "Datasheet" "https://datasheet.lcsc.com/lcsc/2110251730_UNI-ROYAL-Uniroyal-Elec-1206W4F1001T5_C4410.pdf" (at 0 -3.175 0)
        (effects (font (size 1.27 1.27)) hide)
      )
      (property "LCSC" "C4410" (at 0.635 -3.175 0)
        (effects (font (size 1.27 1.27)) hide)
      )
      (property "Tollerance" "1%" (at 1.905 -1.27 0)
        (effects (font (size 0.7 0.7)) hide)
      )
      (property "Voltage" "200V" (at 3.81 -1.27 0)
        (effects (font (size 0.7 0.7)) hide)
      )
      (property "ki_keywords" "1k 1206 1%" (at 0 0 0)
        (effects (font (size 1.27 1.27)) hide)
      )
      (property "ki_description" "±1% 1/4W Thick Film Resistors 200V -55℃~+155℃ 1kΩ 1206 Chip Resistor - Surface Mount ROHS" (at 0 0 0)
        (effects (font (size 1.27 1.27)) hide)
      )
      (property "ki_fp_filters" "R_*" (at 0 0 0)
        (effects (font (size 1.27 1.27)) hide)
      )
      (symbol "1k_1206_0_1"
        (rectangle (start -0.762 1.778) (end 0.762 -1.778)
          (stroke (width 0.2032) (type default))
          (fill (type none))
        )
      )
      (symbol "1k_1206_1_1"
        (pin passive line (at 0 2.54 270) (length 0.762)
          (name "~" (effects (font (size 1.27 1.27))))
          (number "1" (effects (font (size 1.27 1.27))))
        )
        (pin passive line (at 0 -2.54 90) (length 0.762)
          (name "~" (effects (font (size 1.27 1.27))))
          (number "2" (effects (font (size 1.27 1.27))))
        )
      )
    )
  )

  (junction (at 189.23 59.055) (diameter 0) (color 0 0 0 0)
    (uuid 11c217ea-c937-4add-bf3b-db7b1963b71f)
  )
  (junction (at 189.23 60.325) (diameter 0) (color 0 0 0 0)
    (uuid 647e8fcf-6d74-43f5-95a5-55b8c2d9b477)
  )
  (junction (at 222.25 59.055) (diameter 0) (color 0 0 0 0)
    (uuid 769a2cbb-e0e4-473e-9a71-6785b1571b9b)
  )
  (junction (at 189.23 88.265) (diameter 0) (color 0 0 0 0)
    (uuid 8e082fbe-df76-426b-a704-bb2943c3bc67)
  )
  (junction (at 189.23 80.645) (diameter 0) (color 0 0 0 0)
    (uuid 9f428f08-2566-49b3-938c-916a6edb0e46)
  )
  (junction (at 142.24 80.645) (diameter 0) (color 0 0 0 0)
    (uuid bd00b729-8cfb-4169-8052-d0f2d2e0fbc4)
  )
  (junction (at 142.24 69.215) (diameter 0) (color 0 0 0 0)
    (uuid c4166a35-a0d7-481c-91ff-6e1a5a7e769e)
  )
  (junction (at 175.26 69.215) (diameter 0) (color 0 0 0 0)
    (uuid d465f867-7b31-4691-81fb-60a437b801b6)
  )

  (wire (pts (xy 189.23 88.265) (xy 234.95 88.265))
    (stroke (width 0) (type default))
    (uuid 2012c390-fd4d-4fc6-8c3d-2c5a0a92a3df)
  )
  (wire (pts (xy 207.645 55.88) (xy 189.23 55.88))
    (stroke (width 0) (type default))
    (uuid 2ab3b698-1866-43b7-94eb-df05bf1f922f)
  )
  (wire (pts (xy 176.53 79.375) (xy 176.53 80.645))
    (stroke (width 0) (type default))
    (uuid 2ac0e2c2-652c-4271-8376-4afae1a50a6b)
  )
  (wire (pts (xy 175.26 69.215) (xy 175.26 80.645))
    (stroke (width 0) (type default))
    (uuid 3a77f129-20c1-4243-b611-fc7ed74786c8)
  )
  (wire (pts (xy 175.26 60.325) (xy 189.23 60.325))
    (stroke (width 0) (type default))
    (uuid 3de15f60-e354-44c7-af8c-4a6484f22817)
  )
  (wire (pts (xy 175.26 88.265) (xy 189.23 88.265))
    (stroke (width 0) (type default))
    (uuid 46725fc5-f38c-413a-9b28-a3d0e444a8a2)
  )
  (wire (pts (xy 173.99 80.645) (xy 173.99 79.375))
    (stroke (width 0) (type default))
    (uuid 4a3a4f55-7252-4517-8f14-4b2381e07522)
  )
  (wire (pts (xy 142.24 69.215) (xy 175.26 69.215))
    (stroke (width 0) (type default))
    (uuid 4ff3a833-34ff-41cb-9dac-79f9e8e33201)
  )
  (wire (pts (xy 142.24 80.645) (xy 173.99 80.645))
    (stroke (width 0) (type default))
    (uuid 52317464-f449-471d-86a2-244b56eff492)
  )
  (wire (pts (xy 201.295 59.055) (xy 189.23 59.055))
    (stroke (width 0) (type default))
    (uuid 602c16b1-a596-4473-8dd0-a82a192a0962)
  )
  (wire (pts (xy 142.24 71.755) (xy 142.24 69.215))
    (stroke (width 0) (type default))
    (uuid 69529063-afda-45a1-b447-4e72550ec720)
  )
  (wire (pts (xy 142.24 80.645) (xy 142.24 76.835))
    (stroke (width 0) (type default))
    (uuid 6c259d2f-c262-4fc9-889e-0426847f37fb)
  )
  (wire (pts (xy 189.23 55.88) (xy 189.23 59.055))
    (stroke (width 0) (type default))
    (uuid 6c5507df-2226-4278-9817-5d2e952f231c)
  )
  (wire (pts (xy 176.53 80.645) (xy 189.23 80.645))
    (stroke (width 0) (type default))
    (uuid 6d002c19-e4b1-45e8-91be-d79de1fe8481)
  )
  (wire (pts (xy 189.23 59.055) (xy 189.23 60.325))
    (stroke (width 0) (type default))
    (uuid 7874379b-4ab3-48e3-8455-9bc4a2033467)
  )
  (wire (pts (xy 222.25 55.88) (xy 212.725 55.88))
    (stroke (width 0) (type default))
    (uuid 824c5e08-bfe5-4127-8c44-abdb4816ced0)
  )
  (wire (pts (xy 206.375 59.055) (xy 212.09 59.055))
    (stroke (width 0) (type default))
    (uuid 8b161db5-f1eb-4ebc-9436-746257b20929)
  )
  (wire (pts (xy 222.25 59.055) (xy 222.25 55.88))
    (stroke (width 0) (type default))
    (uuid bf454cc4-e809-407b-bb0e-9b2d5bd24ed6)
  )
  (wire (pts (xy 222.25 59.055) (xy 234.95 59.055))
    (stroke (width 0) (type default))
    (uuid c236943b-35c4-4ac2-b99c-567192c25b0f)
  )
  (wire (pts (xy 175.26 67.945) (xy 175.26 69.215))
    (stroke (width 0) (type default))
    (uuid c326cc77-7096-4ae9-a432-5132ddbe495e)
  )
  (wire (pts (xy 217.17 59.055) (xy 222.25 59.055))
    (stroke (width 0) (type default))
    (uuid dc972cf3-2e95-4289-a9d5-63df4f731f1e)
  )
  (wire (pts (xy 139.7 80.645) (xy 142.24 80.645))
    (stroke (width 0) (type default))
    (uuid e3215880-bc1b-41c2-8be8-7d2c7666d22d)
  )
  (wire (pts (xy 189.23 67.945) (xy 189.23 80.645))
    (stroke (width 0) (type default))
    (uuid ec323415-5284-4cdf-af6b-6b136a6cd83e)
  )
  (wire (pts (xy 139.7 69.215) (xy 142.24 69.215))
    (stroke (width 0) (type default))
    (uuid f383b418-ebea-4749-ad71-7adc52be27db)
  )
  (wire (pts (xy 173.99 79.375) (xy 176.53 79.375))
    (stroke (width 0) (type default))
    (uuid f922a601-bc33-43f9-a28d-370d9112937a)
  )

  (label "D+" (at 180.975 60.325 0) (fields_autoplaced)
    (effects (font (size 1.27 1.27)) (justify left bottom))
    (uuid 1881628e-a094-4b34-a0c0-2ac7f9fc62b6)
  )
  (label "DR+" (at 207.645 59.055 0) (fields_autoplaced)
    (effects (font (size 1.27 1.27)) (justify left bottom))
    (uuid 7b72c732-49f8-4f69-b33d-97c63069bf57)
  )

  (hierarchical_label "DC+" (shape output) (at 234.95 59.055 0) (fields_autoplaced)
    (effects (font (size 1.27 1.27)) (justify left))
    (uuid 11a1bb04-5525-461b-aced-219d3cd9596f)
  )
  (hierarchical_label "DC-" (shape output) (at 234.95 88.265 0) (fields_autoplaced)
    (effects (font (size 1.27 1.27)) (justify left))
    (uuid 5116afb8-abe4-4030-80d5-8b4b757d7c32)
  )
  (hierarchical_label "AC2" (shape input) (at 139.7 80.645 180) (fields_autoplaced)
    (effects (font (size 1.27 1.27)) (justify right))
    (uuid 73e72dd4-538e-4cad-9881-0a1c674fc67a)
  )
  (hierarchical_label "AC1" (shape input) (at 139.7 69.215 180) (fields_autoplaced)
    (effects (font (size 1.27 1.27)) (justify right))
    (uuid de1df6eb-399f-458d-b6ee-7442059e5d69)
  )

  (symbol (lib_id "Diode:SM4007") (at 189.23 64.135 270) (unit 1)
    (in_bom yes) (on_board yes) (dnp no)
    (uuid 06192d57-6652-45a6-999c-6aeaa8aed06b)
    (property "Reference" "D2" (at 192.532 62.611 90)
      (effects (font (size 1.27 1.27)) (justify left))
    )
    (property "Value" "SM4007PL" (at 191.262 65.151 90)
      (effects (font (size 1.27 1.27)) (justify left))
    )
    (property "Footprint" "Diode_SMD:D_SOD-123F" (at 184.785 64.135 0)
      (effects (font (size 1.27 1.27)) hide)
    )
    (property "Datasheet" "https://lcsc.com/product-detail/Diodes-General-Purpose_MDD-Microdiode-Electronics-SM4007PL_C64898.html/?href=jlc-SMT" (at 189.23 64.135 0)
      (effects (font (size 1.27 1.27)) hide)
    )
    (property "LCSC" "C64898" (at 189.23 64.135 0)
      (effects (font (size 1.27 1.27)) hide)
    )
    (pin "1" (uuid bd9b7905-080b-4e8b-b0da-9f17ef86c503))
    (pin "2" (uuid 7484a92a-e28c-4a70-9c1f-9242aefc55be))
    (instances
      (project "GPS-Flyback"
        (path "/74b7e389-9be2-47ce-b23b-8a8c3d2c4963/8eed36f5-8d36-4981-95c5-4bb4e5db4bec"
          (reference "D2") (unit 1)
        )
      )
      (project "auxsupply"
        (path "/a29a2a17-db50-47bf-8d31-0e3d0d487483/1acbe26f-541b-45a3-9ef4-0d8ac83245dd"
          (reference "D503") (unit 1)
        )
      )
      (project "PrimarySide"
        (path "/f4eb0267-179f-46c9-b516-9bfb06bac1ba"
          (reference "D1") (unit 1)
        )
      )
    )
  )

  (symbol (lib_id "resistor_smd_standard:1k_1206") (at 203.835 59.055 270) (unit 1)
    (in_bom yes) (on_board yes) (dnp no) (fields_autoplaced)
    (uuid 147f1951-dddc-4224-a176-8f958626b417)
    (property "Reference" "R501" (at 203.835 62.23 90)
      (effects (font (size 1.27 1.27)))
    )
    (property "Value" "1k_1206" (at 203.835 63.5 90)
      (effects (font (size 0.7 0.7)))
    )
    (property "Footprint" "Resistor_SMD:R_1206_3216Metric" (at 200.66 59.69 0)
      (effects (font (size 1.27 1.27)) hide)
    )
    (property "Datasheet" "https://datasheet.lcsc.com/lcsc/2110251730_UNI-ROYAL-Uniroyal-Elec-1206W4F1001T5_C4410.pdf" (at 200.66 59.055 0)
      (effects (font (size 1.27 1.27)) hide)
    )
    (property "LCSC" "C4410" (at 200.66 59.69 0)
      (effects (font (size 1.27 1.27)) hide)
    )
    (property "Tollerance" "1%" (at 202.565 60.96 0)
      (effects (font (size 0.7 0.7)) hide)
    )
    (property "Voltage" "200V" (at 202.565 62.865 0)
      (effects (font (size 0.7 0.7)) hide)
    )
    (pin "1" (uuid 6fdaaa3a-c293-44ed-bbb0-cf4072c36027))
    (pin "2" (uuid 9cbd8ca1-68f5-46a6-ae13-e7bbea34d090))
    (instances
      (project "auxsupply"
        (path "/a29a2a17-db50-47bf-8d31-0e3d0d487483/1acbe26f-541b-45a3-9ef4-0d8ac83245dd"
          (reference "R501") (unit 1)
        )
      )
    )
  )

  (symbol (lib_id "Diode:SM4007") (at 175.26 64.135 270) (unit 1)
    (in_bom yes) (on_board yes) (dnp no)
    (uuid 222309a5-8313-40ae-9964-344f9934633d)
    (property "Reference" "D1" (at 178.562 62.611 90)
      (effects (font (size 1.27 1.27)) (justify left))
    )
    (property "Value" "SM4007PL" (at 177.292 65.151 90)
      (effects (font (size 1.27 1.27)) (justify left))
    )
    (property "Footprint" "Diode_SMD:D_SOD-123F" (at 170.815 64.135 0)
      (effects (font (size 1.27 1.27)) hide)
    )
    (property "Datasheet" "https://lcsc.com/product-detail/Diodes-General-Purpose_MDD-Microdiode-Electronics-SM4007PL_C64898.html/?href=jlc-SMT" (at 175.26 64.135 0)
      (effects (font (size 1.27 1.27)) hide)
    )
    (property "LCSC" "C64898" (at 175.26 64.135 0)
      (effects (font (size 1.27 1.27)) hide)
    )
    (pin "1" (uuid a19e0193-0587-4d5d-baee-a3e4f2db4c3f))
    (pin "2" (uuid 99f1bbce-c74a-4499-a630-adbb7be2cb41))
    (instances
      (project "GPS-Flyback"
        (path "/74b7e389-9be2-47ce-b23b-8a8c3d2c4963/8eed36f5-8d36-4981-95c5-4bb4e5db4bec"
          (reference "D1") (unit 1)
        )
      )
      (project "auxsupply"
        (path "/a29a2a17-db50-47bf-8d31-0e3d0d487483/1acbe26f-541b-45a3-9ef4-0d8ac83245dd"
          (reference "D501") (unit 1)
        )
      )
      (project "PrimarySide"
        (path "/f4eb0267-179f-46c9-b516-9bfb06bac1ba"
          (reference "D1") (unit 1)
        )
      )
    )
  )

  (symbol (lib_id "inductor:470u_4030_230mA(FNR4030S471MT)") (at 210.185 55.88 90) (unit 1)
    (in_bom yes) (on_board yes) (dnp no) (fields_autoplaced)
    (uuid 2315e62f-4fff-46bd-bf35-faa682f0818e)
    (property "Reference" "L502" (at 210.185 50.165 90)
      (effects (font (size 1.27 1.27)))
    )
    (property "Value" "470u_4030_230mA(FNR4030S471MT)" (at 210.185 52.705 90)
      (effects (font (size 1.27 1.27)))
    )
    (property "Footprint" "inductors:SunlordSWPA4030" (at 210.185 55.88 0)
      (effects (font (size 1.27 1.27)) hide)
    )
    (property "Datasheet" "https://datasheet.lcsc.com/lcsc/2304140030_cjiang--Changjiang-Microelectronics-Tech-FNR4030S471MT_C167901.pdf" (at 210.185 55.88 0)
      (effects (font (size 1.27 1.27)) hide)
    )
    (property "LCSC" "C167901." (at 210.185 55.88 0)
      (effects (font (size 1.27 1.27)) hide)
    )
    (property "PriceReel" "0.0251" (at 210.185 55.88 0)
      (effects (font (size 1.27 1.27)) hide)
    )
    (property "QtyReel" "2000" (at 210.185 55.88 0)
      (effects (font (size 1.27 1.27)) hide)
    )
    (pin "1" (uuid 1a079dc4-8023-4e24-88fc-a0712f17c1e0))
    (pin "2" (uuid 6ec883cc-ddbb-4781-9824-f59909cfff79))
    (instances
      (project "auxsupply"
        (path "/a29a2a17-db50-47bf-8d31-0e3d0d487483/1acbe26f-541b-45a3-9ef4-0d8ac83245dd"
          (reference "L502") (unit 1)
        )
      )
    )
  )

  (symbol (lib_id "filmcaps_tht:100n(X2-104K-275VAC)") (at 142.24 74.295 0) (unit 1)
    (in_bom yes) (on_board yes) (dnp no) (fields_autoplaced)
    (uuid 36889d8b-f210-480d-ab33-6d7e342f240e)
    (property "Reference" "C501" (at 145.415 73.0313 0)
      (effects (font (size 1.27 1.27)) (justify left))
    )
    (property "Value" "100n(X2-104K-275VAC)" (at 145.415 75.5713 0)
      (effects (font (size 1.27 1.27)) (justify left))
    )
    (property "Footprint" "Capacitor_THT:C_Rect_L13.0mm_W6.0mm_P10.00mm_FKS3_FKP3_MKS4" (at 139.7 74.295 90)
      (effects (font (size 1.27 1.27)) hide)
    )
    (property "Datasheet" "https://datasheet.lcsc.com/lcsc/2304140030_NDF-X2-104K-275VAC_C914483.pdf" (at 142.24 74.295 0)
      (effects (font (size 1.27 1.27)) hide)
    )
    (property "LCSC" "C914483" (at 142.24 74.295 0)
      (effects (font (size 1.27 1.27)) hide)
    )
    (pin "1" (uuid cb309094-51d4-44a0-810e-627758a8d758))
    (pin "2" (uuid 61b57e6d-6046-4c14-9d1d-b6f50a9c93ad))
    (instances
      (project "auxsupply"
        (path "/a29a2a17-db50-47bf-8d31-0e3d0d487483/1acbe26f-541b-45a3-9ef4-0d8ac83245dd"
          (reference "C501") (unit 1)
        )
      )
    )
  )

  (symbol (lib_id "Diode:SM4007") (at 175.26 84.455 270) (unit 1)
    (in_bom yes) (on_board yes) (dnp no)
    (uuid 805c86c2-ae8c-4e14-82e6-6f40560d6916)
    (property "Reference" "D3" (at 178.562 82.931 90)
      (effects (font (size 1.27 1.27)) (justify left))
    )
    (property "Value" "SM4007PL" (at 177.292 85.471 90)
      (effects (font (size 1.27 1.27)) (justify left))
    )
    (property "Footprint" "Diode_SMD:D_SOD-123F" (at 170.815 84.455 0)
      (effects (font (size 1.27 1.27)) hide)
    )
    (property "Datasheet" "https://lcsc.com/product-detail/Diodes-General-Purpose_MDD-Microdiode-Electronics-SM4007PL_C64898.html/?href=jlc-SMT" (at 175.26 84.455 0)
      (effects (font (size 1.27 1.27)) hide)
    )
    (property "LCSC" "C64898" (at 175.26 84.455 0)
      (effects (font (size 1.27 1.27)) hide)
    )
    (pin "1" (uuid 14d5af3d-084b-4798-b648-1d873a2bf6ea))
    (pin "2" (uuid 09d6a8d1-0a7e-48cd-8231-edbdebd654e9))
    (instances
      (project "GPS-Flyback"
        (path "/74b7e389-9be2-47ce-b23b-8a8c3d2c4963/8eed36f5-8d36-4981-95c5-4bb4e5db4bec"
          (reference "D3") (unit 1)
        )
      )
      (project "auxsupply"
        (path "/a29a2a17-db50-47bf-8d31-0e3d0d487483/1acbe26f-541b-45a3-9ef4-0d8ac83245dd"
          (reference "D502") (unit 1)
        )
      )
      (project "PrimarySide"
        (path "/f4eb0267-179f-46c9-b516-9bfb06bac1ba"
          (reference "D1") (unit 1)
        )
      )
    )
  )

  (symbol (lib_id "Diode:SM4007") (at 189.23 84.455 270) (unit 1)
    (in_bom yes) (on_board yes) (dnp no)
    (uuid 845d7590-6815-422c-b226-4b1754217972)
    (property "Reference" "D4" (at 192.532 82.931 90)
      (effects (font (size 1.27 1.27)) (justify left))
    )
    (property "Value" "SM4007PL" (at 191.262 85.471 90)
      (effects (font (size 1.27 1.27)) (justify left))
    )
    (property "Footprint" "Diode_SMD:D_SOD-123F" (at 184.785 84.455 0)
      (effects (font (size 1.27 1.27)) hide)
    )
    (property "Datasheet" "https://lcsc.com/product-detail/Diodes-General-Purpose_MDD-Microdiode-Electronics-SM4007PL_C64898.html/?href=jlc-SMT" (at 189.23 84.455 0)
      (effects (font (size 1.27 1.27)) hide)
    )
    (property "LCSC" "C64898" (at 189.23 84.455 0)
      (effects (font (size 1.27 1.27)) hide)
    )
    (pin "1" (uuid 8a8d2aa2-c82f-495d-b7c4-abb148650b5d))
    (pin "2" (uuid bf0bed03-5e47-4df0-8177-ffed88ca19ec))
    (instances
      (project "GPS-Flyback"
        (path "/74b7e389-9be2-47ce-b23b-8a8c3d2c4963/8eed36f5-8d36-4981-95c5-4bb4e5db4bec"
          (reference "D4") (unit 1)
        )
      )
      (project "auxsupply"
        (path "/a29a2a17-db50-47bf-8d31-0e3d0d487483/1acbe26f-541b-45a3-9ef4-0d8ac83245dd"
          (reference "D504") (unit 1)
        )
      )
      (project "PrimarySide"
        (path "/f4eb0267-179f-46c9-b516-9bfb06bac1ba"
          (reference "D1") (unit 1)
        )
      )
    )
  )

  (symbol (lib_id "resistor_smd_standard:1k_1206") (at 214.63 59.055 270) (unit 1)
    (in_bom yes) (on_board yes) (dnp no) (fields_autoplaced)
    (uuid 8a21a896-ee52-4ffb-a0da-1813d1d782fc)
    (property "Reference" "R502" (at 214.63 62.23 90)
      (effects (font (size 1.27 1.27)))
    )
    (property "Value" "1k_1206" (at 214.63 63.5 90)
      (effects (font (size 0.7 0.7)))
    )
    (property "Footprint" "Resistor_SMD:R_1206_3216Metric" (at 211.455 59.69 0)
      (effects (font (size 1.27 1.27)) hide)
    )
    (property "Datasheet" "https://datasheet.lcsc.com/lcsc/2110251730_UNI-ROYAL-Uniroyal-Elec-1206W4F1001T5_C4410.pdf" (at 211.455 59.055 0)
      (effects (font (size 1.27 1.27)) hide)
    )
    (property "LCSC" "C4410" (at 211.455 59.69 0)
      (effects (font (size 1.27 1.27)) hide)
    )
    (property "Tollerance" "1%" (at 213.36 60.96 0)
      (effects (font (size 0.7 0.7)) hide)
    )
    (property "Voltage" "200V" (at 213.36 62.865 0)
      (effects (font (size 0.7 0.7)) hide)
    )
    (pin "1" (uuid a35c58e8-979d-4608-8f71-83f9a286bf6b))
    (pin "2" (uuid 64d17f36-cab7-4617-98fd-d1a8bd311b7e))
    (instances
      (project "auxsupply"
        (path "/a29a2a17-db50-47bf-8d31-0e3d0d487483/1acbe26f-541b-45a3-9ef4-0d8ac83245dd"
          (reference "R502") (unit 1)
        )
      )
    )
  )
)
