(kicad_sch (version 20230121) (generator eeschema)

  (uuid 3d63d7ef-6d4e-4767-a3b7-04f91fc1c639)

  (paper "A4")

  (lib_symbols
    (symbol "capacitor_smd_extended:10u_0805_X7R_16V" (pin_numbers hide) (pin_names (offset 0.254) hide) (in_bom yes) (on_board yes)
      (property "Reference" "C" (at 0.254 1.778 0)
        (effects (font (size 1.27 1.27)) (justify left))
      )
      (property "Value" "10u_0805_X7R_16V" (at 0.254 -2.032 0)
        (effects (font (size 0.7 0.7)) (justify left))
      )
      (property "Footprint" "Capacitor_SMD:C_0805_2012Metric" (at 0 0 0)
        (effects (font (size 1.27 1.27)) hide)
      )
      (property "Datasheet" "https://datasheet.lcsc.com/lcsc/2304140030_Samsung-Electro-Mechanics-CL31B106KOHNNNE_C47971.pdf" (at 0 0 0)
        (effects (font (size 1.27 1.27)) hide)
      )
      (property "LCSC" "C47971" (at 0 0 0)
        (effects (font (size 1.27 1.27)) hide)
      )
      (property "PriceReel" "0.0133" (at 0 0 0)
        (effects (font (size 1.27 1.27)) hide)
      )
      (property "QtyReel" "3000" (at 0 0 0)
        (effects (font (size 1.27 1.27)) hide)
      )
      (property "ki_keywords" "capacitor cap" (at 0 0 0)
        (effects (font (size 1.27 1.27)) hide)
      )
      (property "ki_description" "10V 10uF ±10% 0805  Multilayer Ceramic Capacitors MLCC - SMD/SMT ROHS" (at 0 0 0)
        (effects (font (size 1.27 1.27)) hide)
      )
      (property "ki_fp_filters" "C_*" (at 0 0 0)
        (effects (font (size 1.27 1.27)) hide)
      )
      (symbol "10u_0805_X7R_16V_0_1"
        (polyline
          (pts
            (xy -1.524 -0.508)
            (xy 1.524 -0.508)
          )
          (stroke (width 0.3302) (type default))
          (fill (type none))
        )
        (polyline
          (pts
            (xy -1.524 0.508)
            (xy 1.524 0.508)
          )
          (stroke (width 0.3048) (type default))
          (fill (type none))
        )
      )
      (symbol "10u_0805_X7R_16V_1_1"
        (pin passive line (at 0 2.54 270) (length 2.032)
          (name "~" (effects (font (size 1.27 1.27))))
          (number "1" (effects (font (size 1.27 1.27))))
        )
        (pin passive line (at 0 -2.54 90) (length 2.032)
          (name "~" (effects (font (size 1.27 1.27))))
          (number "2" (effects (font (size 1.27 1.27))))
        )
      )
    )
    (symbol "capacitor_smd_standard:100n_0402_X7R_50V" (pin_numbers hide) (pin_names (offset 0.254) hide) (in_bom yes) (on_board yes)
      (property "Reference" "C" (at 0.254 1.778 0)
        (effects (font (size 1.27 1.27)) (justify left))
      )
      (property "Value" "100n_0402_X7R_50V" (at 0.254 -2.032 0)
        (effects (font (size 0.7 0.7)) (justify left))
      )
      (property "Footprint" "Capacitor_SMD:C_0402_1005Metric" (at 0 0 0)
        (effects (font (size 1.27 1.27)) hide)
      )
      (property "Datasheet" "https://datasheet.lcsc.com/lcsc/1810191222_Samsung-Electro-Mechanics-CL05B104KB54PNC_C307331.pdf" (at 0 0 0)
        (effects (font (size 1.27 1.27)) hide)
      )
      (property "LCSC" "C307331" (at 0 0 0)
        (effects (font (size 1.27 1.27)) hide)
      )
      (property "ki_keywords" "capacitor cap" (at 0 0 0)
        (effects (font (size 1.27 1.27)) hide)
      )
      (property "ki_description" "50V 100nF X7R ±10% 0402 Multilayer Ceramic Capacitors MLCC - SMD/SMT ROHS" (at 0 0 0)
        (effects (font (size 1.27 1.27)) hide)
      )
      (property "ki_fp_filters" "C_*" (at 0 0 0)
        (effects (font (size 1.27 1.27)) hide)
      )
      (symbol "100n_0402_X7R_50V_0_1"
        (polyline
          (pts
            (xy -1.524 -0.508)
            (xy 1.524 -0.508)
          )
          (stroke (width 0.3302) (type default))
          (fill (type none))
        )
        (polyline
          (pts
            (xy -1.524 0.508)
            (xy 1.524 0.508)
          )
          (stroke (width 0.3048) (type default))
          (fill (type none))
        )
      )
      (symbol "100n_0402_X7R_50V_1_1"
        (pin passive line (at 0 2.54 270) (length 2.032)
          (name "~" (effects (font (size 1.27 1.27))))
          (number "1" (effects (font (size 1.27 1.27))))
        )
        (pin passive line (at 0 -2.54 90) (length 2.032)
          (name "~" (effects (font (size 1.27 1.27))))
          (number "2" (effects (font (size 1.27 1.27))))
        )
      )
    )
    (symbol "dcdc:MT2492" (in_bom yes) (on_board yes)
      (property "Reference" "U" (at -6.985 10.795 0)
        (effects (font (size 1.27 1.27)))
      )
      (property "Value" "MT2492" (at -4.445 8.89 0)
        (effects (font (size 1.27 1.27)))
      )
      (property "Footprint" "Package_TO_SOT_SMD:SOT-23-6" (at 0 0 0)
        (effects (font (size 1.27 1.27)) hide)
      )
      (property "Datasheet" "https://datasheet.lcsc.com/lcsc/2212101330_XI-AN-Aerosemi-Tech-MT2492_C89358.pdf" (at 0 0 0)
        (effects (font (size 1.27 1.27)) hide)
      )
      (property "LCSC" "C89358" (at 0 0 0)
        (effects (font (size 1.27 1.27)) hide)
      )
      (property "Price1000" "0.0302" (at 0 0 0)
        (effects (font (size 1.27 1.27)) hide)
      )
      (property "QtyReel" "3000" (at 0 0 0)
        (effects (font (size 1.27 1.27)) hide)
      )
      (property "JLCPCB_CORRECTION" "0;0;180;" (at 0 0 0)
        (effects (font (size 1.27 1.27)) hide)
      )
      (property "ki_description" "Step-down type SOT-23-6  DC-DC Converters ROHS" (at 0 0 0)
        (effects (font (size 1.27 1.27)) hide)
      )
      (symbol "MT2492_0_1"
        (rectangle (start -7.62 7.62) (end 7.62 -10.16)
          (stroke (width 0) (type default))
          (fill (type background))
        )
      )
      (symbol "MT2492_1_1"
        (text "16Vmax" (at -6.985 3.175 0)
          (effects (font (size 0.5 0.5)) (justify left))
        )
        (text "above 1.5V to be on,\nno floating" (at -6.985 -3.175 0)
          (effects (font (size 0.5 0.5)) (justify left))
        )
        (text "Vfb=0.6V" (at 5.08 -6.35 0)
          (effects (font (size 0.5 0.5)))
        )
        (pin input line (at 2.54 12.7 270) (length 5.08)
          (name "BS" (effects (font (size 1.27 1.27))))
          (number "1" (effects (font (size 1.27 1.27))))
        )
        (pin input line (at 0 -15.24 90) (length 5.08)
          (name "GND" (effects (font (size 1.27 1.27))))
          (number "2" (effects (font (size 1.27 1.27))))
        )
        (pin input line (at 12.7 -5.08 180) (length 5.08)
          (name "FB" (effects (font (size 1.27 1.27))))
          (number "3" (effects (font (size 1.27 1.27))))
        )
        (pin input line (at -12.7 -5.08 0) (length 5.08)
          (name "EN" (effects (font (size 1.27 1.27))))
          (number "4" (effects (font (size 1.27 1.27))))
        )
        (pin input line (at -12.7 5.08 0) (length 5.08)
          (name "Vin" (effects (font (size 1.27 1.27))))
          (number "5" (effects (font (size 1.27 1.27))))
        )
        (pin input line (at 12.7 5.08 180) (length 5.08)
          (name "SW" (effects (font (size 1.27 1.27))))
          (number "6" (effects (font (size 1.27 1.27))))
        )
      )
    )
    (symbol "inductor:10u_252012_1200mA" (pin_numbers hide) (pin_names (offset 0.254) hide) (in_bom yes) (on_board yes)
      (property "Reference" "L" (at 1.27 1.016 0)
        (effects (font (size 1.27 1.27)) (justify left))
      )
      (property "Value" "FTC252012S100MBCA" (at 1.27 -1.27 0)
        (effects (font (size 1.27 1.27)) (justify left))
      )
      (property "Footprint" "Inductor_SMD:L_Changjiang_FNR252012S" (at 0 0 0)
        (effects (font (size 1.27 1.27)) hide)
      )
      (property "Datasheet" "https://datasheet.lcsc.com/lcsc/2306021632_cjiang--Changjiang-Microelectronics-Tech-FTC252012S100MBCA_C5832376.pdf" (at 0 0 0)
        (effects (font (size 1.27 1.27)) hide)
      )
      (property "LCSC" "C5832376" (at 0 0 0)
        (effects (font (size 1.27 1.27)) hide)
      )
      (property "Description" "1.2A 10uH Molding Choke ±20% 1.6A SMD,2x2.5mm  Power Inductors ROHS" (at 0 0 0)
        (effects (font (size 1.27 1.27)) hide)
      )
      (property "Price1000" "0.0277" (at 0 0 0)
        (effects (font (size 1.27 1.27)) hide)
      )
      (property "ki_keywords" "inductor choke coil reactor magnetic" (at 0 0 0)
        (effects (font (size 1.27 1.27)) hide)
      )
      (property "ki_description" "Inductor with ferrite core, small symbol" (at 0 0 0)
        (effects (font (size 1.27 1.27)) hide)
      )
      (property "ki_fp_filters" "Choke_* *Coil* Inductor_* L_*" (at 0 0 0)
        (effects (font (size 1.27 1.27)) hide)
      )
      (symbol "10u_252012_1200mA_0_1"
        (arc (start 0 -2.032) (mid 0.5058 -1.524) (end 0 -1.016)
          (stroke (width 0) (type default))
          (fill (type none))
        )
        (arc (start 0 -1.016) (mid 0.5058 -0.508) (end 0 0)
          (stroke (width 0) (type default))
          (fill (type none))
        )
        (polyline
          (pts
            (xy 0.762 -1.905)
            (xy 0.762 -1.651)
          )
          (stroke (width 0) (type default))
          (fill (type none))
        )
        (polyline
          (pts
            (xy 0.762 -1.397)
            (xy 0.762 -1.143)
          )
          (stroke (width 0) (type default))
          (fill (type none))
        )
        (polyline
          (pts
            (xy 0.762 -0.889)
            (xy 0.762 -0.635)
          )
          (stroke (width 0) (type default))
          (fill (type none))
        )
        (polyline
          (pts
            (xy 0.762 -0.381)
            (xy 0.762 -0.127)
          )
          (stroke (width 0) (type default))
          (fill (type none))
        )
        (polyline
          (pts
            (xy 0.762 0.127)
            (xy 0.762 0.381)
          )
          (stroke (width 0) (type default))
          (fill (type none))
        )
        (polyline
          (pts
            (xy 0.762 0.635)
            (xy 0.762 0.889)
          )
          (stroke (width 0) (type default))
          (fill (type none))
        )
        (polyline
          (pts
            (xy 0.762 1.143)
            (xy 0.762 1.397)
          )
          (stroke (width 0) (type default))
          (fill (type none))
        )
        (polyline
          (pts
            (xy 0.762 1.651)
            (xy 0.762 1.905)
          )
          (stroke (width 0) (type default))
          (fill (type none))
        )
        (polyline
          (pts
            (xy 1.016 -1.651)
            (xy 1.016 -1.905)
          )
          (stroke (width 0) (type default))
          (fill (type none))
        )
        (polyline
          (pts
            (xy 1.016 -1.143)
            (xy 1.016 -1.397)
          )
          (stroke (width 0) (type default))
          (fill (type none))
        )
        (polyline
          (pts
            (xy 1.016 -0.635)
            (xy 1.016 -0.889)
          )
          (stroke (width 0) (type default))
          (fill (type none))
        )
        (polyline
          (pts
            (xy 1.016 -0.127)
            (xy 1.016 -0.381)
          )
          (stroke (width 0) (type default))
          (fill (type none))
        )
        (polyline
          (pts
            (xy 1.016 0.381)
            (xy 1.016 0.127)
          )
          (stroke (width 0) (type default))
          (fill (type none))
        )
        (polyline
          (pts
            (xy 1.016 0.889)
            (xy 1.016 0.635)
          )
          (stroke (width 0) (type default))
          (fill (type none))
        )
        (polyline
          (pts
            (xy 1.016 1.397)
            (xy 1.016 1.143)
          )
          (stroke (width 0) (type default))
          (fill (type none))
        )
        (polyline
          (pts
            (xy 1.016 1.905)
            (xy 1.016 1.651)
          )
          (stroke (width 0) (type default))
          (fill (type none))
        )
        (arc (start 0 0) (mid 0.5058 0.508) (end 0 1.016)
          (stroke (width 0) (type default))
          (fill (type none))
        )
        (arc (start 0 1.016) (mid 0.5058 1.524) (end 0 2.032)
          (stroke (width 0) (type default))
          (fill (type none))
        )
      )
      (symbol "10u_252012_1200mA_1_1"
        (pin passive line (at 0 2.54 270) (length 0.508)
          (name "~" (effects (font (size 1.27 1.27))))
          (number "1" (effects (font (size 1.27 1.27))))
        )
        (pin passive line (at 0 -2.54 90) (length 0.508)
          (name "~" (effects (font (size 1.27 1.27))))
          (number "2" (effects (font (size 1.27 1.27))))
        )
      )
    )
    (symbol "resistor_smd_standard:1_0805" (pin_numbers hide) (pin_names (offset 0.254) hide) (in_bom yes) (on_board yes)
      (property "Reference" "R" (at 1.27 1.27 0)
        (effects (font (size 1.27 1.27)) (justify left))
      )
      (property "Value" "1_0805" (at 1.27 0 0)
        (effects (font (size 0.7 0.7)) (justify left))
      )
      (property "Footprint" "Resistor_SMD:R_0805_2012Metric" (at 0.635 -3.175 0)
        (effects (font (size 1.27 1.27)) hide)
      )
      (property "Datasheet" "https://datasheet.lcsc.com/lcsc/2110251830_UNI-ROYAL-Uniroyal-Elec-0805W8F510KT5E_C17724.pdf" (at 0 -3.175 0)
        (effects (font (size 1.27 1.27)) hide)
      )
      (property "LCSC" "C25271" (at 0.635 -3.175 0)
        (effects (font (size 1.27 1.27)) hide)
      )
      (property "ki_keywords" "1k 0805" (at 0 0 0)
        (effects (font (size 1.27 1.27)) hide)
      )
      (property "ki_description" "125mW Thick Film Resistors 150V ±1% ±400ppm/℃ -55℃~+155℃ 1Ω 0805  Chip Resistor - Surface Mount ROHS" (at 0 0 0)
        (effects (font (size 1.27 1.27)) hide)
      )
      (property "ki_fp_filters" "R_*" (at 0 0 0)
        (effects (font (size 1.27 1.27)) hide)
      )
      (symbol "1_0805_0_1"
        (rectangle (start -0.762 1.778) (end 0.762 -1.778)
          (stroke (width 0.2032) (type default))
          (fill (type none))
        )
      )
      (symbol "1_0805_1_1"
        (pin passive line (at 0 2.54 270) (length 0.762)
          (name "~" (effects (font (size 1.27 1.27))))
          (number "1" (effects (font (size 1.27 1.27))))
        )
        (pin passive line (at 0 -2.54 90) (length 0.762)
          (name "~" (effects (font (size 1.27 1.27))))
          (number "2" (effects (font (size 1.27 1.27))))
        )
      )
    )
    (symbol "resistor_smd_standard:33k_0402" (pin_numbers hide) (pin_names (offset 0.254) hide) (in_bom yes) (on_board yes)
      (property "Reference" "R" (at 1.27 1.27 0)
        (effects (font (size 1.27 1.27)) (justify left))
      )
      (property "Value" "33k_0402" (at 1.27 0 0)
        (effects (font (size 0.7 0.7)) (justify left))
      )
      (property "Footprint" "Resistor_SMD:R_0402_1005Metric" (at 0.635 -3.175 0)
        (effects (font (size 1.27 1.27)) hide)
      )
      (property "Datasheet" "https://datasheet.lcsc.com/lcsc/2110260030_UNI-ROYAL-Uniroyal-Elec-0402WGF3302TCE_C25779.pdf" (at 0 -3.175 0)
        (effects (font (size 1.27 1.27)) hide)
      )
      (property "LCSC" "C25779" (at 0.635 -3.175 0)
        (effects (font (size 1.27 1.27)) hide)
      )
      (property "Tollerance" "1%" (at 1.905 -1.27 0)
        (effects (font (size 0.7 0.7)) hide)
      )
      (property "Voltage" "50V" (at 3.81 -1.27 0)
        (effects (font (size 0.7 0.7)) hide)
      )
      (property "Price1000" "0.0004" (at 0 0 0)
        (effects (font (size 1.27 1.27)) hide)
      )
      (property "QtyReel" "10000" (at 0 0 0)
        (effects (font (size 1.27 1.27)) hide)
      )
      (property "ki_keywords" "R resistor" (at 0 0 0)
        (effects (font (size 1.27 1.27)) hide)
      )
      (property "ki_description" "±1% 1/16W Thick Film Resistors 50V ±100ppm/℃ -55℃~+155℃ 33kΩ 0402 Chip Resistor - Surface Mount ROHS" (at 0 0 0)
        (effects (font (size 1.27 1.27)) hide)
      )
      (property "ki_fp_filters" "R_*" (at 0 0 0)
        (effects (font (size 1.27 1.27)) hide)
      )
      (symbol "33k_0402_0_1"
        (rectangle (start -0.762 1.778) (end 0.762 -1.778)
          (stroke (width 0.2032) (type default))
          (fill (type none))
        )
      )
      (symbol "33k_0402_1_1"
        (pin passive line (at 0 2.54 270) (length 0.762)
          (name "~" (effects (font (size 1.27 1.27))))
          (number "1" (effects (font (size 1.27 1.27))))
        )
        (pin passive line (at 0 -2.54 90) (length 0.762)
          (name "~" (effects (font (size 1.27 1.27))))
          (number "2" (effects (font (size 1.27 1.27))))
        )
      )
    )
    (symbol "resistor_smd_standard:6k8_0402" (pin_numbers hide) (pin_names (offset 0.254) hide) (in_bom yes) (on_board yes)
      (property "Reference" "R" (at 1.27 1.27 0)
        (effects (font (size 1.27 1.27)) (justify left))
      )
      (property "Value" "6k8_0402" (at 1.27 0 0)
        (effects (font (size 0.7 0.7)) (justify left))
      )
      (property "Footprint" "Resistor_SMD:R_0402_1005Metric" (at 0.635 -3.175 0)
        (effects (font (size 1.27 1.27)) hide)
      )
      (property "Datasheet" "https://datasheet.lcsc.com/lcsc/2110260030_UNI-ROYAL-Uniroyal-Elec-0402WGF1002TCE_C25744.pdf" (at 0 -3.175 0)
        (effects (font (size 1.27 1.27)) hide)
      )
      (property "LCSC" "C25917" (at 0.635 -3.175 0)
        (effects (font (size 1.27 1.27)) hide)
      )
      (property "Description" "±1% 1/16W Thick Film Resistors 50V ±100ppm/℃ -55℃~+155℃ 10kΩ 0402 Chip Resistor - Surface Mount ROHS" (at 0.635 -3.175 0)
        (effects (font (size 1.27 1.27)) hide)
      )
      (property "Tollerance" "1%" (at 1.905 -1.27 0)
        (effects (font (size 0.7 0.7)) hide)
      )
      (property "Voltage" "50V" (at 3.81 -1.27 0)
        (effects (font (size 0.7 0.7)) hide)
      )
      (property "ki_keywords" "R resistor" (at 0 0 0)
        (effects (font (size 1.27 1.27)) hide)
      )
      (property "ki_description" "±1% 1/16W Thick Film Resistors 50V ±100ppm/℃ -55℃~+155℃ 6.8kΩ 0402 Chip Resistor - Surface Mount ROHS" (at 0 0 0)
        (effects (font (size 1.27 1.27)) hide)
      )
      (property "ki_fp_filters" "R_*" (at 0 0 0)
        (effects (font (size 1.27 1.27)) hide)
      )
      (symbol "6k8_0402_0_1"
        (rectangle (start -0.762 1.778) (end 0.762 -1.778)
          (stroke (width 0.2032) (type default))
          (fill (type none))
        )
      )
      (symbol "6k8_0402_1_1"
        (pin passive line (at 0 2.54 270) (length 0.762)
          (name "~" (effects (font (size 1.27 1.27))))
          (number "1" (effects (font (size 1.27 1.27))))
        )
        (pin passive line (at 0 -2.54 90) (length 0.762)
          (name "~" (effects (font (size 1.27 1.27))))
          (number "2" (effects (font (size 1.27 1.27))))
        )
      )
    )
  )

  (junction (at 50.8 124.46) (diameter 0) (color 0 0 0 0)
    (uuid 13d13f6a-9d0f-428b-a438-55ba19787401)
  )
  (junction (at 113.665 124.46) (diameter 0) (color 0 0 0 0)
    (uuid 1e6603da-9814-4202-90ac-f895bd106a77)
  )
  (junction (at 35.56 124.46) (diameter 0) (color 0 0 0 0)
    (uuid 2c2b2764-c3a3-4988-bfd5-2545a77a944c)
  )
  (junction (at 113.665 144.78) (diameter 0) (color 0 0 0 0)
    (uuid 3be14ad8-9d88-46bb-8e66-1a3fb6a65b13)
  )
  (junction (at 84.455 144.78) (diameter 0) (color 0 0 0 0)
    (uuid 3ebabca2-5e25-46c8-a0fa-a0d0711e9c13)
  )
  (junction (at 97.155 124.46) (diameter 0) (color 0 0 0 0)
    (uuid 98125e9f-d1a0-426d-a80f-bf6461013d4c)
  )
  (junction (at 35.56 144.78) (diameter 0) (color 0 0 0 0)
    (uuid 9a293594-c06b-414e-bdc4-4eac7c027fcd)
  )
  (junction (at 113.665 134.62) (diameter 0) (color 0 0 0 0)
    (uuid aef73e1a-66bd-4504-9af7-a6212033e1da)
  )
  (junction (at 145.415 144.78) (diameter 0) (color 0 0 0 0)
    (uuid afe1ccec-e9b7-49b9-bc67-523537f22766)
  )
  (junction (at 130.81 144.78) (diameter 0) (color 0 0 0 0)
    (uuid b26f23ec-796b-498c-86e5-ef2de9e12baf)
  )
  (junction (at 66.675 124.46) (diameter 0) (color 0 0 0 0)
    (uuid db2277e6-62db-44e5-9df9-1d5cb0b85ea9)
  )
  (junction (at 145.415 124.46) (diameter 0) (color 0 0 0 0)
    (uuid dd1ac7ff-e2f4-4c22-ad23-0df14664a739)
  )
  (junction (at 50.8 144.78) (diameter 0) (color 0 0 0 0)
    (uuid f8cde0f2-66d2-422f-b70e-ebab4144e3f6)
  )
  (junction (at 130.81 124.46) (diameter 0) (color 0 0 0 0)
    (uuid fa8a9005-ca54-4565-8a67-08400b35af7c)
  )

  (wire (pts (xy 20.955 124.46) (xy 26.035 124.46))
    (stroke (width 0) (type default))
    (uuid 0364b0a7-76a5-45fa-a411-94fba437feb1)
  )
  (wire (pts (xy 113.665 134.62) (xy 113.665 136.525))
    (stroke (width 0) (type default))
    (uuid 050e55e3-bb64-4974-bc64-06ac38f9f888)
  )
  (wire (pts (xy 50.8 144.78) (xy 84.455 144.78))
    (stroke (width 0) (type default))
    (uuid 0832b3be-7997-4585-9b53-36539861aace)
  )
  (wire (pts (xy 20.955 144.78) (xy 35.56 144.78))
    (stroke (width 0) (type default))
    (uuid 086fca43-777b-4fa7-add2-f28883aa01e5)
  )
  (wire (pts (xy 84.455 144.78) (xy 113.665 144.78))
    (stroke (width 0) (type default))
    (uuid 0a640ff5-6944-421f-ae76-239a22a6addd)
  )
  (wire (pts (xy 145.415 132.715) (xy 145.415 144.78))
    (stroke (width 0) (type default))
    (uuid 0eacdd5e-e73c-4da7-a2ce-ab16a03786d0)
  )
  (wire (pts (xy 145.415 144.78) (xy 172.085 144.78))
    (stroke (width 0) (type default))
    (uuid 11ad911e-1738-4970-93a9-25418ca1c3dc)
  )
  (wire (pts (xy 130.81 124.46) (xy 113.665 124.46))
    (stroke (width 0) (type default))
    (uuid 18a2cd98-6942-47c5-9e04-debc05b64255)
  )
  (wire (pts (xy 130.81 124.46) (xy 145.415 124.46))
    (stroke (width 0) (type default))
    (uuid 21cb9dde-707f-4326-b509-2128e0f6233f)
  )
  (wire (pts (xy 97.155 97.155) (xy 97.155 102.235))
    (stroke (width 0) (type default))
    (uuid 4e712bc2-92cf-4b9b-b17e-9a39f992ae0a)
  )
  (wire (pts (xy 86.995 116.84) (xy 86.995 97.155))
    (stroke (width 0) (type default))
    (uuid 558d047a-d8cf-46e7-a36e-363e6fdc15fd)
  )
  (wire (pts (xy 130.81 144.78) (xy 113.665 144.78))
    (stroke (width 0) (type default))
    (uuid 63515d7d-c4e0-4dce-bb20-ba452d473af3)
  )
  (wire (pts (xy 66.675 124.46) (xy 71.755 124.46))
    (stroke (width 0) (type default))
    (uuid 65f62f16-63a4-4901-ab53-19dbae0640a7)
  )
  (wire (pts (xy 50.8 127) (xy 50.8 124.46))
    (stroke (width 0) (type default))
    (uuid 66cf4351-cefc-4dbf-a3c3-676dc91e329e)
  )
  (wire (pts (xy 71.755 134.62) (xy 66.675 134.62))
    (stroke (width 0) (type default))
    (uuid 671105a9-04d8-4ce5-a39a-ee7ad9e33537)
  )
  (wire (pts (xy 113.665 134.62) (xy 113.665 130.175))
    (stroke (width 0) (type default))
    (uuid 701b71bd-4f10-48db-9ce3-9ffbcd4087b0)
  )
  (wire (pts (xy 31.115 124.46) (xy 35.56 124.46))
    (stroke (width 0) (type default))
    (uuid 7fe92c9f-21d1-4627-a4ec-757f2007ff31)
  )
  (wire (pts (xy 50.8 144.78) (xy 50.8 132.08))
    (stroke (width 0) (type default))
    (uuid 835389ab-a599-4601-a2e8-fe9f9222eee7)
  )
  (wire (pts (xy 35.56 124.46) (xy 50.8 124.46))
    (stroke (width 0) (type default))
    (uuid 95d36bc6-8931-45fc-a2ab-48fe1e165570)
  )
  (wire (pts (xy 86.995 97.155) (xy 97.155 97.155))
    (stroke (width 0) (type default))
    (uuid 9a442bc9-13ea-4a9f-b8fa-fcd3c163a0e2)
  )
  (wire (pts (xy 113.665 141.605) (xy 113.665 144.78))
    (stroke (width 0) (type default))
    (uuid a5181a02-c7fd-4da9-9280-9703ed59d7b5)
  )
  (wire (pts (xy 35.56 144.78) (xy 50.8 144.78))
    (stroke (width 0) (type default))
    (uuid abb87945-8de0-448b-898a-feb90d9f8708)
  )
  (wire (pts (xy 130.81 127.635) (xy 130.81 124.46))
    (stroke (width 0) (type default))
    (uuid af60f7d1-6392-4b97-aa4c-f9e66a2168b3)
  )
  (wire (pts (xy 35.56 127) (xy 35.56 124.46))
    (stroke (width 0) (type default))
    (uuid b8605ef6-6022-4adf-8281-edaae35b39a6)
  )
  (wire (pts (xy 50.8 124.46) (xy 66.675 124.46))
    (stroke (width 0) (type default))
    (uuid bdc0dfc6-5adb-498b-a4fa-1e55dd728c5d)
  )
  (wire (pts (xy 145.415 124.46) (xy 145.415 127.635))
    (stroke (width 0) (type default))
    (uuid be5919a3-cd65-47d9-80ba-296c7601ee68)
  )
  (wire (pts (xy 35.56 132.08) (xy 35.56 144.78))
    (stroke (width 0) (type default))
    (uuid c5796b3d-de33-401e-ad03-05195bdca9d3)
  )
  (wire (pts (xy 113.665 124.46) (xy 111.125 124.46))
    (stroke (width 0) (type default))
    (uuid c831d834-b23e-4277-ac93-e9120b493ac2)
  )
  (wire (pts (xy 97.155 134.62) (xy 113.665 134.62))
    (stroke (width 0) (type default))
    (uuid d3470a5e-4bd9-4ad5-862b-432b5c5bff07)
  )
  (wire (pts (xy 113.665 125.095) (xy 113.665 124.46))
    (stroke (width 0) (type default))
    (uuid d57a79b8-5d65-4134-a733-c13651a7c765)
  )
  (wire (pts (xy 66.675 134.62) (xy 66.675 124.46))
    (stroke (width 0) (type default))
    (uuid d690df27-3e37-411b-82f8-412d05359e3e)
  )
  (wire (pts (xy 130.81 132.715) (xy 130.81 144.78))
    (stroke (width 0) (type default))
    (uuid d87f6d28-e66f-4db5-a677-64ffc63ab6dc)
  )
  (wire (pts (xy 97.155 124.46) (xy 106.045 124.46))
    (stroke (width 0) (type default))
    (uuid e012e9e4-76af-4f28-890f-ded8dd91146f)
  )
  (wire (pts (xy 145.415 144.78) (xy 130.81 144.78))
    (stroke (width 0) (type default))
    (uuid f3ebe43e-a71c-4e47-a9ac-7af0c56b3625)
  )
  (wire (pts (xy 145.415 124.46) (xy 171.45 124.46))
    (stroke (width 0) (type default))
    (uuid fa069800-33ba-4b21-a44e-957bb5786841)
  )
  (wire (pts (xy 97.155 124.46) (xy 97.155 107.315))
    (stroke (width 0) (type default))
    (uuid fcd74dd7-0a7b-4a2c-8557-7d61248cdb03)
  )

  (text "This configuration: 3.5V\n3.3V configuration 100k/22k"
    (at 165.735 135.89 0)
    (effects (font (size 1.27 1.27)) (justify left bottom))
    (uuid f3811051-2f7f-458a-bb70-1e2b4850c356)
  )

  (hierarchical_label "OUT-" (shape input) (at 172.085 144.78 0) (fields_autoplaced)
    (effects (font (size 1.27 1.27)) (justify left))
    (uuid 0bbfdc6d-f076-41fb-8d75-4f59841256df)
  )
  (hierarchical_label "OUT+" (shape input) (at 171.45 124.46 0) (fields_autoplaced)
    (effects (font (size 1.27 1.27)) (justify left))
    (uuid 3038d645-fb7a-4532-b532-13230b12833b)
  )
  (hierarchical_label "SUP+" (shape input) (at 20.955 124.46 180) (fields_autoplaced)
    (effects (font (size 1.27 1.27)) (justify right))
    (uuid 67e2b12c-c19e-4bf6-9b0d-5ae936fd3cd4)
  )
  (hierarchical_label "SUP-" (shape input) (at 20.955 144.78 180) (fields_autoplaced)
    (effects (font (size 1.27 1.27)) (justify right))
    (uuid 73e6fae0-82d0-4df6-a546-67bc0c0e25ae)
  )

  (symbol (lib_id "capacitor_smd_extended:10u_0805_X7R_16V") (at 50.8 129.54 0) (unit 1)
    (in_bom yes) (on_board yes) (dnp no) (fields_autoplaced)
    (uuid 26f66f0f-0a51-43ba-a88b-197226107b31)
    (property "Reference" "C205" (at 53.34 128.9113 0)
      (effects (font (size 1.27 1.27)) (justify left))
    )
    (property "Value" "10u_0805_X7R_16V" (at 53.34 130.8163 0)
      (effects (font (size 0.7 0.7)) (justify left))
    )
    (property "Footprint" "Capacitor_SMD:C_0805_2012Metric" (at 50.8 129.54 0)
      (effects (font (size 1.27 1.27)) hide)
    )
    (property "Datasheet" "https://datasheet.lcsc.com/lcsc/2304140030_Samsung-Electro-Mechanics-CL31B106KOHNNNE_C47971.pdf" (at 50.8 129.54 0)
      (effects (font (size 1.27 1.27)) hide)
    )
    (property "LCSC" "C47971" (at 50.8 129.54 0)
      (effects (font (size 1.27 1.27)) hide)
    )
    (property "PriceReel" "0.0133" (at 50.8 129.54 0)
      (effects (font (size 1.27 1.27)) hide)
    )
    (property "QtyReel" "3000" (at 50.8 129.54 0)
      (effects (font (size 1.27 1.27)) hide)
    )
    (pin "1" (uuid bdaed5f9-8545-42f4-b321-646ade11f097))
    (pin "2" (uuid 31b576b2-7f21-4ff9-a7c1-4af2ba8f63c7))
    (instances
      (project "auxsupply"
        (path "/a29a2a17-db50-47bf-8d31-0e3d0d487483/6721b4e3-e6fe-4d07-9756-d333b672f107"
          (reference "C205") (unit 1)
        )
        (path "/a29a2a17-db50-47bf-8d31-0e3d0d487483/869e4b36-612a-4da2-9f84-68963474e5d9"
          (reference "C603") (unit 1)
        )
      )
    )
  )

  (symbol (lib_id "capacitor_smd_extended:10u_0805_X7R_16V") (at 130.81 130.175 0) (unit 1)
    (in_bom yes) (on_board yes) (dnp no) (fields_autoplaced)
    (uuid 349d1b8b-e7d6-4162-be62-7ad26686aba9)
    (property "Reference" "C205" (at 133.35 129.5463 0)
      (effects (font (size 1.27 1.27)) (justify left))
    )
    (property "Value" "10u_0805_X7R_16V" (at 133.35 131.4513 0)
      (effects (font (size 0.7 0.7)) (justify left))
    )
    (property "Footprint" "Capacitor_SMD:C_0805_2012Metric" (at 130.81 130.175 0)
      (effects (font (size 1.27 1.27)) hide)
    )
    (property "Datasheet" "https://datasheet.lcsc.com/lcsc/2304140030_Samsung-Electro-Mechanics-CL31B106KOHNNNE_C47971.pdf" (at 130.81 130.175 0)
      (effects (font (size 1.27 1.27)) hide)
    )
    (property "LCSC" "C47971" (at 130.81 130.175 0)
      (effects (font (size 1.27 1.27)) hide)
    )
    (property "PriceReel" "0.0133" (at 130.81 130.175 0)
      (effects (font (size 1.27 1.27)) hide)
    )
    (property "QtyReel" "3000" (at 130.81 130.175 0)
      (effects (font (size 1.27 1.27)) hide)
    )
    (pin "1" (uuid bd923b77-5d47-4600-96ea-42ade05e84f7))
    (pin "2" (uuid 373e00e1-e850-4072-bdd9-53fb27f5baf0))
    (instances
      (project "auxsupply"
        (path "/a29a2a17-db50-47bf-8d31-0e3d0d487483/6721b4e3-e6fe-4d07-9756-d333b672f107"
          (reference "C205") (unit 1)
        )
        (path "/a29a2a17-db50-47bf-8d31-0e3d0d487483/869e4b36-612a-4da2-9f84-68963474e5d9"
          (reference "C604") (unit 1)
        )
      )
    )
  )

  (symbol (lib_id "capacitor_smd_extended:10u_0805_X7R_16V") (at 145.415 130.175 0) (unit 1)
    (in_bom yes) (on_board yes) (dnp no) (fields_autoplaced)
    (uuid 49cb4707-9612-4af1-ae42-9e58302d6528)
    (property "Reference" "C205" (at 147.955 129.5463 0)
      (effects (font (size 1.27 1.27)) (justify left))
    )
    (property "Value" "10u_0805_X7R_16V" (at 147.955 131.4513 0)
      (effects (font (size 0.7 0.7)) (justify left))
    )
    (property "Footprint" "Capacitor_SMD:C_0805_2012Metric" (at 145.415 130.175 0)
      (effects (font (size 1.27 1.27)) hide)
    )
    (property "Datasheet" "https://datasheet.lcsc.com/lcsc/2304140030_Samsung-Electro-Mechanics-CL31B106KOHNNNE_C47971.pdf" (at 145.415 130.175 0)
      (effects (font (size 1.27 1.27)) hide)
    )
    (property "LCSC" "C47971" (at 145.415 130.175 0)
      (effects (font (size 1.27 1.27)) hide)
    )
    (property "PriceReel" "0.0133" (at 145.415 130.175 0)
      (effects (font (size 1.27 1.27)) hide)
    )
    (property "QtyReel" "3000" (at 145.415 130.175 0)
      (effects (font (size 1.27 1.27)) hide)
    )
    (pin "1" (uuid 7c4bec0f-3e52-4353-a574-12efc96636cd))
    (pin "2" (uuid d8245930-505b-4ce9-a961-6a81db8809e5))
    (instances
      (project "auxsupply"
        (path "/a29a2a17-db50-47bf-8d31-0e3d0d487483/6721b4e3-e6fe-4d07-9756-d333b672f107"
          (reference "C205") (unit 1)
        )
        (path "/a29a2a17-db50-47bf-8d31-0e3d0d487483/869e4b36-612a-4da2-9f84-68963474e5d9"
          (reference "C605") (unit 1)
        )
      )
    )
  )

  (symbol (lib_id "resistor_smd_standard:6k8_0402") (at 113.665 139.065 0) (unit 1)
    (in_bom yes) (on_board yes) (dnp no) (fields_autoplaced)
    (uuid 6ce110a7-f21a-49b6-b186-a1758fb842f2)
    (property "Reference" "R602" (at 116.205 138.43 0)
      (effects (font (size 1.27 1.27)) (justify left))
    )
    (property "Value" "6k8_0402" (at 116.205 140.335 0)
      (effects (font (size 0.7 0.7)) (justify left))
    )
    (property "Footprint" "Resistor_SMD:R_0402_1005Metric" (at 114.3 142.24 0)
      (effects (font (size 1.27 1.27)) hide)
    )
    (property "Datasheet" "https://datasheet.lcsc.com/lcsc/2110260030_UNI-ROYAL-Uniroyal-Elec-0402WGF1002TCE_C25744.pdf" (at 113.665 142.24 0)
      (effects (font (size 1.27 1.27)) hide)
    )
    (property "LCSC" "C25917" (at 114.3 142.24 0)
      (effects (font (size 1.27 1.27)) hide)
    )
    (property "Description" "±1% 1/16W Thick Film Resistors 50V ±100ppm/℃ -55℃~+155℃ 10kΩ 0402 Chip Resistor - Surface Mount ROHS" (at 114.3 142.24 0)
      (effects (font (size 1.27 1.27)) hide)
    )
    (property "Tollerance" "1%" (at 115.57 140.335 0)
      (effects (font (size 0.7 0.7)) hide)
    )
    (property "Voltage" "50V" (at 117.475 140.335 0)
      (effects (font (size 0.7 0.7)) hide)
    )
    (pin "1" (uuid 036aba40-70f1-4e0f-8fb8-7356fab7db20))
    (pin "2" (uuid b19d581e-8723-4d96-a0e8-20254ceb791a))
    (instances
      (project "auxsupply"
        (path "/a29a2a17-db50-47bf-8d31-0e3d0d487483/869e4b36-612a-4da2-9f84-68963474e5d9"
          (reference "R602") (unit 1)
        )
      )
    )
  )

  (symbol (lib_id "inductor:10u_252012_1200mA") (at 108.585 124.46 90) (unit 1)
    (in_bom yes) (on_board yes) (dnp no) (fields_autoplaced)
    (uuid 83d976c4-1d9a-4998-8933-c0b4afbab9e1)
    (property "Reference" "L601" (at 108.585 118.745 90)
      (effects (font (size 1.27 1.27)))
    )
    (property "Value" "FTC252012S100MBCA" (at 108.585 121.285 90)
      (effects (font (size 1.27 1.27)))
    )
    (property "Footprint" "Inductor_SMD:L_Changjiang_FNR252012S" (at 108.585 124.46 0)
      (effects (font (size 1.27 1.27)) hide)
    )
    (property "Datasheet" "https://datasheet.lcsc.com/lcsc/2306021632_cjiang--Changjiang-Microelectronics-Tech-FTC252012S100MBCA_C5832376.pdf" (at 108.585 124.46 0)
      (effects (font (size 1.27 1.27)) hide)
    )
    (property "LCSC" "C5832376" (at 108.585 124.46 0)
      (effects (font (size 1.27 1.27)) hide)
    )
    (property "Description" "1.2A 10uH Molding Choke ±20% 1.6A SMD,2x2.5mm  Power Inductors ROHS" (at 108.585 124.46 0)
      (effects (font (size 1.27 1.27)) hide)
    )
    (property "Price1000" "0.0277" (at 108.585 124.46 0)
      (effects (font (size 1.27 1.27)) hide)
    )
    (pin "1" (uuid f9e41f31-ec13-4082-9377-0c8bbafc6fce))
    (pin "2" (uuid b7437c23-5373-4b01-8bfb-21f16abc1e96))
    (instances
      (project "auxsupply"
        (path "/a29a2a17-db50-47bf-8d31-0e3d0d487483/869e4b36-612a-4da2-9f84-68963474e5d9"
          (reference "L601") (unit 1)
        )
      )
    )
  )

  (symbol (lib_id "dcdc:MT2492") (at 84.455 129.54 0) (unit 1)
    (in_bom yes) (on_board yes) (dnp no) (fields_autoplaced)
    (uuid b40590a7-fffb-497e-ac52-f26f503894f3)
    (property "Reference" "U601" (at 89.1891 116.84 0)
      (effects (font (size 1.27 1.27)) (justify left))
    )
    (property "Value" "MT2492" (at 89.1891 119.38 0)
      (effects (font (size 1.27 1.27)) (justify left))
    )
    (property "Footprint" "Package_TO_SOT_SMD:SOT-23-6" (at 84.455 129.54 0)
      (effects (font (size 1.27 1.27)) hide)
    )
    (property "Datasheet" "https://datasheet.lcsc.com/lcsc/2212101330_XI-AN-Aerosemi-Tech-MT2492_C89358.pdf" (at 84.455 129.54 0)
      (effects (font (size 1.27 1.27)) hide)
    )
    (property "LCSC" "C89358" (at 84.455 129.54 0)
      (effects (font (size 1.27 1.27)) hide)
    )
    (property "Price1000" "0.0302" (at 84.455 129.54 0)
      (effects (font (size 1.27 1.27)) hide)
    )
    (property "QtyReel" "3000" (at 84.455 129.54 0)
      (effects (font (size 1.27 1.27)) hide)
    )
    (property "JLCPCB_CORRECTION" "0;0;180;" (at 84.455 129.54 0)
      (effects (font (size 1.27 1.27)) hide)
    )
    (pin "1" (uuid 4e732c21-ccad-4764-9921-29cf0ea2b4bf))
    (pin "2" (uuid 172f7a13-6d16-4d77-95b7-be3853beeb3b))
    (pin "3" (uuid 9574f06e-6f06-43b2-b9e9-d28a3f2128c0))
    (pin "4" (uuid 5f076e2a-e728-4569-8a43-a992553dfd11))
    (pin "5" (uuid 2d707d29-f31c-4965-8497-5bd696e32391))
    (pin "6" (uuid 54e36222-3c91-4020-9e16-dc6ac7e70dd3))
    (instances
      (project "auxsupply"
        (path "/a29a2a17-db50-47bf-8d31-0e3d0d487483/869e4b36-612a-4da2-9f84-68963474e5d9"
          (reference "U601") (unit 1)
        )
      )
    )
  )

  (symbol (lib_id "resistor_smd_standard:1_0805") (at 28.575 124.46 90) (unit 1)
    (in_bom yes) (on_board yes) (dnp no) (fields_autoplaced)
    (uuid c0d24666-b2eb-4746-a377-2769ae9b6ed1)
    (property "Reference" "R603" (at 28.575 120.65 90)
      (effects (font (size 1.27 1.27)))
    )
    (property "Value" "1_0805" (at 28.575 121.92 90)
      (effects (font (size 0.7 0.7)))
    )
    (property "Footprint" "Resistor_SMD:R_0805_2012Metric" (at 31.75 123.825 0)
      (effects (font (size 1.27 1.27)) hide)
    )
    (property "Datasheet" "https://datasheet.lcsc.com/lcsc/2110251830_UNI-ROYAL-Uniroyal-Elec-0805W8F510KT5E_C17724.pdf" (at 31.75 124.46 0)
      (effects (font (size 1.27 1.27)) hide)
    )
    (property "LCSC" "C25271" (at 31.75 123.825 0)
      (effects (font (size 1.27 1.27)) hide)
    )
    (pin "1" (uuid 4cfe9b8f-fc5f-424c-be50-01cb335a466a))
    (pin "2" (uuid 526ac5f7-9179-42f6-b693-46ead9802719))
    (instances
      (project "auxsupply"
        (path "/a29a2a17-db50-47bf-8d31-0e3d0d487483/869e4b36-612a-4da2-9f84-68963474e5d9"
          (reference "R603") (unit 1)
        )
      )
    )
  )

  (symbol (lib_id "capacitor_smd_extended:10u_0805_X7R_16V") (at 35.56 129.54 0) (unit 1)
    (in_bom yes) (on_board yes) (dnp no) (fields_autoplaced)
    (uuid d23aaf6e-e8c8-482d-92ff-9a7331e6b4ea)
    (property "Reference" "C204" (at 38.1 128.9113 0)
      (effects (font (size 1.27 1.27)) (justify left))
    )
    (property "Value" "10u_0805_X7R_16V" (at 38.1 130.8163 0)
      (effects (font (size 0.7 0.7)) (justify left))
    )
    (property "Footprint" "Capacitor_SMD:C_0805_2012Metric" (at 35.56 129.54 0)
      (effects (font (size 1.27 1.27)) hide)
    )
    (property "Datasheet" "https://datasheet.lcsc.com/lcsc/2304140030_Samsung-Electro-Mechanics-CL31B106KOHNNNE_C47971.pdf" (at 35.56 129.54 0)
      (effects (font (size 1.27 1.27)) hide)
    )
    (property "LCSC" "C47971" (at 35.56 129.54 0)
      (effects (font (size 1.27 1.27)) hide)
    )
    (property "PriceReel" "0.0133" (at 35.56 129.54 0)
      (effects (font (size 1.27 1.27)) hide)
    )
    (property "QtyReel" "3000" (at 35.56 129.54 0)
      (effects (font (size 1.27 1.27)) hide)
    )
    (pin "1" (uuid 16b31d1d-bc8c-4105-b393-8bbe8d0842ce))
    (pin "2" (uuid e3ccb8f8-c136-4133-83e8-73a43ea035df))
    (instances
      (project "auxsupply"
        (path "/a29a2a17-db50-47bf-8d31-0e3d0d487483/6721b4e3-e6fe-4d07-9756-d333b672f107"
          (reference "C204") (unit 1)
        )
        (path "/a29a2a17-db50-47bf-8d31-0e3d0d487483/869e4b36-612a-4da2-9f84-68963474e5d9"
          (reference "C602") (unit 1)
        )
      )
    )
  )

  (symbol (lib_id "resistor_smd_standard:33k_0402") (at 113.665 127.635 0) (unit 1)
    (in_bom yes) (on_board yes) (dnp no) (fields_autoplaced)
    (uuid db60f1da-0f3f-4cf9-8d80-ea85cfd784f3)
    (property "Reference" "R601" (at 116.205 127 0)
      (effects (font (size 1.27 1.27)) (justify left))
    )
    (property "Value" "33k_0402" (at 116.205 128.905 0)
      (effects (font (size 0.7 0.7)) (justify left))
    )
    (property "Footprint" "Resistor_SMD:R_0402_1005Metric" (at 114.3 130.81 0)
      (effects (font (size 1.27 1.27)) hide)
    )
    (property "Datasheet" "https://datasheet.lcsc.com/lcsc/2110260030_UNI-ROYAL-Uniroyal-Elec-0402WGF3302TCE_C25779.pdf" (at 113.665 130.81 0)
      (effects (font (size 1.27 1.27)) hide)
    )
    (property "LCSC" "C25779" (at 114.3 130.81 0)
      (effects (font (size 1.27 1.27)) hide)
    )
    (property "Tollerance" "1%" (at 115.57 128.905 0)
      (effects (font (size 0.7 0.7)) hide)
    )
    (property "Voltage" "50V" (at 117.475 128.905 0)
      (effects (font (size 0.7 0.7)) hide)
    )
    (property "Price1000" "0.0004" (at 113.665 127.635 0)
      (effects (font (size 1.27 1.27)) hide)
    )
    (property "QtyReel" "10000" (at 113.665 127.635 0)
      (effects (font (size 1.27 1.27)) hide)
    )
    (pin "1" (uuid cb9bb58b-b520-4b4b-8eb6-141e7084ccf9))
    (pin "2" (uuid d2488918-1fc6-45f8-a3de-1ab2332c9307))
    (instances
      (project "auxsupply"
        (path "/a29a2a17-db50-47bf-8d31-0e3d0d487483/869e4b36-612a-4da2-9f84-68963474e5d9"
          (reference "R601") (unit 1)
        )
      )
    )
  )

  (symbol (lib_id "capacitor_smd_standard:100n_0402_X7R_50V") (at 97.155 104.775 0) (unit 1)
    (in_bom yes) (on_board yes) (dnp no) (fields_autoplaced)
    (uuid ee757abb-025f-4f67-9619-1c217128e6f0)
    (property "Reference" "C601" (at 99.695 104.1463 0)
      (effects (font (size 1.27 1.27)) (justify left))
    )
    (property "Value" "100n_0402_X7R_50V" (at 99.695 106.0513 0)
      (effects (font (size 0.7 0.7)) (justify left))
    )
    (property "Footprint" "Capacitor_SMD:C_0402_1005Metric" (at 97.155 104.775 0)
      (effects (font (size 1.27 1.27)) hide)
    )
    (property "Datasheet" "https://datasheet.lcsc.com/lcsc/1810191222_Samsung-Electro-Mechanics-CL05B104KB54PNC_C307331.pdf" (at 97.155 104.775 0)
      (effects (font (size 1.27 1.27)) hide)
    )
    (property "LCSC" "C307331" (at 97.155 104.775 0)
      (effects (font (size 1.27 1.27)) hide)
    )
    (pin "1" (uuid 10057d54-6e39-422b-93df-eb60dbd24723))
    (pin "2" (uuid 4ff6b654-9a97-4f63-a8c6-25dba1fa50e7))
    (instances
      (project "auxsupply"
        (path "/a29a2a17-db50-47bf-8d31-0e3d0d487483/869e4b36-612a-4da2-9f84-68963474e5d9"
          (reference "C601") (unit 1)
        )
      )
    )
  )
)
